<?xml version="1.0" encoding="UTF-8"?>
<svg id="Layer_2" data-name="Layer 2" xmlns="http://www.w3.org/2000/svg" viewBox="0 0 297.9 38.24">
  <defs>
    <style>
      .cls-1 {
        fill: #fff;
      }
    </style>
  </defs>
  <g id="Layer_1-2" data-name="Layer 1">
    <g>
      <path class="cls-1" d="M297.8,24.3c-.2,.5-.2,1-.3,1.4-.1,.3-.2,.4-.5,.4h-20.2c.4,1,.9,1.8,1.7,2.5,1.2,1,2.6,1.4,4.1,1.5,2.2,.2,4.2-.2,6-1.5l.1-.1c.2-.2,.4-.5,.7-.5s.6,.3,.9,.4c1.9,1.1,3.8,2.2,5.8,3.3,.1,.1,.2,.1,.3,.2-1.8,2.5-4.1,4.3-7,5.1-5.4,1.6-10.6,1.2-15.4-1.9-3.5-2.3-5.5-5.7-6.2-9.8-.6-3.4-.2-6.7,1.4-9.9,2.2-4.4,5.8-7,10.6-7.9,3.2-.6,6.3-.4,9.2,.9,4.5,2,7.2,5.5,8.4,10.3,.2,.8,.3,1.5,.4,2.3q0,.1,.1,.2c-.1,1.1-.1,2.1-.1,3.1Zm-14.9-4.6h5.9c.3,0,.4,0,.3-.4-.3-.8-.7-1.6-1.3-2.2-1.4-1.5-3.2-2-5.3-1.9-2.8,.1-4.9,1.6-5.7,4.2-.1,.3-.1,.4,.3,.4,1.9-.2,3.8-.1,5.8-.1Z"/>
      <path class="cls-1" d="M.1,7.1H13c.4,0,.5,.1,.5,.5v10.6c0,3.1,2,5.7,5,6.5,.6,.1,1.1,.2,1.7,.2h9.8c.4,0,.4,.1,.4,.4v12.4c0,.4-.1,.5-.5,.5-3.3,0-6.5,.1-9.8,0-7.8-.2-13.7-3.7-17.6-10.6C1,24.9,.2,21.9,.1,18.8c0-.1,0-.2-.1-.2,.1-3.8,.1-7.6,.1-11.5Z"/>
      <path class="cls-1" d="M205.2,0V7.7c0,.4,.1,.4,.4,.4h5.1c.4,0,.4,.1,.4,.4v7.5c0,.4-.1,.5-.5,.5h-5.1c-.3,0-.4,.1-.4,.4v10c0,1.4,.8,2.2,2.4,2.4,1.1,.1,2.1,.1,3.2,0,.2,0,.3,0,.3,.3v7.4c0,.2,0,.3-.2,.3-2.6,.2-5.2,.4-7.8-.2-2.4-.5-4.3-1.6-5.5-3.9-.7-1.4-1-2.8-1.1-4.4-.2-3.5,0-7-.1-10.4v-1.5c0-.3-.1-.3-.4-.3h-3.9c-.3,0-.4-.1-.4-.3v-7.7c0-.3,.1-.4,.3-.4h3.9c.3,0,.4-.1,.4-.4V3.1c0-.3,.1-.4,.4-.5,2.7-.8,5.3-1.6,8-2.4q.1,0,.2-.1c.3-.1,.4-.1,.4-.1Z"/>
      <path class="cls-1" d="M179.1,10.8v-2.3c0-.3,.1-.3,.4-.3h8c.3,0,.4,.1,.4,.4v28.4c0,.2-.1,.3-.3,.3h-8.2c-.2,0-.3-.1-.3-.3v-2.3c-.4,.4-.8,.8-1.2,1.1-2,1.6-4.3,2.2-6.8,2.4-6.4,.3-11.9-4-13.8-10.1-1.7-5.5-1-10.7,2.6-15.3,2.7-3.5,6.3-5.3,10.8-5.3,2.9,0,5.6,.8,7.8,2.9,.1,.1,.2,.2,.3,.3,0-.1,.1,0,.3,.1Zm0,12c0-2.1-.6-3.9-2-5.4-1.2-1.2-2.7-1.7-4.3-1.8-2-.1-3.8,.4-5.3,1.7-2.5,2.2-2.7,6.5-1.3,9.1,2.1,3.8,7.4,4.2,10.2,2,1.9-1.4,2.6-3.4,2.7-5.6Z"/>
      <path class="cls-1" d="M91.4,34.5c-1.6,2-3.7,3-6.1,3.3-3.6,.5-6.8-.1-9.6-2.7-1.8-1.6-2.7-3.7-3.2-6.1-.2-1-.3-2-.3-3V8.5c0-.4,.1-.5,.5-.5h7.7c.4,0,.5,.1,.5,.5V24.6c0,1.4,.3,2.7,1.3,3.8,1,1.1,2.4,1.5,3.8,1.4,.8,0,1.6-.1,2.4-.5,1.6-.7,2.4-2.1,2.7-3.7,.1-.6,.2-1.2,.2-1.8V8.4c0-.4,.1-.4,.4-.4h7.9c.4,0,.4,.1,.4,.4v28.3c0,.3-.1,.4-.4,.4h-7.9c-.4,0-.4-.1-.4-.5,.1-.5,.1-1.2,.1-2.1Z"/>
      <path class="cls-1" d="M234.5,34.6c-2.1,2.5-4.8,3.4-7.8,3.5-2.6,.1-5-.5-7-2.1-2.3-1.7-3.5-4.1-4-6.9-.2-1.1-.3-2.1-.3-3.2V8.6c0-.4,.1-.4,.4-.4h7.9c.3,0,.4,.1,.4,.4V25c0,1.8,.6,3.3,2.1,4.3,2,1.3,6.1,1.2,7.6-1.8,.6-1.1,.7-2.3,.7-3.6V8.6c0-.3,.1-.4,.4-.4h7.9c.3,0,.4,.1,.4,.4v28.3c0,.3,0,.4-.4,.4h-8c-.3,0-.4,0-.4-.4,.1-.8,.1-1.5,.1-2.3Z"/>
      <path class="cls-1" d="M55.7,7.3c5.5,.2,9.9,2.3,12.9,7q.3,.5-.2,.7c-2.3,1.3-4.6,2.6-6.8,4-.2,.1-.4,.2-.5-.1-.9-1.6-2.4-2.5-4.2-2.8-2.1-.4-4,0-5.6,1.4-1.6,1.3-2.3,3.1-2.3,5.1,0,2.5,.9,4.5,3,5.9,2.5,1.6,6.2,1.2,8.2-.9,.4-.4,.6-.8,.9-1.2,.1-.2,.2-.2,.3-.1,2.4,1.4,4.8,2.7,7.2,4.1,.3,.2,.1,.3,0,.5-1.3,2.1-3,3.8-5.1,5.1-2.3,1.3-4.7,2-7.4,2.1-4.2,.1-7.9-1.1-11-4-2.8-2.7-4.3-5.9-4.7-9.7-.4-3.9,.4-7.5,2.7-10.6,2.6-3.7,6.2-5.7,10.7-6.3,.6-.1,1.3-.2,1.9-.2Z"/>
      <path class="cls-1" d="M156,8.1c-.4,1.2-.9,2.4-1.3,3.6-3.1,8.4-6.2,16.8-9.3,25.1-.1,.3-.2,.4-.5,.4h-9.1c-.3,0-.4-.1-.5-.4-3.5-9.4-7-18.8-10.4-28.2-.1-.1-.1-.3-.1-.5h9.2c.4,0,.5,.1,.6,.4,1.9,5.8,3.8,11.7,5.7,17.5,0,.1,.1,.2,.1,.4,.3-.8,.5-1.6,.8-2.4,1.7-5.2,3.4-10.4,5.1-15.6,.1-.3,.2-.4,.5-.4h8.9c0,.1,.1,.1,.3,.1Z"/>
      <path class="cls-1" d="M114.1,13.1c1.6-3.8,4.5-5.2,8.2-5.5,.3,0,.5,0,.5,.4v9.1c0,.3,0,.4-.4,.4-2.2-.2-4.4,.1-6.2,1.6-1.5,1.3-2.1,3-2.1,4.9v12.9c0,.4-.1,.4-.4,.4h-7.9c-.3,0-.4-.1-.4-.4V8.6c0-.3,.1-.4,.4-.4h8c.3,0,.4,.1,.4,.4-.2,1.4-.1,2.9-.1,4.5Z"/>
      <path class="cls-1" d="M257.2,13c.2-.3,.3-.7,.5-1,1.3-2.3,3.4-3.6,5.9-4.2,.6-.1,1.3-.2,1.9-.2,.2,0,.4,0,.4,.3v9.3c0,.3-.1,.3-.3,.3-1.8-.2-3.6,0-5.2,.9-1.9,1.1-2.9,2.8-3.1,4.9-.1,.8,0,1.7,0,2.5v11.1c0,.3-.1,.4-.4,.4h-8c-.3,0-.4-.1-.4-.4V8.6c0-.3,.1-.4,.4-.4h8c.3,0,.4,.1,.4,.4-.2,1.4-.2,2.9-.1,4.4-.1,0,0,0,0,0Z"/>
      <path class="cls-1" d="M22.9,22.4c-3.9,.2-7.5-3.1-7.8-7-.3-4.2,2.8-8,7.1-8.3,4.3-.3,7.9,3,8.1,7.5,.1,4.5-3.5,7.7-7.4,7.8Z"/>
    </g>
  </g>
</svg>