<?xml version="1.0" encoding="UTF-8"?>
<svg id="Layer_2" data-name="Layer 2" xmlns="http://www.w3.org/2000/svg" viewBox="0 0 276.4 40.6">
  <defs>
    <style>
      .cls-1 {
        fill: #fff;
      }
    </style>
  </defs>
  <g id="Layer_1-2" data-name="Layer 1">
    <path class="cls-1" d="M29.2,32h-5.5V0h5.5V32ZM20.9,7.2c0,1.6-1.3,2.9-2.9,2.9s-2.9-1.3-2.9-2.9,1.3-2.9,2.9-2.9c1.6,.1,2.9,1.4,2.9,2.9Zm-10.8,12.9c2.3,0,3.8-1.5,3.8-3.7s-1.6-3.8-3.9-3.8c-2.1,0-3.7,1.5-3.7,3.9,.1,2.3,1.5,3.6,3.8,3.6Zm-4.9,13.8c0,1.5,1.7,2.6,4.5,2.6,3.9,0,6.1-1.2,6.1-2.9,0-1.3-1-1.8-3.1-1.8l-5.1-.3c-1.6,.7-2.4,1.4-2.4,2.4ZM.9,26.8c0-1.6,1.2-3.2,3.5-4.4-2.1-1.3-3.3-3.3-3.3-6,0-4.7,3.6-8,8.9-8,2.2,0,4.3,.7,6,2.1,1.1,.9,2,2.1,2.4,3.5,.3,.9,.4,1.9,.4,2.9,0,4.4-3.3,7.3-8.7,7.3-1,0-1.8-.1-2.5-.3-1,.4-1.5,.9-1.5,1.5,0,1.3,1.5,1.4,4.5,1.6h0c.5,0,1.1,.1,1.7,.1,6,.4,8.6,1.6,8.6,6s-3.8,7.1-11,7.1c-6.5,0-9.9-2-9.9-5.8,0-2.2,1.3-3.3,4.1-4.2-2.2-.9-3.2-1.8-3.2-3.4Zm41.3,1c3,0,4.4-2.4,4.4-7.3s-1.4-7.3-4.4-7.3-4.4,2.4-4.4,7.3,1.5,7.3,4.4,7.3Zm0-19.3c6.3,0,10,4.4,10,12s-3.8,12-10,12-10-4.5-10-12,3.8-12,10-12Zm27.7,12c0,4.8-1.9,7.4-5,7.4-1.5,0-2.8-.7-4.2-2V14.9c1.4-1.3,2.7-1.9,4.2-1.9,3,0,5,2.6,5,7.5ZM55.3,0V26.7c0,1.1-.1,2.9-.3,5.4h4.3l.6-2.5c1.9,2,3.8,2.9,6.3,2.9,5.3,0,9.1-4.8,9.1-12s-3.9-12-8.9-12c-2.4,0-4.1,.8-5.7,2.6V0c.1,0-5.4,0-5.4,0Zm27.2,25.7c0,1.5,.9,2.5,2.5,2.5,1.7,0,3.4-.8,5.1-2.4v-4.9c-5.1,.6-7.6,2.1-7.6,4.8Zm7.8,4.3c-2.1,1.5-4.5,2.3-7,2.3-3.9,0-6.3-2.3-6.3-6.2,0-5.2,4.3-7.9,13.3-9v-1.8c0-1.7-1.2-2.6-3.3-2.6s-3.9,.9-5.1,2.6l-3.8-2.3c2-3,5-4.5,9-4.5,5.5,0,8.6,2.6,8.6,6.8v13.6c0,.8,.1,1.9,.4,3.1h-5.3s-.5-2-.5-2Zm15.6,2h-5.5V0h5.5V32Zm8.1-6.1c2.3,2.9,4.4,4.4,7,4.4,3.8,0,6.1-3.4,6.1-9.7s-2.3-9.7-6.1-9.7c-2.6,0-4.7,1.4-7,4.3,0-.1,0,10.7,0,10.7Zm-2.8-16.9h2.1l.7,3h.2c2.2-2.3,4.5-3.4,7-3.4,5.1,0,8.7,4.4,8.7,12s-3.6,12-8.7,12c-2.5,0-4.8-1.1-7-3.4h-.2v11.4h-2.8s0-31.6,0-31.6Zm23.2,17.2c0-3.9,3.6-5.4,11.5-7.1v7.1c-2.7,2.7-5,4.1-7.6,4.1-2.4,0-3.9-1.6-3.9-4.1Zm3.6,6.3c2.9,0,5.4-1.1,8-3.5,0,1,.2,2,.4,3h2.7c-.3-1.5-.4-2.5-.4-3.1V14.6c0-3.4-3.1-6-7.5-6-4,0-6.5,1.5-8.3,4.7l2.1,1.2c1.4-2.5,3.3-3.7,5.8-3.7,3.2,0,5.1,1.5,5.1,3.8v2.2c-9.8,1.7-14.3,4.1-14.3,9.4,.1,3.7,2.5,6.3,6.4,6.3Zm13.1-23.5h2.8l6.9,19.6,6.8-19.6h2.6l-8.8,24.9c-1.6,4.6-3.5,6.5-7.5,6.5-.7,0-1.5,0-2.4-.2v-2.2c.7,.1,1.4,.2,2,.2,3.4,0,4.9-1.9,5.8-6.2l-8.2-23Zm24.5,0h-2.5v23.1h2.7V15.2c2.3-2.9,4.6-4.3,6.7-4.3,3.3,0,4,1.9,4,6v15.1h2.7V15.2c2.3-2.9,4.6-4.3,6.7-4.3,3.3,0,4,1.9,4,6v15.1h2.6V16c0-4.9-2-7.4-5.9-7.4-2.5,0-5,1.3-7.5,4h-.3c-1.1-2.6-3-4-5.6-4s-5.1,1.3-7.5,4h-.2c.1-.1,.1-3.6,.1-3.6Zm40,1.8c-3.7,0-6.3,2.7-6.7,7.7h12.8c-.1-5-2.4-7.7-6.1-7.7Zm8.9,15.7c-2.1,4.1-4.7,6-8.8,6-5.8,0-9.5-4.5-9.5-11.8s3.8-12.1,9.4-12.1,8.8,3.8,8.8,11.2v.8h-15.4c0,6.4,2.5,9.8,6.9,9.8,3,0,4.9-1.5,6.6-4.9-.1-.1,2,1,2,1Zm6.2-17.5h-2.8v23.1h2.8V15.2c2.5-2.9,5-4.3,7.3-4.3,3.6,0,4.4,1.9,4.4,6v15.1h2.7V16c0-4.9-2.1-7.4-6.3-7.4-2.6,0-5.3,1.3-8.1,4v-3.6h0Zm25.8,21.3c.6,0,1.4-.2,2.5-.4v2.2c-1,.3-2.1,.4-3.1,.4-3.2,0-4.6-1.6-4.6-4.9V11.2h-3.5v-2.3h3.5V2.1h2.7v6.8h4.9v2.3h-4.9V27.7c0,1.8,.8,2.6,2.5,2.6Zm17.1-4.3c0,2.4-1.9,4.2-4.8,4.2-2.7,0-5.1-1.4-7.1-4l-2.1,1.6c2.3,3.1,5.1,4.5,8.8,4.5,4.8,0,8-2.8,8-6.6s-2.4-5.1-7-6.8c-.4-.1-.7-.3-1.1-.4-3.2-1.2-5.1-1.9-5.1-4.1s1.7-3.8,4.2-3.8,4.5,1.1,6.3,3.4l2-1.4c-2.1-2.8-4.7-4.2-7.8-4.2-4.6,0-7.6,2.6-7.6,6.1s2.5,4.9,7.2,6.6c.2,.1,.5,.2,.7,.3,3.5,1.3,5.4,2,5.4,4.6h0Z"/>
  </g>
</svg>