<?xml version="1.0" encoding="UTF-8"?>
<svg id="Layer_2" data-name="Layer 2" xmlns="http://www.w3.org/2000/svg" viewBox="0 0 243.33 33.45">
  <defs>
    <style>
      .cls-1 {
        fill: #fff;
      }
    </style>
  </defs>
  <g id="Layer_1-2" data-name="Layer 1">
    <g>
      <path class="cls-1" d="M0,11.19c.3-.76,.28-1.59,.47-2.38C1.47,4.85,3.74,1.91,7.66,.64,11.67-.66,15.48,.04,18.89,2.61c.34,.26,.33,.42,.06,.72-.67,.74-1.33,1.51-1.95,2.3-.29,.37-.48,.43-.88,.11-1.52-1.18-3.27-1.69-5.19-1.58-2.23,.12-3.78,1.32-4.53,3.53-.72,2.13-.73,4.34-.7,6.54,.02,1.14,.13,2.28,.41,3.39,.76,3.06,2.72,4.48,5.86,4.27,.14,0,.27-.03,.41-.04,1.74-.16,1.88-.31,1.88-2.04,0-1.2-.02-2.41,.01-3.61,.01-.46-.14-.56-.57-.55-.93,.03-1.85,0-2.78,.02-.33,0-.48-.06-.53-.43-.15-1.11-.34-2.22-.53-3.32-.05-.28,0-.38,.31-.38,3,0,5.99,0,8.99,0,.3,0,.36,.11,.36,.38,0,3.75-.01,7.49,0,11.24,0,.34-.2,.44-.42,.56-2.48,1.38-5.16,2.01-7.99,2-2.13,0-4.2-.38-6.02-1.59-2.59-1.73-4.05-4.22-4.73-7.22-.14-.6-.09-1.24-.35-1.81,0-1.3,0-2.6,0-3.91Z"/>
      <path class="cls-1" d="M243.33,24.57q-1.05-.04-1.05-1.13c0-.73,0-1.46,0-2.19,0-.04-.02-.08-.06-.26-.27,1.06-.53,1.99-.75,2.94-.09,.4-.18,.65-.7,.65-.5,0-.57-.25-.65-.62-.23-.95-.48-1.9-.83-2.83,0,.97-.02,1.94,0,2.91,.01,.42-.13,.54-.54,.53-.37,0-.52-.08-.51-.49,.02-1.42,.02-2.84,0-4.26,0-.35,.09-.48,.46-.48,1.15-.01,1.15-.03,1.44,1.05,.2,.74,.4,1.48,.64,2.38,.28-1.02,.56-1.88,.73-2.77,.11-.54,.34-.73,.86-.66,.31,.04,.63,.02,.95,.02,0,1.73,0,3.47,0,5.21Z"/>
      <path class="cls-1" d="M97.51,13.4c-.31,1.38-.61,2.75-.94,4.12-.61,2.49-1.25,4.96-1.85,7.45-.09,.38-.25,.46-.6,.46-1.2-.02-2.41-.02-3.61,0-.35,0-.48-.12-.56-.43-1.58-5.71-3.17-11.41-4.78-17.11-.12-.41-.02-.49,.36-.53,1.27-.12,2.55-.27,3.82-.43,.38-.05,.54,.04,.62,.45,.82,3.93,1.76,7.83,2.39,11.96,.28-1.4,.49-2.66,.78-3.9,.62-2.7,1.47-5.35,2.19-8.03,.07-.25,.17-.35,.44-.35,1.28,.01,2.56,.02,3.85,0,.33,0,.4,.16,.46,.4,.82,3.47,1.76,6.9,2.41,10.41,.08,.44,.18,.88,.29,1.45,.27-1.6,.48-3.08,.77-4.54,.49-2.45,1.03-4.89,1.55-7.34,.05-.23,.11-.39,.41-.38,1.54,.01,3.07,0,4.66,0-.49,1.73-.96,3.41-1.44,5.09-1.21,4.24-2.44,8.47-3.63,12.71-.13,.45-.31,.58-.76,.56-1.12-.03-2.25-.03-3.37,0-.35,0-.52-.08-.61-.44-.86-3.42-1.82-6.8-2.54-10.25-.09-.44-.15-.89-.23-1.34-.03,0-.05,0-.08,0Z"/>
      <path class="cls-1" d="M149.73,13.32c0-3.63,0-7.26-.01-10.88,0-.49,.12-.64,.62-.62,1.16,.03,2.33,.03,3.49,0,.42-.01,.53,.11,.53,.53-.02,2.6,0,5.2-.02,7.81,0,.54,.16,.66,.67,.65,1.81-.03,3.63-.02,5.44,0,.42,0,.53-.12,.52-.53-.02-2.62,0-5.24-.02-7.87,0-.47,.12-.6,.59-.59,1.18,.03,2.37,.04,3.55,0,.49-.02,.62,.11,.62,.61-.02,4.61-.01,9.23-.01,13.84,0,2.68,0,5.36,0,8.04,0,.44-.08,.62-.57,.6-1.2-.04-2.41-.04-3.61,0-.49,.02-.57-.16-.57-.6,.02-3.04,0-6.07,.02-9.11,0-.45-.1-.6-.58-.59-1.83,.03-3.67,.03-5.5,0-.46,0-.55,.13-.55,.57,.02,3.04,0,6.07,.02,9.11,0,.48-.11,.65-.62,.63-1.14-.04-2.29-.03-3.43,0-.47,.01-.6-.12-.59-.59,.02-3.67,.01-7.34,.01-11Z"/>
      <path class="cls-1" d="M129.42,30.24c2.79-.5,4.55-2.09,5.34-4.77-.03-.02-.05-.05-.08-.05-1.05-.04-1.07-.03-1.4-1.01-1.86-5.53-3.71-11.08-5.58-16.61-.13-.39-.08-.49,.34-.53,1.27-.12,2.54-.28,3.81-.45,.49-.07,.71,.05,.85,.56,1.25,4.43,2.74,8.79,3.81,13.27,.03,.11,.08,.22,.14,.4,.81-4.69,2.56-9.03,3.87-13.5,.11-.39,.27-.52,.69-.51,1.49,.03,2.99,.01,4.48,.01,.07,.2-.02,.34-.07,.49-2.3,6.4-4.59,12.81-6.9,19.21-.51,1.41-1.08,2.8-2.04,3.97-1.36,1.67-3.25,2.34-5.29,2.71-.21,.04-.32-.04-.41-.23-.49-.96-1-1.92-1.55-2.97Z"/>
      <path class="cls-1" d="M125.34,15.93c.01,1.54-.11,3.07-.03,4.61,.05,1.03,.44,1.88,1.26,2.49,.42,.31,.36,.51,.04,.85-.65,.69-1.26,1.41-1.86,2.15-.25,.31-.45,.33-.78,.14-.71-.4-1.38-.86-1.83-1.55-.24-.36-.37-.45-.7-.09-2.09,2.25-6.88,1.89-8.79,.36-1.7-1.37-2.09-3.23-1.9-5.25,.26-2.85,1.91-4.55,4.94-5.23,1.45-.32,2.92-.43,4.4-.35,.42,.02,.56-.09,.52-.51-.04-.49,.01-.98-.09-1.47-.21-.98-.64-1.38-1.65-1.45-1.11-.08-2.15,.22-3.15,.65-.78,.33-1.53,.74-2.22,1.22-.25,.17-.39,.17-.55-.11-.55-.96-1.12-1.9-1.68-2.84-.11-.19-.18-.33,.07-.47,3.2-1.85,6.54-3.04,10.3-2.12,2.39,.59,3.63,2.15,3.7,4.61,.04,1.46,0,2.92,0,4.38Zm-4.86,3.45h.05c0-.51-.02-1.02,0-1.53,.02-.35-.07-.51-.45-.48-.68,.07-1.37,.06-2.05,.19-1.62,.32-2.27,1.16-2.16,2.83,.11,1.64,1.44,2.54,2.99,2.02,.36-.12,.67-.32,.98-.53,.46-.31,.73-.67,.65-1.27-.05-.41-.01-.83-.01-1.24Z"/>
      <path class="cls-1" d="M222.16,9.13c1.51-1.16,3.12-1.72,4.92-1.7,.81,0,1.6,.17,2.35,.51,1.8,.8,2.26,2.39,2.29,4.13,.05,3.55,.02,7.1,.02,10.65,0,.57-.02,1.15,0,1.72,.02,.41-.13,.49-.51,.49-1.1-.02-2.21-.03-3.31,0-.44,.01-.57-.12-.56-.56,.02-2.52,.01-5.05,0-7.57,0-1.22,0-2.44-.02-3.67-.03-1.57-.8-2.21-2.32-1.89-.96,.2-1.8,.66-2.58,1.25-.29,.22-.28,.49-.28,.79,0,3.65-.01,7.29,.02,10.94,0,.57-.14,.74-.71,.71-1.06-.05-2.13-.04-3.19,0-.53,.02-.65-.13-.65-.65,.02-6.39,0-12.77,.01-19.16,0-1.12-.06-2.25-.26-3.35-.06-.32,.03-.42,.3-.48,1.29-.29,2.57-.58,3.85-.9,.31-.08,.36,.02,.4,.29,.21,1.37,.23,2.75,.23,4.12,0,1.41,0,2.82,0,4.34Z"/>
      <path class="cls-1" d="M42.91,17.8c-1.6,0-3.19,.01-4.79,0-.42,0-.51,.12-.49,.54,.13,2.81,1.87,4.32,4.63,3.97,1.07-.14,2.05-.54,2.96-1.11,.32-.2,.61-.68,.96-.56,.28,.1,.44,.58,.64,.89,.35,.53,.68,1.06,1.03,1.59,.13,.19,.16,.32-.04,.49-3.51,2.9-8.76,3.15-11.99,.74-1.42-1.06-2.37-2.48-2.88-4.16-.82-2.75-.81-5.54,.1-8.26,1.64-4.87,7.47-6.87,11.8-4.09,1.85,1.19,2.67,3.04,3.09,5.11,.29,1.46,.31,2.93,.32,4.41,0,.38-.13,.46-.48,.45-1.62-.02-3.24,0-4.85,0Zm-2.43-3.55h1.12q1.88,0,1.48-1.89c-.25-1.19-1.05-2.01-2.08-2.12-1.41-.15-2.35,.38-2.9,1.61-.28,.62-.35,1.28-.4,1.95-.03,.32,.07,.46,.42,.45,.79-.02,1.58,0,2.36,0Z"/>
      <path class="cls-1" d="M60.83,17.8c-1.58,0-3.16,.02-4.73-.01-.47,0-.57,.14-.52,.58,.06,.45,.09,.9,.22,1.34,.57,1.98,2.3,2.95,4.56,2.57,1.25-.21,2.38-.71,3.36-1.5,.32-.25,.46-.21,.65,.12,.45,.74,.93,1.46,1.41,2.18,.14,.21,.18,.35-.05,.54-3.31,2.67-7.84,3.02-10.99,1.33-2.4-1.28-3.67-3.4-4.17-5.99-.44-2.26-.39-4.53,.31-6.72,2.01-6.26,8.33-6.55,11.87-4.42,1.73,1.04,2.55,2.74,3.02,4.63,.41,1.64,.42,3.32,.41,5,0,.42-.25,.36-.5,.36-1.62,0-3.24,0-4.85,0Zm-2.47-3.55c.39,0,.79,.01,1.18,0,.52-.02,1.27,.24,1.52-.11,.35-.48,.06-1.21-.03-1.83,0-.02-.01-.04-.02-.06-.31-1.21-1.11-1.95-2.16-2.03-1.41-.09-2.35,.47-2.84,1.71-.24,.61-.32,1.25-.37,1.9-.03,.36,.11,.42,.43,.42,.77-.02,1.53,0,2.3,0Z"/>
      <path class="cls-1" d="M73.15,8.75c.7-.43,1.33-.87,2-1.23,1.34-.7,2.78-1.01,4.29-.75,2.49,.43,3.76,1.87,3.85,4.4,.06,1.83,.02,3.67,.02,5.5,0,2.74,0,5.48,.01,8.22,0,.41-.09,.54-.51,.53-1.2-.03-2.41-.04-3.61,0-.5,.02-.66-.09-.66-.63,.03-3.73,.02-7.45,.01-11.18,0-.49-.04-.99-.1-1.47-.12-.98-.61-1.41-1.58-1.35-1.25,.08-2.21,.77-3.13,1.53-.2,.17-.12,.4-.12,.61,0,3.96-.01,7.93,0,11.89,0,.5-.13,.62-.62,.61-1.22-.04-2.44-.03-3.67,0-.46,.01-.59-.11-.59-.58,.02-4.26,0-8.52,.01-12.78,0-1.33-.13-2.64-.53-3.91-.11-.36,0-.43,.3-.51,1.16-.32,2.32-.63,3.46-.99,.39-.12,.53,.01,.66,.33,.24,.55,.4,1.11,.48,1.77Z"/>
      <path class="cls-1" d="M190.21,7.52c1.37,0,2.56,.17,3.65,.74,1.39,.72,2.12,1.9,2.24,3.45,.14,1.75-.04,3.5-.01,5.26,.01,1-.01,2.01-.03,3.02-.02,1.11,.34,2.06,1.24,2.74,.34,.26,.28,.41,.03,.68-.57,.62-1.14,1.25-1.66,1.92-.32,.41-.6,.39-.99,.15-.61-.38-1.17-.81-1.58-1.41-.16-.24-.25-.32-.52-.09-2.01,1.76-5.35,2.07-7.68,.73-1.35-.78-2.05-1.99-2.24-3.5-.25-2.1,.09-4.03,1.92-5.39,1.07-.8,2.33-1.11,3.63-1.31,1.02-.16,2.04-.15,3.07-.13,.31,0,.48-.05,.45-.42-.04-.47,.01-.94-.09-1.41-.2-.93-.57-1.27-1.53-1.34-1.33-.09-2.52,.37-3.67,.96-.46,.23-.89,.51-1.32,.78-.22,.14-.33,.11-.46-.11-.51-.89-1.04-1.77-1.57-2.64-.13-.22-.1-.33,.12-.46,1.67-.99,4.58-2.3,6.98-2.22Zm.58,9.95s0-.01,0-.02c-.47,.05-.94,.08-1.4,.17-1.57,.28-2.31,1.4-1.96,2.96,.21,.93,.77,1.52,1.56,1.63,.85,.12,2.21-.45,2.55-1.07,.04-.08,.06-.18,.06-.28,.03-1,.04-2,.08-3,.01-.33-.13-.41-.42-.38-.16,.01-.31,0-.47,0Z"/>
      <path class="cls-1" d="M177.05,17.8c-1.46,0-2.92,.01-4.38,0-.39,0-.5,.11-.49,.5,.03,2.83,2.22,4.32,5.14,3.49,.86-.25,1.65-.64,2.35-1.21,.28-.23,.42-.25,.62,.09,.4,.68,.85,1.33,1.28,1.99,.13,.2,.2,.35-.04,.54-2.82,2.28-6.78,2.78-9.79,1.39-1.75-.81-2.98-2.14-3.65-3.92-1.12-2.98-1.12-6.01,.12-8.93,1.77-4.2,7.5-5.61,11.09-2.78,1.38,1.09,2.03,2.62,2.38,4.31,.27,1.34,.31,2.69,.32,4.06,0,.38-.1,.51-.5,.51-1.48-.02-2.95-.01-4.43-.01Zm-2.28-3.3h1.36q1.3,0,1.15-1.31c-.15-1.36-.95-2.28-2.06-2.37-1.47-.12-2.41,.56-2.79,2.04-.1,.4-.14,.81-.21,1.22-.06,.35,.1,.44,.43,.43,.71-.02,1.42,0,2.12,0Z"/>
      <path class="cls-1" d="M207.66,16.55c0-1.68-.01-3.35,0-5.03,0-.42-.07-.59-.54-.58-1.18,.02-1.18,0-1.18-1.2,0-.12,0-.24,0-.35,.01-.47-.14-1.05,.08-1.38,.23-.34,.84-.11,1.28-.11,.37,0,.35-.21,.35-.46,.02-1.02,0-2.05,.1-3.07,.04-.39,.21-.53,.56-.61,1.15-.27,2.3-.53,3.43-.86,.59-.17,.61,.05,.56,.51-.15,1.27-.18,2.55-.23,3.83-.02,.49,.06,.7,.63,.67,.96-.06,1.93,0,2.9-.02,.32,0,.49,.03,.33,.42-.31,.77-.59,1.54-.86,2.33-.1,.29-.26,.34-.52,.34-.69-.01-1.38,.01-2.07-.01-.32-.01-.4,.1-.4,.41,.01,2.92,.02,5.84,.02,8.75,0,.18,.02,.35,.05,.53,.22,1.23,.89,1.71,2.13,1.51,.33-.05,.66-.12,.98-.23,.25-.08,.34-.05,.4,.22,.13,.68,.29,1.35,.44,2.02,.05,.21,.03,.38-.22,.47-2.04,.73-4.1,1-6.14,.03-1.34-.64-2.01-1.74-2.04-3.2-.03-1.64,0-3.27,0-4.91,0,0-.02,0-.03,0Z"/>
      <path class="cls-1" d="M203.37,10.87c0,2.82,0,5.64,0,8.46,0,.55,.03,1.1,.08,1.65,.07,.85,.44,1.21,1.28,1.21,.27,0,.39,.08,.45,.33,.18,.67,.36,1.33,.56,1.99,.08,.25,.01,.36-.23,.43-1.41,.41-2.82,.55-4.23,.02-1.7-.64-2.34-2-2.44-3.7-.04-.61-.03-1.22-.04-1.83-.01-5.09-.01-10.17-.04-15.26,0-.77-.09-1.53-.17-2.3-.04-.35,.03-.53,.41-.61,1.19-.25,2.38-.52,3.57-.81,.46-.11,.6,.03,.65,.5,.12,1.08,.11,2.16,.12,3.25,.03,2.23,0,4.45,0,6.68Z"/>
      <path class="cls-1" d="M26.79,9.14c.62-.73,1.21-1.29,1.88-1.77,1.18-.85,2.45-.99,3.81-.56,.31,.1,.44,.2,.31,.57-.39,1.15-.74,2.32-1.1,3.49-.08,.27-.17,.35-.49,.23-1.37-.5-2.93,0-3.86,1.18-.17,.22-.13,.44-.13,.67,0,3.96-.01,7.92,0,11.88,0,.45-.09,.6-.57,.59-1.24-.04-2.48-.03-3.72,0-.44,.01-.56-.11-.56-.56,.02-3.94,.01-7.88,0-11.82,0-1.68-.09-3.35-.58-4.97-.08-.28,0-.38,.27-.45,1.22-.31,2.44-.63,3.65-.97,.28-.08,.38,0,.49,.23,.32,.66,.51,1.36,.58,2.25Z"/>
      <path class="cls-1" d="M235.03,22.37c0-.55-.03-1.1,0-1.65,.03-.43-.14-.56-.54-.51-.19,.02-.4-.01-.59,0-.35,.04-.42-.13-.43-.45,0-.35,.12-.43,.45-.43,1.1,.02,2.21,.02,3.31,0,.35,0,.42,.13,.43,.45,0,.34-.11,.43-.44,.43-1.11,.02-1.11,.03-1.11,1.16,0,.92-.02,1.85,0,2.78,.01,.44-.23,.42-.52,.41-.29,0-.6,.08-.58-.41,.03-.59,0-1.18,0-1.77Z"/>
    </g>
  </g>
</svg>