<?xml version="1.0" encoding="utf-8"?>
<!-- Generator: Adobe Illustrator 22.0.1, SVG Export Plug-In . SVG Version: 6.00 Build 0)  -->
<svg version="1.1" id="Layer_1" xmlns="http://www.w3.org/2000/svg" xmlns:xlink="http://www.w3.org/1999/xlink" x="0px" y="0px"
	 viewBox="0 0 51.434 50" enable-background="new 0 0 51.434 50" xml:space="preserve">
<g id="aqlZgD.tif">
	<g>
		<path fill="#D81A1B" d="M0.518,49.853c0-16.583,0-33.167-0.004-49.75c0-0.157,0.035-0.192,0.192-0.192
			c16.583,0.004,33.167,0.004,49.75,0.004c0,16.547,0,33.094,0,49.641c0,0.297,0,0.297-0.297,0.297
			C33.613,49.853,17.066,49.853,0.518,49.853z M27.282,26.057c0.041,1.645,0.881,3.239,2.701,4.241
			c1.305,0.719,2.715,0.879,4.171,0.623c1.379-0.242,2.552-0.866,3.421-1.986c0.876-1.128,1.181-2.424,1.05-3.83
			c-0.159-1.696-0.942-3.029-2.394-3.93c-1.402-0.87-2.937-1.056-4.544-0.769C29.046,20.879,27.283,22.979,27.282,26.057z
			 M12.857,21.442c0-0.276-0.008-0.498,0.003-0.72c0.007-0.137-0.021-0.192-0.177-0.191c-0.892,0.008-1.784,0.007-2.677,0.001
			c-0.144-0.001-0.188,0.035-0.187,0.184c0.004,3.29,0.004,6.58,0,9.87c0,0.157,0.041,0.197,0.198,0.196
			c0.906-0.008,1.812-0.01,2.718,0.001c0.194,0.002,0.255-0.034,0.254-0.244c-0.01-1.666-0.006-3.332-0.004-4.998
			c0.001-0.426,0.039-0.849,0.163-1.26c0.254-0.842,0.866-1.249,1.815-1.21c0.832,0.034,1.276,0.433,1.465,1.324
			c0.1,0.474,0.096,0.956,0.097,1.436c0.002,1.575,0.005,3.151-0.004,4.726c-0.001,0.192,0.056,0.226,0.233,0.225
			c0.906-0.009,1.812-0.007,2.718-0.001c0.153,0.001,0.214-0.024,0.213-0.2c-0.007-1.819-0.005-3.638-0.005-5.458
			c0-0.768-0.036-1.533-0.22-2.282c-0.276-1.128-0.877-1.98-2.03-2.344c-0.792-0.25-1.606-0.268-2.421-0.156
			C14.188,20.455,13.421,20.702,12.857,21.442z M27.068,17.457c0.007-0.069,0.014-0.117,0.017-0.165
			c0.043-0.765,0.079-1.531,0.132-2.296c0.011-0.164-0.026-0.231-0.192-0.261c-1.025-0.18-2.053-0.212-3.075-0.003
			c-1.222,0.251-2.056,0.946-2.384,2.181c-0.133,0.501-0.187,1.013-0.188,1.53c-0.004,4.049-0.004,8.099-0.011,12.148
			c0,0.167,0.058,0.19,0.204,0.189c0.913-0.006,1.826-0.01,2.739,0.002c0.193,0.003,0.223-0.057,0.223-0.232
			c-0.006-2.425-0.002-4.851-0.007-7.276c0-0.159,0.034-0.214,0.204-0.211c0.648,0.01,1.296,0,1.944,0.008
			c0.152,0.002,0.201-0.032,0.199-0.194c-0.01-0.718-0.01-1.436,0-2.154c0.002-0.161-0.044-0.194-0.197-0.192
			c-0.662,0.009-1.324,0.005-1.986,0.002c-0.067,0-0.164,0.038-0.161-0.095c0.019-0.717-0.058-1.438,0.053-2.15
			c0.103-0.664,0.474-0.97,1.148-1.024C26.188,17.228,26.629,17.294,27.068,17.457z M43.054,21.409c0-0.263-0.009-0.485,0.003-0.706
			c0.008-0.142-0.044-0.171-0.176-0.17c-0.934,0.005-1.867,0.005-2.801,0c-0.138-0.001-0.192,0.025-0.192,0.179
			c0.004,3.296,0.004,6.592,0,9.887c0,0.152,0.05,0.182,0.191,0.182c0.92-0.006,1.84-0.008,2.759,0.001
			c0.169,0.002,0.221-0.034,0.22-0.213c-0.008-1.414-0.006-2.829-0.002-4.243c0.002-0.544,0.044-1.086,0.167-1.617
			c0.246-1.062,0.864-1.657,1.895-1.822c0.615-0.099,1.223-0.04,1.82,0.125c0.127,0.035,0.168,0.028,0.167-0.119
			c-0.006-0.815-0.007-1.631,0-2.446c0.001-0.143-0.049-0.172-0.179-0.174c-0.558-0.009-1.116,0-1.666,0.099
			C44.45,20.518,43.68,20.76,43.054,21.409z M8.135,25.68c0-1.651-0.002-3.302,0.004-4.952c0.001-0.155-0.036-0.197-0.194-0.196
			c-0.926,0.008-1.853,0.007-2.779,0.001c-0.14-0.001-0.19,0.028-0.19,0.18c0.004,3.295,0.004,6.589,0,9.884
			c0,0.146,0.04,0.186,0.186,0.185C6.08,30.775,7,30.774,7.919,30.783c0.17,0.002,0.221-0.035,0.22-0.213
			C8.131,28.94,8.135,27.31,8.135,25.68z M8.134,15c-1.046,0.717-2.054,1.409-3.064,2.098c-0.074,0.051-0.094,0.108-0.093,0.191
			c0.003,0.473,0.005,0.947-0.001,1.42c-0.002,0.125,0.046,0.148,0.159,0.148c0.947-0.004,1.893-0.006,2.84,0.002
			c0.157,0.001,0.162-0.069,0.162-0.187c-0.003-0.842-0.002-1.684-0.002-2.527C8.134,15.777,8.134,15.409,8.134,15z"/>
		<path fill="#F6C7C8" d="M0.518,49.853c16.547,0,33.094,0,49.641,0c0.297,0,0.297,0,0.297-0.297c0-16.547,0-33.094,0-49.641
			c0.013,0.009,0.044-0.021,0.042,0.021c-0.002,0.056,0,0.111,0,0.167c0,16.531,0,33.062,0.005,49.593
			c0,0.17-0.034,0.203-0.203,0.203c-16.531-0.005-33.062-0.005-49.593-0.007C0.645,49.892,0.565,49.94,0.518,49.853z"/>
		<path fill="#FEFDFD" d="M27.282,26.057c0.002-3.078,1.764-5.178,4.406-5.65c1.606-0.287,3.141-0.101,4.544,0.769
			c1.452,0.901,2.235,2.234,2.394,3.93c0.131,1.405-0.174,2.702-1.05,3.83c-0.87,1.12-2.042,1.743-3.421,1.986
			c-1.456,0.256-2.866,0.096-4.171-0.623C28.163,29.296,27.323,27.702,27.282,26.057z M30.44,25.633
			c0.015,0.809,0.215,1.521,0.835,2.044c0.667,0.564,1.458,0.658,2.284,0.51c0.908-0.163,1.512-0.701,1.794-1.58
			c0.187-0.584,0.189-1.181,0.039-1.772c-0.136-0.534-0.414-0.985-0.869-1.312c-0.837-0.603-2.23-0.616-3.075-0.022
			C30.701,24.027,30.459,24.794,30.44,25.633z"/>
		<path fill="#FEFDFD" d="M12.857,21.442c0.564-0.74,1.331-0.987,2.153-1.101c0.814-0.112,1.629-0.094,2.421,0.156
			c1.153,0.364,1.755,1.216,2.03,2.344c0.183,0.75,0.22,1.514,0.22,2.282c0,1.819-0.003,3.638,0.005,5.458
			c0.001,0.176-0.06,0.201-0.213,0.2c-0.906-0.006-1.812-0.008-2.718,0.001c-0.177,0.002-0.234-0.033-0.233-0.225
			c0.009-1.575,0.006-3.151,0.004-4.726c-0.001-0.481,0.003-0.963-0.097-1.436c-0.189-0.891-0.633-1.29-1.465-1.324
			c-0.949-0.039-1.561,0.368-1.815,1.21c-0.124,0.411-0.163,0.834-0.163,1.26c-0.003,1.666-0.006,3.332,0.004,4.998
			c0.001,0.21-0.06,0.246-0.254,0.244c-0.906-0.011-1.812-0.009-2.718-0.001c-0.157,0.001-0.198-0.039-0.198-0.196
			c0.004-3.29,0.004-6.58,0-9.87c0-0.148,0.043-0.185,0.187-0.184c0.892,0.006,1.784,0.007,2.677-0.001
			c0.156-0.001,0.183,0.053,0.177,0.191C12.849,20.944,12.857,21.166,12.857,21.442z"/>
		<path fill="#FEFDFD" d="M27.068,17.457c-0.439-0.163-0.88-0.229-1.338-0.192c-0.674,0.054-1.045,0.36-1.148,1.024
			c-0.111,0.712-0.034,1.433-0.053,2.15c-0.003,0.134,0.094,0.095,0.161,0.095c0.662,0.002,1.324,0.006,1.986-0.002
			c0.153-0.002,0.199,0.032,0.197,0.192c-0.01,0.718-0.01,1.436,0,2.154c0.002,0.162-0.047,0.196-0.199,0.194
			c-0.648-0.008-1.296,0.003-1.944-0.008c-0.17-0.003-0.204,0.052-0.204,0.211c0.005,2.425,0.002,4.851,0.007,7.276
			c0,0.175-0.029,0.235-0.223,0.232c-0.913-0.012-1.826-0.009-2.739-0.002c-0.146,0.001-0.204-0.021-0.204-0.189
			c0.007-4.049,0.008-8.099,0.011-12.148c0-0.517,0.054-1.03,0.188-1.53c0.329-1.235,1.163-1.93,2.384-2.181
			c1.022-0.21,2.049-0.177,3.075,0.003c0.166,0.029,0.203,0.096,0.192,0.261c-0.052,0.765-0.089,1.53-0.132,2.296
			C27.082,17.34,27.075,17.388,27.068,17.457z"/>
		<path fill="#FEFDFD" d="M43.054,21.409c0.627-0.649,1.396-0.891,2.208-1.037c0.551-0.099,1.108-0.108,1.666-0.099
			c0.13,0.002,0.18,0.031,0.179,0.174c-0.007,0.815-0.007,1.63,0,2.446c0.001,0.147-0.04,0.154-0.167,0.119
			c-0.597-0.165-1.205-0.224-1.82-0.125c-1.031,0.166-1.649,0.761-1.895,1.822c-0.123,0.532-0.165,1.073-0.167,1.617
			c-0.004,1.414-0.006,2.829,0.002,4.243c0.001,0.179-0.051,0.214-0.22,0.213c-0.92-0.009-1.84-0.007-2.759-0.001
			c-0.14,0.001-0.191-0.03-0.191-0.182c0.004-3.296,0.004-6.592,0-9.887c0-0.154,0.054-0.18,0.192-0.179
			c0.934,0.005,1.867,0.005,2.801,0c0.132-0.001,0.184,0.028,0.176,0.17C43.045,20.924,43.054,21.146,43.054,21.409z"/>
		<path fill="#FEFDFD" d="M8.135,25.68c0,1.63-0.003,3.26,0.004,4.89c0.001,0.179-0.05,0.215-0.22,0.213
			C7,30.774,6.08,30.775,5.161,30.782c-0.146,0.001-0.186-0.039-0.186-0.185c0.004-3.295,0.004-6.589,0-9.884
			c0-0.153,0.05-0.181,0.19-0.18c0.926,0.006,1.853,0.007,2.779-0.001c0.158-0.001,0.195,0.041,0.194,0.196
			C8.132,22.378,8.135,24.029,8.135,25.68z"/>
		<path fill="#FEFDFD" d="M8.134,15c0,0.409,0,0.777,0,1.145c0,0.842-0.001,1.684,0.002,2.527c0,0.118-0.005,0.188-0.162,0.187
			c-0.947-0.008-1.893-0.006-2.84-0.002c-0.112,0-0.16-0.023-0.159-0.148c0.006-0.473,0.004-0.947,0.001-1.42
			c0-0.083,0.019-0.14,0.093-0.191C6.081,16.409,7.088,15.717,8.134,15z"/>
		<path fill="#D81A1B" d="M30.44,25.633c0.019-0.84,0.261-1.607,1.008-2.132c0.845-0.595,2.239-0.581,3.075,0.022
			c0.455,0.328,0.733,0.778,0.869,1.312c0.15,0.591,0.148,1.188-0.039,1.772c-0.282,0.88-0.887,1.417-1.794,1.58
			c-0.826,0.149-1.616,0.054-2.284-0.51C30.655,27.154,30.455,26.443,30.44,25.633z"/>
	</g>
</g>
</svg>
