<?xml version="1.0" encoding="UTF-8"?>
<svg id="Layer_2" data-name="Layer 2" xmlns="http://www.w3.org/2000/svg" viewBox="0 0 228.97 42.65">
  <defs>
    <style>
      .cls-1 {
        fill: #fff;
      }
    </style>
  </defs>
  <g id="Layer_1-2" data-name="Layer 1">
    <g>
      <path class="cls-1" d="M51.75,42.65c-1.13-.46-2.35-.4-3.52-.62-9.16-1.79-13.65-8.6-12.63-17.91,.92-8.44,7.02-12.76,14.96-13.49,2.86-.26,5.7-.09,8.51,.64,6.87,1.78,11.06,6.86,11.42,13.94,.12,2.3-.06,4.58-.76,6.78-1.84,5.74-6.04,8.73-11.72,10-1.31,.29-2.69,.22-3.97,.67-.76,0-1.53,0-2.29,0Zm-4.58-16.13c0,1.99,.19,3.96,.94,5.83,.95,2.37,2.6,3.51,4.96,3.49,2.27-.03,3.98-1.19,4.8-3.54,1.32-3.82,1.33-7.72,.02-11.54-.83-2.42-2.55-3.59-4.88-3.6-2.34-.01-3.98,1.16-4.92,3.55-.74,1.87-.91,3.84-.92,5.83Z"/>
      <path class="cls-1" d="M174.71,42.65c-1.25-.45-2.58-.38-3.86-.66-5.73-1.27-9.99-4.26-11.77-10.09-1.15-3.75-1.09-7.54,.12-11.26,1.3-4,3.98-6.85,7.85-8.42,5.76-2.34,11.63-2.41,17.38-.04,5.54,2.28,8.33,6.66,8.83,12.56,.17,1.98,.11,3.97-.33,5.92-1.46,6.43-6.27,10.58-13.31,11.57-.95,.13-1.95-.02-2.85,.44-.69,0-1.37,0-2.06,0Zm-4.67-16.15c.02,2.03,.13,4.04,.93,5.94,.9,2.13,2.4,3.37,4.79,3.4,2.4,.03,4.04-1.15,4.84-3.31,1.48-3.99,1.48-8.07,0-12.07-.77-2.1-2.38-3.3-4.73-3.32-2.39-.01-3.93,1.19-4.85,3.32-.84,1.93-.97,3.98-.99,6.04Z"/>
      <path class="cls-1" d="M228.78,41.49c-3.54,.19-7.09,.02-10.63,.09-.87,.02-.63-.58-.63-1.01-.01-5.38,0-10.76,0-16.14,0-1.23-.1-2.44-.45-3.62-.58-1.95-1.75-2.91-3.67-3.05-2-.15-3.73,.77-4.54,2.45-.52,1.08-.68,2.25-.68,3.45,.01,5.61,0,11.22,.04,16.83,0,.75-.11,1.06-.97,1.05-3.17-.05-6.33-.04-9.5,0-.67,0-.92-.13-.91-.87,.03-9.46,.02-18.92,0-28.39,0-.7,.19-.92,.9-.91,3.17,.03,6.33,.03,9.5,0,.62,0,.92,.16,.88,.83-.04,.72,0,1.44,0,2.25,.58-.1,.79-.5,1.07-.76,4.93-4.68,13.8-4.17,17.67,1.01,1,1.34,1.58,2.85,1.88,4.49,.04,.2-.07,.48,.24,.57v.92c-.29,.17-.22,.46-.22,.72,.01,6.7,.02,13.4,.03,20.1Z"/>
      <path class="cls-1" d="M0,.06C3.51,.04,7.01,.06,10.52,0c.96-.02,.9,.49,.9,1.14,0,7.97-.01,15.93,0,23.9,0,.46-.23,.99,.23,1.39-.07,.13-.14,.27-.21,.4-2.12,2.4-3.93,5.03-5.91,7.54-1.86,2.36-3.69,4.75-5.53,7.13C0,27.69,0,13.87,0,.06Z"/>
      <path class="cls-1" d="M85.83,14.68c.45-.41,.65-.57,.82-.76,3.96-4.26,10.86-4.06,14.52-2.08,3.78,2.05,5.4,5.36,5.44,9.51,.06,6.45,0,12.89,.03,19.34,0,.66-.2,.84-.85,.83-3.24-.03-6.48-.04-9.73,0-.76,.01-.85-.28-.85-.92,.02-5.38,0-10.76,.01-16.13,0-1.26-.09-2.52-.45-3.73-.55-1.87-1.72-2.88-3.44-3.04-2.18-.2-3.93,.68-4.77,2.42-.54,1.12-.69,2.32-.68,3.56,.01,5.61,0,11.21,.04,16.82,0,.77-.15,1.04-.99,1.03-3.17-.05-6.33-.04-9.5,0-.69,0-.9-.16-.9-.88,.02-9.46,.02-18.92,0-28.38,0-.7,.2-.92,.91-.91,3.17,.03,6.33,.03,9.5,0,.62,0,.92,.17,.89,.83-.04,.72,0,1.44,0,2.49Z"/>
      <path class="cls-1" d="M123.1,.07c0,3.63,.03,6.98-.02,10.33-.01,.83,.16,1.14,1.06,1.1,1.6-.08,3.2,0,4.8-.03,.6-.01,.79,.19,.78,.78-.03,1.83-.04,3.66,0,5.49,.02,.75-.28,.88-.94,.86-1.64-.04-3.28,0-4.92-.02-.59-.01-.79,.16-.78,.76,0,4.19-.03,8.39-.03,12.58,0,.53,.07,1.07,.2,1.58,.28,1.08,.96,1.72,2.13,1.7,1.14-.02,2.29-.03,3.43-.1,.55-.03,.83,.04,.81,.7-.04,1.79-.02,3.58,0,5.38,0,.43-.07,.7-.59,.78-4.1,.59-8.2,.78-12.26-.22-3.03-.74-4.58-2.81-5.02-5.82-.21-1.44-.16-2.89-.14-4.34,.05-5.26,.08-10.52,.1-15.79,0-.59,.09-1.09,.47-1.58,3.5-4.52,6.97-9.07,10.44-13.6,.09-.12,.19-.22,.48-.54Z"/>
      <path class="cls-1" d="M146.5,16.59c1.92-4.31,4.68-6.12,9.35-6.09,.66,0,.84,.2,.83,.84-.03,2.63-.03,5.26,0,7.9,0,.62-.12,.88-.82,.82-.98-.1-1.98-.07-2.97,.07-3.96,.57-6.11,2.8-6.35,6.84-.26,4.42-.09,8.85-.07,13.27,0,1.07-.3,1.31-1.32,1.29-3.05-.07-6.1-.05-9.15,0-.75,.01-.95-.21-.94-.95,.02-9.42,.03-18.85,0-28.27,0-.78,.24-.96,.97-.95,3.13,.03,6.26,.03,9.38,0,.68,0,.93,.18,.93,.89,0,1.45,.11,2.89,.17,4.34Z"/>
      <path class="cls-1" d="M11.45,26.83c.07-.13,.14-.27,.21-.4,3.66-4.78,7.32-9.57,10.97-14.35,.26-.34,.49-.61,1-.61,3.81,0,7.63-.05,11.44-.07,.06,0,.12,.07,.2,.11,.03,.39-.29,.59-.49,.84-3.53,4.55-7.06,9.1-10.62,13.62-.46,.58-.46,.94,0,1.53,3.45,4.32,6.86,8.67,10.27,13.02,.22,.28,.57,.5,.59,1.07h-3.06c-3.01,0-6.03-.03-9.04,.02-.81,.01-1.31-.23-1.78-.91-3.21-4.64-6.46-9.25-9.7-13.86Z"/>
    </g>
  </g>
</svg>