<?xml version="1.0" encoding="UTF-8"?>
<svg id="Layer_2" data-name="Layer 2" xmlns="http://www.w3.org/2000/svg" viewBox="0 0 253.3 39.5">
  <defs>
    <style>
      .cls-1 {
        fill: #fff;
      }
    </style>
  </defs>
  <g id="Layer_1-2" data-name="Layer 1">
    <path class="cls-1" d="M243.3,18.4h-3.5v3.7h3.5v8.4c0,3,.5,5,5.7,5,1.3,0,3.3-.2,4.3-.3v-3.6c-.9,0-1.7,.1-2.7,.1-1.4,0-1.8-.4-1.8-1.7v-7.9h4.4v-3.7h-4.4v-5.2h-5.5v5.2h0Zm-18.7,16.8h5.5v-7.2c0-3.2,1.8-5.1,5.5-5.1,1,0,2.1,.2,3,.5v-5.1c-.7-.1-1.3-.2-2-.2-3.1,0-4.7,1.1-6.7,3.7v-3.3h-5.3v16.7h0Zm-18.3-11.7c.8-2.3,2-2.5,4.3-2.5,3.2,0,4.3,.7,4.3,2s-.6,1.6-2.2,1.8l-5.8,.4c-3.4,.2-6.9,1.1-6.9,5.2s3.1,5.4,7.4,5.4c2.5,0,6-.5,7.9-2.4,.1,.6,.2,1.2,.4,1.8h5.5c-.4-1.1-.6-2.2-.6-3.4v-8.3c0-3.1-1.7-5.7-9.6-5.7-4.5,0-9.2,.6-10,5.7h5.3Zm8.8,4.9c0,2.8-3.1,4.2-5.9,4.2-2.1,0-3.5-.8-3.5-2.3s1-2,2.8-2.2l3.2-.3c1.1,0,2.2-.3,3.2-.7v1.4l.2-.1Zm-24,6.8h5.4v-11.3c0-4.4-3.3-5.8-6.7-5.8-2.7-.1-5.2,1.1-6.9,3.2-.8-1.9-2.5-3.2-5.7-3.2-2.6-.1-5.1,.9-6.8,2.8v-2.5h-5.3v16.8h5.5v-9.1c-.1-2.1,1.6-3.8,3.6-3.9h.6c1.5,0,3.3,.6,3.3,2.9v10h5.5v-8.9c-.1-2.1,1.5-3.8,3.6-3.9h.6c1.6,0,3.4,.6,3.4,2.8v10l-.1,.1Zm-49.6-5.2c.3,4,3.5,5.8,9.8,5.8,4.8,0,10.3-.7,10.3-5.7,0-2.9-1.8-4.6-7.4-5.2l-3.8-.4c-2.4-.3-2.8-.8-2.8-1.6,0-1.6,2.2-1.8,3.6-1.8s3.4,.5,3.7,2.2h6c-.4-3.1-2.2-5.7-9.9-5.7-4.6,0-9.2,1.1-9.2,5.6,0,3.2,2,4.3,5.5,4.7l5.1,.7c2.7,.4,3.1,.7,3.1,1.7,0,1.3-1.4,1.8-4,1.8-2.8,0-3.8-.9-4.1-2.4l-5.9,.3Zm-11.8-11.6h-3.5v3.7h3.5v8.4c0,3,.5,5,5.7,5,1.3,0,3.3-.2,4.3-.3v-3.7c-.9,0-1.7,.1-2.7,.1-1.4,0-1.8-.4-1.8-1.7v-7.9h4.4v-3.7h-4.4v-5.2h-5.5v5.3Zm-21.4,6.6c0-.4,.9-3.7,5.3-3.7,4,0,5.2,2.8,5.2,3.7h-10.5Zm10,5.2c-1,1.5-2.7,2.3-4.5,2.2-3.8,0-5.4-2.4-5.4-4h16v-.6c0-6.3-3.5-10-10.7-10-6.6,0-11.1,2.7-11.1,9s4.5,9,11.1,9c5.1,0,8.9-1.6,10.4-5.6h-5.8Zm-25.2-1.8l-11.7-15.5h-7v22.3h5.9v-15.6l12.2,15.5h6.6V12.9h-5.9l-.1,15.5Zm150.2-10h-3.5v3.7h3.5v8.4c0,3,.5,5,5.7,5,1.3,0,3.3-.2,4.3-.3v-3.6c-.9,0-1.7,.1-2.7,.1-1.4,0-1.8-.4-1.8-1.7v-7.9h4.4v-3.7h-4.4v-5.2h-5.5v5.2h0Zm-18.6,16.8h5.5v-7.2c0-3.2,1.8-5.1,5.5-5.1,1,0,2.1,.2,3,.5v-5.1c-.7-.1-1.3-.2-2-.2-3.1,0-4.7,1.1-6.7,3.7v-3.3h-5.3v16.7h0Zm-33.7,0h5.4v-11.3c0-4.4-3.3-5.8-6.7-5.8-2.7-.1-5.2,1.1-6.9,3.2-.8-1.9-2.5-3.2-5.7-3.2-2.6-.1-5.1,.9-6.8,2.8v-2.5h-5.3v16.8h5.5v-9.1c-.1-2.1,1.6-3.8,3.6-3.9h.6c1.5,0,3.3,.6,3.3,2.9v10h5.5v-8.9c-.1-2.1,1.5-3.8,3.6-3.9h.6c1.6,0,3.4,.6,3.4,2.8v10l-.1,.1Zm-49.6-5.2c.3,4,3.5,5.8,9.9,5.8,4.8,0,10.3-.7,10.3-5.7,0-2.9-1.8-4.6-7.4-5.2l-3.8-.4c-2.4-.3-2.9-.8-2.9-1.6,0-1.6,2.2-1.8,3.6-1.8s3.4,.5,3.7,2.2h6c-.4-3.1-2.2-5.7-9.9-5.7-4.6,0-9.1,1.1-9.1,5.6,0,3.2,2,4.3,5.5,4.7l5.1,.7c2.7,.4,3.1,.7,3.1,1.7,0,1.3-1.4,1.8-4,1.8-2.8,0-3.8-.9-4.1-2.4l-6,.3Zm-11.7-11.6h-3.5v3.7h3.5v8.4c0,3,.5,5,5.7,5,1.3,0,3.3-.2,4.3-.3v-3.6c-.9,0-1.7,.1-2.7,.1-1.4,0-1.8-.4-1.8-1.7v-7.9h4.4v-3.7h-4.4v-5.2h-5.5v5.2Zm-36.6,10h0l-11.7-15.5h-7v22.3h5.9v-15.6h.1l12.2,15.6h6.6V12.9h-5.9c-.2,0-.2,15.5-.2,15.5Zm-26.1-13.4c-14.1-3.5-24.6,11.9-33.5,24.5v-10.4c7.3-10.2,22.7-21.4,33.5-14.1h0ZM0,14.9c14.1-3.5,24.6,11.9,33.5,24.6v-10.4C26.1,18.9,10.7,7.6,0,14.9Z"/>
    <circle class="cls-1" cx="16.1" cy="7" r="3.3"/>
    <circle class="cls-1" cx="51.2" cy="7" r="3.3"/>
    <path class="cls-1" d="M58.5,22c-.7-1.8-3.6-7.2-14.5-9-7-1.5-14.1-1.4-21.1,.1-10.1,1.9-13.5,6.9-14.4,8.7,1.9-1,7.6-3.3,19.4-3.6h1.3l4.3,21.2,4.3-21.2h1.3c12,.4,17.7,2.8,19.4,3.8Z"/>
    <circle class="cls-1" cx="33.4" cy="4.5" r="4.5"/>
  </g>
</svg>