<?xml version="1.0" encoding="UTF-8"?>
<svg id="Layer_2" data-name="Layer 2" xmlns="http://www.w3.org/2000/svg" viewBox="0 0 222.16 43.9">
  <defs>
    <style>
      .cls-1 {
        fill: #fff;
      }
    </style>
  </defs>
  <g id="Layer_1-2" data-name="Layer 1">
    <path id="Fill-5" class="cls-1" d="M0,1.1C0,.5,.5,.1,1,.1H25.3c7,0,17.2,1.5,17.2,12.2,0,8.6-7.4,11.4-12.7,12-.5,0-.7,.6-.4,1l12.6,17c.5,.7,0,1.6-.8,1.6h-4c-.3,0-.6-.2-.8-.4l-13.5-18.6c-.2-.3-.5-.4-.8-.4H6.3c-.6,0-1,.5-1,1v17.4c0,.6-.5,1-1,1H1c-.6,0-1-.5-1-1V1.1ZM5.3,18.8c0,.6,.5,1,1,1H24.1c7.7,0,13.4-1.1,13.4-7.5s-5.7-7.5-13.4-7.5H6.3c-.6,0-1,.5-1,1v13Z"/>
    <path id="Fill-7" class="cls-1" d="M104.4,.1h.6c1.3,0,2.3,1,2.3,2.3V36.9c0,1.3,1,2.3,2.3,2.3h28.7c1.3,0,2.3,1,2.3,2.3h0c0,1.3-1,2.3-2.3,2.3h-34c-1.3,0-2.3-1-2.3-2.3V2.4c.1-1.3,1.1-2.3,2.4-2.3"/>
    <path id="Fill-9" class="cls-1" d="M150.1,.1h.6c1.3,0,2.3,1,2.3,2.3V36.9c0,1.3,1,2.3,2.3,2.3h29.9c1.3,0,2.3,1,2.3,2.3h0c0,1.3-1,2.3-2.3,2.3h-35.1c-1.3,0-2.3-1-2.3-2.3V2.4c-.1-1.3,1-2.3,2.3-2.3"/>
    <path id="Fill-11" class="cls-1" d="M196.2,25.5L177.5,3.9c-1.3-1.5-.2-3.9,1.8-3.9h.8c.7,0,1.3,.3,1.8,.8l15.9,18.5c.9,1.1,2.6,1.1,3.5,0L217.2,.8C217.6,.3,218.3,0,219,0h.8C221.8,0,222.9,2.3,221.6,3.9l-18.7,21.6c-.4,.4-.6,1-.6,1.5v14.6c0,1.3-1,2.3-2.3,2.3h-.9c-1.3,0-2.3-1-2.3-2.3v-14.6c0-.5-.2-1.1-.6-1.5"/>
  </g>
</svg>