<?xml version="1.0" encoding="UTF-8"?>
<svg id="Layer_2" data-name="Layer 2" xmlns="http://www.w3.org/2000/svg" viewBox="0 0 67.5 49.21">
  <defs>
    <style>
      .cls-1 {
        fill: #fff;
      }
    </style>
  </defs>
  <g id="Layer_1-2" data-name="Layer 1">
    <g id="home-index-desktop_v2.1-1440px" data-name="home-index-desktop v2.1-1440px">
      <g id="Header_nav" data-name="Header/nav">
        <g id="Color_Logo" data-name="Color Logo">
          <g id="Oval-Shapes">
            <circle id="Oval" class="cls-1" cx="65.3" cy="19.8" r="2.2"/>
            <path id="Shape" class="cls-1" d="M63.7,23.8c-.1-1.1-1-2-2.1-1.9s-2,1-1.9,2.1,1,2,2.1,1.9c1.1,0,2-1,1.9-2.1Z"/>
            <path id="Shape-2" data-name="Shape" class="cls-1" d="M59.5,26.8c0-1-.9-1.8-1.9-1.7-1,0-1.8,.9-1.7,1.9,0,1,.9,1.8,1.9,1.7,1,0,1.8-.9,1.7-1.9Z"/>
            <circle id="Oval-2" data-name="Oval" class="cls-1" cx="53.4" cy="28.6" r="1.6"/>
            <path id="Shape-3" data-name="Shape" class="cls-1" d="M50.6,28.8c0-.8-.7-1.4-1.5-1.4s-1.4,.7-1.4,1.5,.7,1.4,1.5,1.4,1.5-.7,1.4-1.5Z"/>
            <path id="Shape-4" data-name="Shape" class="cls-1" d="M46.7,27.7c0-.7-.7-1.3-1.4-1.3s-1.3,.7-1.3,1.4,.7,1.3,1.4,1.3c.8-.1,1.3-.7,1.3-1.4Z"/>
            <circle id="Oval-3" data-name="Oval" class="cls-1" cx="42.3" cy="25.6" r="1.2"/>
            <path id="Shape-5" data-name="Shape" class="cls-1" d="M41,23.1c0-.6-.5-1-1.1-1s-1,.5-1,1.1,.5,1,1.1,1,1-.5,1-1.1Z"/>
            <path id="Shape-6" data-name="Shape" class="cls-1" d="M39.1,20.4c0-.5-.5-.9-1-.9s-.9,.5-.9,1,.5,.9,1,.9,.9-.4,.9-1Z"/>
            <path id="Shape-7" data-name="Shape" class="cls-1" d="M37.5,17.8c0-.5-.4-.8-.9-.8s-.8,.4-.8,.9,.4,.8,.9,.8,.8-.4,.8-.9Z"/>
            <circle id="Oval-4" data-name="Oval" class="cls-1" cx="35.5" cy="15.2" r=".8"/>
            <circle id="Oval-5" data-name="Oval" class="cls-1" cx="2.5" cy="15.6" r="2.5"/>
            <circle id="Oval-6" data-name="Oval" class="cls-1" cx="5.7" cy="10.6" r="2.2"/>
            <circle id="Oval-7" data-name="Oval" class="cls-1" cx="9.3" cy="6.5" r="2"/>
            <circle id="Oval-8" data-name="Oval" class="cls-1" cx="13.3" cy="3.5" r="1.8"/>
            <circle id="Oval-9" data-name="Oval" class="cls-1" cx="17.6" cy="1.8" r="1.6"/>
            <circle id="Oval-10" data-name="Oval" class="cls-1" cx="21.9" cy="1.5" r="1.5"/>
            <circle id="Oval-11" data-name="Oval" class="cls-1" cx="25.7" cy="2.7" r="1.3"/>
            <circle id="Oval-12" data-name="Oval" class="cls-1" cx="28.7" cy="4.8" r="1.2"/>
            <circle id="Oval-13" data-name="Oval" class="cls-1" cx="31.1" cy="7.3" r="1.1"/>
            <path id="Shape-8" data-name="Shape" class="cls-1" d="M32,10c0,.5,.5,.9,1,.9s.9-.5,.9-1-.5-.9-1-.9-.9,.5-.9,1Z"/>
            <circle id="Oval-14" data-name="Oval" class="cls-1" cx="34.4" cy="12.6" r=".9"/>
          </g>
          <g id="ResMed">
            <path id="Shape-9" data-name="Shape" class="cls-1" d="M11.6,42.31c-.2,.4-.5,.7-.8,1-.4,.3-.8,.5-1.7,.8l2,4.8h-3.4l-1.6-4.4h-2.1l-1,4.3H0l2.8-12h6.1c.3,0,1.1,.1,1.9,.7,.5,.4,1.3,1.2,1.3,2.8,0,.4-.1,1.2-.5,2Zm-2.8-2.8c-.3-.4-.6-.5-1.5-.5h-2l-.8,3.3h2.5c.1,0,.4,0,.7-.1,.5-.1,.9-.4,1.1-.9,.2-.4,.3-.8,.3-1,0-.1,0-.5-.3-.8Z"/>
            <path id="Shape-10" data-name="Shape" class="cls-1" d="M27.9,42.91c-.3-.4-.3-.5-.5-.6-.4-.4-1.1-.6-1.7-.6-.7,0-1.1,.3-1.1,.7,0,.5,.6,.6,1.4,.9,.4,.1,.7,.2,1.1,.3,.9,.3,1.8,.8,2.1,1.7,.1,.3,.1,.7,.1,.8,0,1-.7,1.8-.9,2-.6,.5-1.7,1.1-3.5,1.1-.6,0-2.4,0-3.7-1.5-.2-.2-.3-.3-.5-.8l2.2-1.1c.2,.3,.2,.4,.3,.5,.3,.3,.9,.8,2,.8,.1,0,.5,0,.9-.1,.2-.1,.4-.2,.5-.3,0-.1,.1-.2,.1-.3s0-.2-.1-.3c-.2-.3-.6-.4-1.2-.6-1.7-.5-2.5-.8-3-1.7-.3-.3-.5-.7-.5-1.3,0-.3,.1-.7,.4-1.3,.5-.8,1.5-1.5,3.5-1.5s3,.8,3.6,1.4c.2,.2,.3,.3,.5,.7l-2,1.1Z"/>
            <polygon id="Shape-11" data-name="Shape" class="cls-1" points="42.7 48.91 39.8 48.91 42 39.51 37.5 48.91 35 48.91 34.6 39.41 32.6 48.91 29.7 48.91 32.4 36.81 36.9 36.81 37.1 44.71 40.8 36.81 45.4 36.81 42.7 48.91"/>
            <path id="Shape-12" data-name="Shape" class="cls-1" d="M62,48.91h-2.6l.1-.6c-.1,.1-.3,.2-.4,.3-.3,.2-1,.6-2,.6s-1.6-.4-1.9-.7c-.6-.5-1.2-1.3-1.2-3,0-.6,.1-2.1,1-3.5,1.2-1.9,2.9-2.2,3.7-2.2,.3,0,1.2,0,1.9,.6,.3,.2,.5,.4,.6,.6l.9-4.2h2.7l-2.8,12.1Zm-1.6-6.1c-.2-.7-.8-1-1.5-1-.5,0-.8,.2-.9,.3-1,.7-1.4,2.1-1.4,3.2,0,.6,.1,.9,.3,1.2,.3,.4,.7,.6,1.2,.6,.4,0,1.1-.1,1.7-1,.4-.7,.7-1.7,.7-2.5,0-.3,0-.5-.1-.8Z"/>
            <path id="Shape-13" data-name="Shape" class="cls-1" d="M20.8,44.91c0-.4,.1-.8,.1-1.2,0-.2,0-.8-.2-1.4-.1-.5-.3-.9-.6-1.3-1.1-1.3-2.7-1.4-3.2-1.4-.4,0-1.6,.1-2.6,.7-1.1,.7-1.9,1.9-2.2,3.2-.1,.5-.1,1-.1,1.2,0,1.7,.8,3.2,2.4,3.9,.8,.3,1.6,.3,1.9,.3,2.2,0,3.2-1,3.8-1.7,.2-.2,.3-.4,.4-.6l-2.1-1c-.1,.2-.3,.4-.4,.6-.4,.4-1,.7-1.7,.7-.2,0-.6,0-1-.2-.9-.5-.8-1.7-.8-1.9h6.3v.1Zm-5.3-2.8c.2-.2,.6-.5,1.3-.5,1,0,1.5,.7,1.6,1s.1,.6,.1,.7h-3.8c.3-.7,.5-.9,.8-1.2Z"/>
            <path id="Shape-14" data-name="Shape" class="cls-1" d="M53.4,44.91c0-.4,.1-.8,.1-1.2,0-.2,0-.8-.2-1.4-.1-.5-.3-.9-.7-1.3-1.1-1.3-2.7-1.4-3.2-1.4-.4,0-1.6,.1-2.6,.7-1.1,.7-1.9,1.9-2.2,3.2-.1,.5-.1,1-.1,1.2,0,1.7,.8,3.2,2.4,3.9,.8,.3,1.6,.3,1.9,.3,2.2,0,3.2-1,3.8-1.7,0,0,.2-.2,.3-.4l-2.1-1c-.1,.2-.3,.4-.4,.6-.4,.4-1,.7-1.7,.7-.2,0-.6,0-1-.2-.9-.5-.8-1.7-.8-1.9h6.5v-.1Zm-5.3-2.8c.2-.2,.6-.5,1.3-.5,1,0,1.5,.7,1.6,1s.1,.6,.1,.7h-3.8c.4-.7,.5-.9,.8-1.2Z"/>
          </g>
        </g>
      </g>
    </g>
  </g>
</svg>