<?xml version="1.0" encoding="UTF-8"?>
<svg id="Layer_2" data-name="Layer 2" xmlns="http://www.w3.org/2000/svg" viewBox="0 0 61.92 47.46">
  <defs>
    <style>
      .cls-1 {
        fill: #f9f9f9;
      }
    </style>
  </defs>
  <g id="Layer_1-2" data-name="Layer 1">
    <g>
      <path class="cls-1" d="M32.04,0h1.44V3.74c.1-.06,.17-.1,.23-.14,1.33-.91,2.78-1.6,4.31-2.1,2.38-.78,4.82-1.07,7.31-.99,2.62,.08,5.15,.54,7.57,1.57,2.52,1.07,4.67,2.63,6.22,4.91,2.39,3.5,2.96,7.39,2.17,11.48-.73,3.81-2.95,6.73-5.89,9.12-1.98,1.61-4.06,3.09-6.11,4.6-1.75,1.29-3.42,2.69-5.26,3.84-.03,.02-.05,.04-.04,.06,4.1,0,8.2,0,12.29,0,1.87,0,3.75,0,5.62,0v.98c-.07,.02-.05,.08-.05,.13-.16,3.33-.31,6.67-.46,10,0,.19-.06,.24-.25,.24-1.07,0-2.13,0-3.2,0-10.49,.01-20.98,.02-31.47,.04-.23,0-.3-.04-.3-.29,0-3.35,0-6.69-.02-10.04,0-.21,.07-.32,.23-.44,3.36-2.52,6.72-5.04,10.07-7.58,2.09-1.59,4.26-3.09,6.26-4.8,1.28-1.1,2.52-2.24,3.53-3.6,1.23-1.65,1.98-3.47,1.79-5.58-.11-1.17-.52-2.22-1.38-3.06-1.48-1.45-4.15-1.61-5.91-.36-1.08,.77-1.71,1.85-2.16,3.07-.46,1.27-.66,2.59-.76,3.93-.01,.16-.05,.2-.21,.17-1.07-.22-2.14-.42-3.21-.63-2.69-.53-5.37-1.05-8.06-1.57-.16-.03-.21-.07-.18-.25,.24-1.65,.63-3.27,1.24-4.82,.08-.19,.01-.2-.15-.2-1.05,0-2.1,0-3.15,0q-.34,0-.34,.33c.01,11.79,.02,23.58,.04,35.37,0,.23-.06,.28-.28,.28-4.4,0-8.81,0-13.21,.03-.28,0-.33-.08-.33-.34,0-11.8-.02-23.6-.03-35.4,0-.22-.06-.27-.27-.26-2.67,.01-5.35,.01-8.02,.02-.56,0-1.11,.01-1.67,.02v-.1c.09-.07,.05-.18,.05-.27,0-2.87,0-5.73,0-8.6C.05,2.39,.08,2.29,0,2.22V.05c.24,0,.48,0,.72,0,2.84,0,5.69-.01,8.53-.01,.88,0,1.77,0,2.65,.01,.07,0,.14,0,.21,0,6.56,0,13.13,0,19.69,0,.08,0,.17,.03,.24-.05Z"/>
      <path class="cls-1" d="M0,2.22c.09,.08,.05,.18,.05,.27,0,2.87,0,5.73,0,8.6,0,.09,.04,.19-.05,.27V2.22Z"/>
    </g>
  </g>
</svg>