<?xml version="1.0" encoding="UTF-8"?>
<svg id="Layer_2" data-name="Layer 2" xmlns="http://www.w3.org/2000/svg" viewBox="0 0 212.36 42.4">
  <defs>
    <style>
      .cls-1 {
        fill: #fff;
      }
    </style>
  </defs>
  <g id="Layer_1-2" data-name="Layer 1">
    <g>
      <path class="cls-1" d="M17.7,42.3h-3.6c-.6-.2-1.3-.2-1.9-.3-2.4-.4-4.5-1.6-6.3-3-1.7-1.3-3.1-3.1-4.1-5.1-.8-1.7-1.6-3.5-1.7-5.4-.1-.8-.1-1.5-.1-2.3V.1c.2-.1,.5-.1,.7-.1H30.8q1,0,1,1V19.7c0,.3,0,.7,.1,1,0,.2,.1,.3,.1,.5,0,2.3,.1,4.7,0,7-.3,2.1-1,4.1-2,6-1.1,2-2.5,3.7-4.4,5-.4,.2-.7,.5-1.1,.7-1.9,1.4-4.1,2-6.5,2.3-.2,0-.3,.1-.3,.1Z"/>
      <path class="cls-1" d="M31.6,28.5v-7.3c.3-.3,.7-.2,1.1-.2h20.2c.3,0,.6,0,.8,.2,.5,.1,1,.2,1.5,.3,1.9,.4,3.6,1.3,5,2.7,1.6,1.6,2.6,3.6,2.9,6,.3,2.6,0,5.1-1.5,7.3-1.8,2.7-4.3,4.5-7.6,4.8-.2,0-.3,0-.4,.1H31.6c-.2-.3-.2-.6-.2-.9v-10.7c0-.8,.2-1.6,.2-2.3Z"/>
      <path class="cls-1" d="M42,.1h21.1V20.6c0,.5-.1,.7-.7,.7h-20.7c-.8-.1-1.6,0-2.5-.2-1.9-.5-3.4-1.6-4.8-2.9-1.5-1.3-2.1-3-2.7-4.8-.2-.5-.1-1-.1-1.5v-2.3c.2-1.6,.9-3,1.6-4.4,.7-1.4,1.8-2.3,3.1-3.2,1.8-1.2,3.6-1.9,5.7-1.9Z"/>
    </g>
    <path class="cls-1" d="M186.6,16.5V6.7c0-.5,.1-.7,.6-.7,1.1,.1,2.2,0,3.3,0,.4,0,.5,.1,.5,.5,0,6.2,.1,12.5,0,18.7-.1,4.6-2.4,7.9-6.5,10-1.4,.7-2.9,.9-4.4,.8-1.9,0-3.8-.5-5.4-1.6-2.8-1.9-4.7-4.4-5.1-7.9-.1-1.3-.1-2.5-.1-3.8V6.5c0-.5,.1-.6,.6-.6h3c.5,0,.6,.1,.6,.6V24.6c0,2.4,.7,4.5,2.7,5.9,1.9,1.4,4.1,1.8,6.3,.7,1.9-.8,3.3-2.1,3.9-4.2,.1-.3,.1-.6,.1-.9-.1-3.1-.1-6.3-.1-9.6Z"/>
    <path class="cls-1" d="M120.6,24.2c0-2.3-.8-4.4-2-6.3-1.3-2.1-3.2-3.4-5.5-4.3-2-.7-3.9-.7-5.9-.3-2,.4-3.9,1.4-5.3,2.9-1.3,1.4-2.4,2.8-2.9,4.7-.8,2.8-.7,5.6,.3,8.3,1.5,3.6,4.1,6,8,6.8,2.5,.5,4.8,.2,6.9-1.2,.8-.5,1.5-1.1,2.3-1.8v2.3c0,.4,.1,.5,.5,.5h2.9c.5,0,.6-.1,.6-.6,.1-3.7,.1-7.3,.1-11Zm-4.1,.1c0,2.9-1.1,5.1-3.1,6.6-1.6,1.2-3.5,1.5-5.5,1-3-.8-4.5-3-5-5.9-.6-3.5,.7-6.3,3.7-8.2,1.4-.9,2.9-.9,4.5-.5,2.2,.6,3.5,2,4.5,3.9,.5,1.1,1.1,2.2,.9,3.1Z"/>
    <path class="cls-1" d="M150.9,22.7c3.1-3,6-5.9,9-8.7,.3-.3,.5-.4,.9-.4h5.5c0,.3-.2,.4-.4,.5-2.6,2.5-5.2,5-7.8,7.4-.4,.4-.4,.7-.1,1.1,2.9,4.2,5.8,8.4,8.6,12.7,.1,.1,.2,.3,.3,.5h-5c-.3,0-.4-.2-.5-.4-2.2-3.3-4.3-6.5-6.5-9.8-.4-.6-.6-.5-1-.1-.9,.9-1.9,1.8-2.9,2.7-.3,.2-.4,.5-.4,.9v6.1c0,.4-.1,.6-.5,.6h-3.1c-.5,0-.6-.2-.6-.6V6.7c0-.5,.2-.6,.6-.6h3c.5,0,.6,.1,.6,.6v15.2c.3,.2,.3,.4,.3,.8Z"/>
    <path class="cls-1" d="M195.3,28.2h.3c1-.1,2-.2,2.1,1.3,0,.7,.8,1.1,1.4,1.6,1.1,.8,2.4,1.2,3.7,1.2,1.8,0,3.7-.1,4.9-1.8,1-1.3,.6-3.2-1.5-3.6-1.8-.4-3.5-.7-5.2-1.1-1.5-.3-3-.6-4.4-1.4-1.2-.7-2.1-1.8-2.4-3.1-.3-1.4-.3-2.9,.6-4.3,.5-.7,1-1.4,1.6-2,1.2-1.2,2.8-1.5,4.4-1.8,2.3-.4,4.6-.2,6.7,.7,2.1,.8,4.3,3.5,4.4,6.2,0,.3-.1,.3-.3,.3h-3.5c-.3,0-.4-.1-.4-.4-.4-1.8-1.7-2.6-3.4-2.9-1.5-.3-3-.1-4.4,.5-.9,.4-1.6,1.3-1.5,2.1,0,.6,.3,1,.9,1.3,1.2,.5,2.4,.6,3.6,.9,2,.3,4.1,.6,6,1.4,2,.9,3.1,2.6,3.4,4.8,.4,3.2-1.1,5.3-3.7,6.9-1.4,.8-3,1.1-4.6,1.2-3.3,.2-6.2-.7-8.6-3-1.3-1.3-1.8-2.9-2.1-4.7,0-.3,.1-.3,.3-.3,.5,0,1.1,0,1.7,0Z"/>
    <path class="cls-1" d="M126.2,28.2h.3c1-.1,1.8-.1,2.2,1.3,.3,1.3,1.6,2,2.9,2.4,1.8,.6,3.5,.3,5.2-.1,1.3-.3,2.6-2.5,2-3.6-.4-.7-1-1.2-1.8-1.3-2.7-.5-5.5-.9-8.1-1.8-3-1-4.8-3.5-3.9-6.7,.7-2.7,2.5-4.2,5.2-4.8,3.1-.7,6.1-.7,9,.9,1.3,.7,1.9,1.9,2.6,3.1,.5,.7,.6,1.6,.8,2.4,.1,.4,.1,.6-.4,.6h-3.4c-.4,0-.5-.1-.6-.5-.4-1.6-1.5-2.5-3.2-2.7-1.8-.3-3.5-.1-5.1,.9-.6,.4-1,.9-.9,1.6,0,.8,.6,1.2,1.3,1.5,1.8,.7,3.7,.7,5.6,1.2,.7,.2,1.4,.3,2.1,.5,1.8,.4,3.1,1.4,4.3,2.7,.5,.6,.8,1.4,.8,2.2,.2,1.7,.1,3.4-1,4.9-1.1,1.6-2.6,2.7-4.5,3.2-2.9,.8-5.8,.7-8.5-.5-1.5-.6-2.8-1.5-3.6-3-.6-1.1-1.3-2.1-1.4-3.4-.1-.6-.1-.8,.6-.8,.5-.2,1-.2,1.5-.2Z"/>
    <path class="cls-1" d="M92.7,23v12.1c0,.5-.1,.6-.6,.6h-3c-.5,0-.6-.2-.6-.7V10.7c0-.4-.1-.6-.6-.6h-7.8c-.5,0-.7-.1-.6-.6v-3.1c0-.3,0-.5,.5-.5h21.4c.4,0,.5,.1,.5,.5v3.2c0,.4-.1,.6-.6,.6h-8c-.5,0-.7,.2-.7,.7,.2,4,.1,8.1,.1,12.1Z"/>
  </g>
</svg>