<?xml version="1.0" encoding="utf-8"?>
<!-- Generator: Adobe Illustrator 22.0.1, SVG Export Plug-In . SVG Version: 6.00 Build 0)  -->
<svg version="1.1" id="Layer_1" xmlns="http://www.w3.org/2000/svg" xmlns:xlink="http://www.w3.org/1999/xlink" x="0px" y="0px"
	 viewBox="0 0 62.582 50" enable-background="new 0 0 62.582 50" xml:space="preserve">
<g>
	<path fill="#0799F3" d="M41.033,1c0.43,0,0.86,0,1.29,0c0.022,0.078,0.09,0.051,0.139,0.056c0.451,0.05,0.901,0.107,1.345,0.201
		c2.426,0.513,4.511,1.651,6.244,3.427c0.099,0.101,0.183,0.138,0.331,0.107c2.552-0.529,4.958-1.443,7.219-2.739
		c0.073-0.042,0.139-0.105,0.266-0.112c-0.454,1.379-1.123,2.622-2.011,3.749c-0.887,1.126-1.947,2.062-3.152,2.847
		c2.342-0.255,4.578-0.883,6.746-1.824c-0.013,0.118-0.074,0.172-0.117,0.235c-0.988,1.444-2.122,2.764-3.394,3.965
		c-0.724,0.684-1.487,1.322-2.29,1.911c-0.108,0.079-0.174,0.153-0.168,0.308c0.047,1.265,0.03,2.53-0.064,3.794
		c-0.12,1.605-0.349,3.194-0.695,4.765c-0.984,4.47-2.735,8.617-5.287,12.418c-3.175,4.73-7.249,8.473-12.314,11.107
		c-4.079,2.121-8.43,3.289-13.005,3.649c-0.428,0.034-0.857,0.064-1.285,0.096c-0.208-0.001-0.417-0.021-0.621,0.041
		c-0.637,0-1.274,0-1.91,0c-0.082-0.043-0.171-0.033-0.258-0.036c-1.186-0.037-2.367-0.133-3.543-0.287
		c-1.993-0.261-3.946-0.697-5.861-1.303c-2.775-0.879-5.395-2.092-7.861-3.638c-0.071-0.044-0.155-0.076-0.221-0.178
		c3.195,0.356,6.317,0.122,9.386-0.74c3.075-0.864,5.87-2.28,8.386-4.265c-1.686-0.08-3.293-0.447-4.817-1.159
		c-1.52-0.71-2.84-1.692-3.953-2.947c-1.116-1.258-1.933-2.685-2.468-4.328c1.831,0.331,3.603,0.279,5.366-0.207
		c-2.797-0.647-5.13-2.045-6.932-4.281c-1.808-2.244-2.678-4.823-2.692-7.75c0.862,0.464,1.723,0.827,2.628,1.076
		c0.909,0.25,1.832,0.405,2.78,0.409c-2.575-1.837-4.275-4.262-4.979-7.343C2.552,8.936,3.019,6.012,4.579,3.219
		c3.106,3.789,6.803,6.783,11.135,8.979c4.337,2.199,8.937,3.416,13.783,3.675c0.044-0.093,0.019-0.154,0.006-0.214
		c-0.361-1.698-0.357-3.395,0.009-5.092c0.858-3.977,3.678-7.277,7.472-8.743C38.288,1.32,39.642,1.069,41.033,1z"/>
</g>
</svg>
