<?xml version="1.0" encoding="UTF-8"?>
<svg id="Layer_2" data-name="Layer 2" xmlns="http://www.w3.org/2000/svg" viewBox="0 0 88.7 48.62">
  <defs>
    <style>
      .cls-1 {
        fill: #fff;
      }

      .cls-2 {
        fill: #00a15f;
      }
    </style>
  </defs>
  <g id="Layer_1-2" data-name="Layer 1">
    <path class="cls-2" d="M19.77,20.44c.64-.69,1.28-1.37,1.92-2.07,3.43-3.73,6.85-7.46,10.28-11.19,2.17-2.36,4.34-4.72,6.51-7.09,.03-.03,.05-.07,.07-.1h.05c.44,1.28,.88,2.55,1.32,3.83,2.12,6.1,4.23,12.19,6.36,18.29,.06,.17,.04,.23-.13,.31-4.34,2.09-8.67,4.19-13.01,6.29-1.05,.51-2.11,1.01-3.16,1.52-.04-.11,.05-.19,.1-.26,1.78-2.36,3.58-4.71,5.46-6.99,.15-.18,.31-.34,.46-.52,.38-.44,.89-.6,1.46-.62,.24,0,.48,0,.72,0,.16,0,.22-.07,.22-.22,0-.21-.01-.41,0-.62,.01-.2-.06-.28-.27-.27-.66,.01-1.32,0-1.98,0-.49,0-.99,0-1.49,0-.18,0-.31,.06-.41,.21-1.13,1.68-2.27,3.35-3.41,5.02-1.19,1.75-2.39,3.51-3.59,5.26-.19,.28-.25,.27-.42-.01-1.47-2.5-2.93-5-4.44-7.48-.64-1.05-1.34-2.06-2.27-2.9-.13-.12-.33-.18-.35-.39Z"/>
    <path class="cls-1" d="M19.77,20.44c.6,.53,1.19,1.08,1.66,1.73,.75,1.04,1.4,2.14,2.05,3.24,1.15,1.94,2.3,3.89,3.44,5.84,.03,.05,.06,.09,.11,.17,.38-.56,.76-1.11,1.13-1.66,2.03-2.98,4.06-5.96,6.09-8.94,.08-.11,.15-.15,.28-.15,1.23,0,2.46,0,3.69,0,.17,0,.23,.05,.22,.22-.01,.27-.01,.55,0,.82,0,.17-.06,.21-.22,.21-.45,0-.91-.04-1.35,.08-.28,.07-.52,.2-.72,.41-.8,.84-1.51,1.75-2.22,2.66-1.28,1.64-2.54,3.29-3.8,4.94-.06,.08-.11,.16-.17,.24-.69,.87-1.32,1.77-1.97,2.67-.09,.13,0,.2,.05,.28,1.12,1.8,2.23,3.6,3.35,5.39,1.49,2.38,2.92,4.78,4.47,7.12,.2,.31,.43,.6,.64,.91,.34,.48,.82,.67,1.38,.68,.27,0,.54,0,.82,0,.15,0,.23,.03,.22,.2,0,.38,.08,.75,.05,1.13h-5.9c-.13-.06-.19-.18-.25-.29-1.37-2.32-2.75-4.63-4.13-6.94-.93-1.56-1.86-3.12-2.79-4.68-.02-.04-.06-.08-.08-.13-.08-.17-.16-.17-.27-.02-.67,.87-1.33,1.75-1.98,2.63-1.51,2.06-2.75,4.29-4.05,6.49-.54,.91-1.08,1.82-1.61,2.73-.05,.09-.11,.16-.2,.21h-4.56c0-.35,0-.71-.03-1.06-.01-.19,.02-.27,.25-.26,.48,.03,.95,.05,1.43-.06,.35-.08,.63-.26,.86-.53,2.06-2.44,3.86-5.08,5.67-7.71,1.01-1.47,2.03-2.95,3.05-4.42,.09-.12,.1-.21,.02-.35-.21-.33-.4-.66-.6-.99-.1-.04-.15-.13-.2-.22-.95-1.57-1.87-3.15-2.84-4.71-.98-1.56-2-3.09-3.21-4.49-.15-.17-.35-.28-.43-.5-.66-.67-1.45-.97-2.39-.88-.22,.02-.44,.04-.66,.07-.12,.02-.17,0-.17-.14,.01-.31,.01-.63,0-.94,0-.13,.05-.17,.17-.19,1.07-.17,2.13-.33,3.19-.5,.76-.12,1.51-.24,2.27-.36,.09-.01,.16-.02,.23,.03Z"/>
    <path class="cls-2" d="M17.13,23.34c.62,.54,1.11,1.19,1.6,1.84,1.51,2.02,2.77,4.21,4.07,6.37,.34,.56,.68,1.13,1.01,1.7-1.02,.49-2.05,.98-3.07,1.47-3.77,1.82-7.55,3.65-11.32,5.47-2.61,1.26-5.22,2.52-7.82,3.79-.21,.1-.29,.06-.41-.12-.36-.55-.73-1.1-1.11-1.64-.1-.14-.11-.23,.02-.37,1.81-1.96,3.62-3.94,5.43-5.9,3.45-3.76,6.9-7.51,10.35-11.26,.42-.46,.84-.91,1.26-1.36Z"/>
    <g>
      <path class="cls-1" d="M88.65,30.21c-2.28,0-4.56,0-6.83,0-.12,0-.15,.05-.15,.16,0,.35,.01,.71,0,1.07,0,.16,.05,.19,.19,.19,.74,0,1.47,0,2.2,0,.26,0,.31,.07,.3,.31,0,2.72,0,5.45-.01,8.17,0,.21,.05,.26,.26,.25,.39-.02,.78-.02,1.16,0,.22,.01,.25-.06,.25-.26,0-2.75,0-5.5,0-8.25,0-.19,.05-.23,.23-.23,.82,.01,1.63,0,2.45,0v-1.39s-.03-.02-.04-.02Z"/>
      <path class="cls-1" d="M40.41,29.98c-3.09,0-5.49,2.31-5.49,5.3,0,2.97,2.4,5.33,5.41,5.33,3,0,5.42-2.37,5.42-5.31s-2.38-5.32-5.34-5.32Zm-.06,9.09c-1.96,.02-3.64-1.65-3.7-3.61-.07-2.22,1.64-3.95,3.67-3.96,2.03,0,3.7,1.68,3.71,3.78,.01,2.06-1.65,3.77-3.68,3.79Z"/>
      <path class="cls-1" d="M79.72,30.2c-.35,.02-.69,.02-1.04,0-.22-.01-.27,.05-.27,.27,0,2.14,0,4.28,0,6.42v.25c-2.42-2.54-5.01-4.85-7.52-7.35v1.36c0,2.97,0,5.95,0,8.92,0,.23,.07,.29,.28,.28,.33-.02,.66-.02,.99,0,.21,.01,.26-.05,.25-.26,0-2.15,0-4.3,0-6.44v-.21c2.42,2.5,5,4.83,7.49,7.28,.07-.11,.05-.21,.05-.29,0-1.6,0-3.21,0-4.81,0-1.73,0-3.45,0-5.18,0-.18-.04-.24-.23-.24Z"/>
      <path class="cls-1" d="M51.94,35.68c.81-.17,1.42-.59,1.75-1.38,.17-.4,.22-.83,.22-1.26,0-.86-.24-1.63-.91-2.21-.53-.45-1.18-.58-1.85-.6-.93-.03-1.87-.01-2.8-.03-.2,0-.26,.05-.26,.25,0,3.21,0,6.42,0,9.64,0,.03,0,.05,0,.07-.02,.14,.03,.18,.17,.18,.32,0,.64,0,.97,0q.4,0,.4-.42c0-1.3,0-2.59,0-3.89,0-.07-.06-.17,.06-.21,.11-.03,.17,.04,.22,.12,.03,.05,.07,.09,.1,.14,1.01,1.36,2.03,2.73,3.04,4.09,.09,.12,.18,.17,.33,.17,.49,0,.97,0,1.46,0,.06,0,.13,.04,.18-.04-1.14-1.51-2.29-3.02-3.44-4.55,.13-.03,.24-.04,.34-.07Zm-2.02-1.16c-.14,0-.16-.07-.16-.18,0-.42,0-.84,0-1.26s0-.84,0-1.26c0-.13,.02-.2,.17-.19,.41,.02,.82,.02,1.23,.11,.68,.15,1.01,.54,1.04,1.24,0,.17,0,.34-.02,.52-.08,.5-.35,.79-.84,.91-.47,.11-.95,.11-1.42,.12Z"/>
      <path class="cls-1" d="M59.66,40.34c.54,0,1.05,0,1.55,0,.16,0,.23-.06,.29-.2,.32-.74,.66-1.47,.99-2.21,.06-.15,.14-.21,.31-.21,1.19,0,2.38,0,3.57,0,.17,0,.24,.06,.31,.21,.32,.74,.65,1.48,.97,2.22,.05,.11,.08,.2,.24,.19,.52-.01,1.04,0,1.6,0-1.64-3.52-3.26-7.01-4.9-10.55-1.65,3.54-3.27,7.03-4.91,10.54Zm6.23-4.21c.07,.16,.08,.23-.13,.22-.78,0-1.57,0-2.35,0-.2,0-.19-.05-.13-.21,.37-.85,.8-1.68,1.11-2.55,.07-.19,.12-.39,.2-.62,.32,1.14,.85,2.13,1.3,3.16Z"/>
      <path class="cls-1" d="M58.21,35.29c0-1.62,0-3.24,0-4.85,0-.19-.05-.24-.23-.23-.41,.01-.83,.01-1.24,0-.17,0-.21,.06-.21,.21,0,.4,0,.79,0,1.19,0,2.82,0,5.64,0,8.47,0,.23,.07,.29,.29,.28,.39-.02,.78-.02,1.16,0,.19,0,.23-.04,.23-.23,0-1.61,0-3.22,0-4.83Z"/>
    </g>
  </g>
</svg>