<?xml version="1.0" encoding="UTF-8"?>
<svg id="Layer_2" data-name="Layer 2" xmlns="http://www.w3.org/2000/svg" viewBox="0 0 127.76 47.89">
  <defs>
    <style>
      .cls-1 {
        fill: #fff;
      }

      .cls-2 {
        fill: #fe1301;
      }
    </style>
  </defs>
  <g id="Layer_1-2" data-name="Layer 1">
    <path class="cls-1" d="M67.95,37.27v.32c0,2.34-.03,4.68,0,7.01,.03,1.84-1.47,3.38-3.45,3.27-1.61-.09-2.96-1.46-3-3.07,0-.31,0-.63,0-.94,0-7.65,0-15.3,0-22.96,0-1.46,.94-2.71,2.32-3.09,1.93-.53,3.79,.69,4.08,2.67,.01,.08,.02,.16,.04,.24,.1-.01,.14-.1,.19-.16,1.68-1.73,3.71-2.79,6.11-3.05,2.78-.29,5.24,.52,7.36,2.32,2.24,1.9,3.53,4.35,3.98,7.24,.52,3.35-.14,6.46-2.15,9.22-1.64,2.27-3.84,3.73-6.64,4.17-2.95,.46-5.57-.35-7.86-2.25-.33-.28-.64-.59-1-.95Zm-.02-8.55c0,1.53,.27,2.62,.84,3.63,1.96,3.48,6.5,4.11,9.24,1.28,2.38-2.45,2.4-6.51,.06-8.99-1.93-2.04-4.94-2.45-7.28-.93-1.93,1.26-2.8,3.12-2.87,5.02Z"/>
    <path class="cls-1" d="M13.62,31.16c.38-.93,.75-1.81,1.11-2.69,1.1-2.69,2.21-5.37,3.41-8.02,.37-.83,.83-1.62,1.53-2.22,1.77-1.51,4.5-.67,5.04,1.55,.22,.9,.03,1.77-.27,2.62-.51,1.46-1.2,2.85-1.86,4.25-1.98,4.27-3.96,8.54-5.97,12.79-.81,1.71-1.75,3.35-2.98,4.8-1.22,1.44-2.65,2.59-4.46,3.17-2.62,.83-5.13,.58-7.46-.92-.82-.53-1.42-1.26-1.64-2.24-.38-1.65,.75-3.3,2.43-3.56,.75-.12,1.45,.03,2.13,.33,.57,.26,1.11,.58,1.73,.72,.69,.16,1.33,.04,1.86-.44,.93-.84,1.66-1.83,2.05-3.04,.05-.16,.07-.31-.02-.47-2.22-4.06-4.32-8.19-6.65-12.19-.56-.96-1.2-1.88-1.64-2.91-.4-.92-.62-1.87-.33-2.87,.34-1.17,1.09-1.96,2.29-2.24,1.24-.29,2.3,.11,3.18,1.02,.53,.55,.88,1.23,1.22,1.91,1.29,2.58,2.59,5.16,3.88,7.74,.47,.95,.93,1.9,1.43,2.91Z"/>
    <path class="cls-1" d="M38.53,31.14c-2.28,0-4.55,0-6.83,0-.19,0-.25,.02-.17,.23,.91,2.23,2.54,3.54,4.94,3.8,1.01,.11,1.99-.17,2.92-.58,.72-.32,1.41-.68,2.13-.99,.77-.33,1.57-.48,2.4-.26,1.53,.41,2.26,2.01,1.59,3.47-.45,.99-1.21,1.69-2.14,2.22-1.68,.96-3.51,1.4-5.43,1.52-1.54,.09-3.07,0-4.55-.5-3.96-1.34-6.58-4.01-7.52-8.09-1.03-4.48,.19-8.4,3.45-11.65,1.22-1.22,2.74-1.93,4.39-2.38,4.43-1.19,8.32-.17,11.55,3.05,1.78,1.77,2.77,4.01,3.03,6.54,.06,.55,.01,1.1-.17,1.63-.41,1.22-1.48,1.94-2.91,1.95-2.22,0-4.45,0-6.67,0,0,.01,0,.03,0,.05Zm-1.49-4c1.74,0,3.49,0,5.24,0,.19,0,.26-.02,.2-.24-.67-2.39-2.96-4.13-5.47-4.12-2.49,0-4.73,1.72-5.39,4.1-.05,.19-.05,.27,.19,.26,1.74-.01,3.49,0,5.24,0Z"/>
    <path class="cls-2" d="M112,5.55c-.07,1.29-.15,2.92-.25,4.55-.11,1.95-.22,3.9-.35,5.85-.08,1.19-.08,2.39-.26,3.57-.11,.76-.43,1.41-1.1,1.85-.85,.57-2.03,.49-2.82-.18-.45-.39-.77-.88-1.06-1.38-2.11-3.69-4.21-7.39-6.31-11.09-.52-.92-.95-1.88-1.28-2.88-.46-1.4-.12-2.52,1.03-3.45,.73-.6,1.57-1,2.45-1.31,2.01-.71,4.07-1.16,6.22-1.07,.56,.02,1.11,.12,1.64,.32,1.23,.46,1.82,1.39,1.96,2.66,.08,.74,.12,1.48,.12,2.56Z"/>
    <path class="cls-1" d="M57.75,25.25c0,4.11,0,8.22,0,12.33,0,1.46-.82,2.65-2.14,3.12-2.09,.75-4.29-.78-4.31-3-.01-1.81,0-3.61,0-5.42,0-6.49,0-12.98,0-19.47,0-1.56,1-2.86,2.45-3.21,1.78-.43,3.58,.73,3.92,2.55,.05,.27,.08,.55,.08,.83v12.27Z"/>
    <path class="cls-2" d="M110.14,35.84c-.1,1.89-.11,3.78-.3,5.67-.04,.41-.11,.81-.22,1.21-.29,1.01-.99,1.54-2.01,1.69-1.03,.15-2.04-.04-3.03-.29-1.39-.35-2.71-.91-3.91-1.7-.37-.25-.7-.54-.97-.9-.48-.64-.59-1.34-.31-2.1,.29-.79,.77-1.46,1.25-2.14,1.69-2.35,3.4-4.68,5.15-6.99,.24-.31,.51-.6,.81-.85,1.46-1.21,3.27-.53,3.6,1.34,.15,.85,.06,1.71,.03,2.56-.02,.84-.06,1.67-.1,2.51Z"/>
    <path class="cls-2" d="M126.75,35.06c-.02,.47-.18,1.01-.47,1.49-1.13,1.9-2.64,3.42-4.57,4.5-.54,.31-1.13,.5-1.77,.48-.7-.02-1.24-.36-1.68-.88-.56-.66-.99-1.41-1.41-2.17-1.28-2.31-2.54-4.63-3.81-6.94-.27-.49-.5-1-.62-1.55-.36-1.64,.96-2.92,2.59-2.53,.56,.13,1.09,.36,1.6,.63,2.65,1.38,5.31,2.73,7.92,4.2,.59,.33,1.17,.69,1.64,1.19,.39,.41,.58,.9,.57,1.57Z"/>
    <path class="cls-2" d="M127.76,20.47c.02,.92-.38,1.59-1.18,2.07-.73,.43-1.53,.62-2.33,.81-3,.68-6,1.36-9,2.04-1.37,.31-2.58-.43-2.87-1.71-.14-.6,0-1.16,.32-1.68,.24-.39,.52-.74,.84-1.07,2.14-2.18,4.25-4.39,6.46-6.49,.36-.34,.74-.66,1.16-.93,.88-.57,1.75-.55,2.63,0,.62,.38,1.09,.92,1.53,1.49,1.09,1.38,1.88,2.91,2.33,4.61,.04,.14,.06,.29,.08,.44,.02,.15,.02,.3,.03,.44Z"/>
    <path class="cls-2" d="M91.59,25.3c-.03-1.32,.16-2.61,.59-3.86,.04-.12,.08-.25,.14-.37,.62-1.39,1.62-1.89,3.11-1.56,1.17,.26,2.29,.68,3.41,1.08,2.11,.75,4.21,1.5,6.32,2.26,.48,.17,.93,.39,1.34,.69,.73,.54,1.06,1.28,.91,2.17-.15,.91-.71,1.53-1.6,1.79-.78,.22-1.57,.38-2.36,.56-2.55,.58-5.1,1.15-7.65,1.73-.71,.16-1.43,.19-2.15,.04-.56-.12-.99-.42-1.3-.89-.43-.63-.59-1.35-.67-2.09-.06-.51-.06-1.03-.07-1.54Z"/>
  </g>
</svg>