<?xml version="1.0" encoding="UTF-8"?>
<svg id="Layer_2" data-name="Layer 2" xmlns="http://www.w3.org/2000/svg" viewBox="0 0 194.74 47.91">
  <defs>
    <style>
      .cls-1 {
        fill: #fff;
      }
    </style>
  </defs>
  <g id="Layer_1-2" data-name="Layer 1">
    <g>
      <path class="cls-1" d="M29.76,0c.43,.09,.86,.18,1.3,.16,1.56-.05,3.08,.17,4.5,.85,.54,.26,1.05,.53,1.66,.59,.36,.04,.67,.26,.88,.53,.9,1.16,1.37,2.48,1.26,3.97-.02,.25-.04,.62-.28,.66-.27,.05-.35-.32-.49-.53-.03-.04-.05-.08-.11-.17-.23,.61-.46,1.17-.91,1.59-.08,.08-.06,.19-.06,.29,.02,1.56-.37,3.03-1.1,4.4-.2,.39-.2,.75-.08,1.16,.68,2.19,1.21,4.42,1.61,6.68,.02,.11,.01,.23,.02,.35,.02,.38-.12,.56-.46,.56-1.09,0-2.17,0-3.26,0-1.35,0-2.69,0-4.04,0-1.36,0-2.72,0-4.08,0-1.15,0-2.3,0-3.45,0-1.12,0-2.25,0-3.38,0-1.35,0-2.69,0-4.04,0-1.35,0-2.69,0-4.04,0s-2.69,0-4.04,0c-.17,0-.34,0-.51-.01-.5-.02-.56-.08-.61-.59,.28-1.09,.8-2.08,1.33-3.06,.5-.9,1.07-1.75,1.83-2.46,.21-.2,.19-.34-.02-.54-1.49-1.44-2.25-3.24-2.53-5.26-.11-.81-.07-1.63-.07-2.45,0-.21,.02-.42,.13-.6,.11-.19,.26-.21,.39-.02,.15,.22,.2,.48,.23,.74,.14,1.02,.4,2.01,.84,2.95,.59,1.25,1.35,2.37,2.57,3.1,.3,.18,.6,.29,.95,.15,1.96-.73,4.01-1.08,6.06-1.37,1.53-.22,3.06-.38,4.6-.48,.42-.03,.48-.1,.49-.52,.02-.75,.1-1.5,.21-2.24,.05-.35,.03-.66-.22-.94-.22-.25-.31-.56-.4-.87-.03-.02-.06-.02-.08,0-.22,.22-.47,.41-.79,.29-.3-.11-.36-.4-.39-.67-.09-1.05-.15-2.1,.05-3.14,.14-.71,.65-1.2,1.28-1.48,.77-.34,1.55-.66,2.41-.71,.16,0,.31-.06,.44-.15,.71-.51,1.52-.7,2.39-.71,.04,0,.07-.01,.1-.04,.63,0,1.25,0,1.87,0Z"/>
      <path class="cls-1" d="M160.62,37c-.67,4.43-2.67,7.88-7.04,9.59-2.05,.8-4.2,1.08-6.39,1.15-1.34,.04-2.67,.07-4,.1-.47,.05-.95,0-1.42,.03-.13,0-.26-.03-.38,.04h-1.95c.01-2.04,.04-4.07,.04-6.11,0-.31,.1-.38,.39-.38,2.59,.01,5.19,.02,7.78,0,1.01,0,1.98-.2,2.89-.65,1.33-.65,2.09-1.78,2.53-3.15,.05-.16,.1-.32,.15-.48,.12-.06,.25-.05,.38-.05,2.05,0,4.09,0,6.14,0,.3,0,.58-.1,.88-.12Z"/>
      <path class="cls-1" d="M0,35.99c.37-.78,.99-1.34,1.68-1.83,.18-.13,.28-.28,.37-.47,.4-.87,.8-1.73,1.28-2.56,0,0,.03,.01,.03,.03,.17,.52,.17,.51,.75,.52,.24,0,.53-.1,.7,.18-.58,1.1-.99,2.27-1.41,3.44-.3,.86-.85,1.54-1.79,1.79-.7,.18-1.21,0-1.62-.56,0-.18,0-.36,0-.55Z"/>
      <path class="cls-1" d="M48.89,37.61c4.79-7.51,9.56-14.97,14.36-22.49h-.47c-4.51,0-9.01,0-13.51,0-.32,0-.41-.07-.41-.4,.02-1.83,.01-3.66,0-5.49,0-.29,.07-.37,.36-.37,8.66,.01,17.32,0,25.98,0,.1,0,.2,.01,.35,.02-4.61,7.51-9.2,14.98-13.82,22.51h.47c4.41,0,8.83,0,13.24,0,.32,0,.44,.05,.43,.41-.02,1.83-.01,3.66,0,5.49,0,.23-.03,.34-.31,.34-8.85,0-17.71,0-26.56,0-.01,0-.02,0-.11-.02Z"/>
      <path class="cls-1" d="M86.33,33.42c-.54-1.38-1.08-2.75-1.62-4.13-2.58-6.66-5.16-13.32-7.75-19.98-.05-.13-.1-.26-.14-.4,.14-.08,.27-.04,.39-.04,2.43,0,4.86,0,7.28,0,.29,0,.42,.08,.52,.36,2.12,5.56,4.25,11.12,6.38,16.68,.15-.08,.15-.23,.2-.36,2.21-5.44,4.41-10.89,6.6-16.34,.12-.3,.26-.4,.58-.4,2.21,.02,4.41,0,6.62,0h.4c-.07,.37-.23,.68-.36,1-2.96,7.42-5.92,14.83-8.88,22.25-.16,.4-.35,.8-.52,1.2-.22,.28-.54,.28-.85,.28-1.54,0-3.08,0-4.63,0-1.22,0-2.44,0-3.65,0-.21,0-.42,.01-.6-.13Z"/>
      <path class="cls-1" d="M160.62,37c-.18,.19-.4,.24-.66,.24-2.08-.01-4.16,0-6.24,0-.17,0-.34,.02-.49-.08,.13-.85,.29-1.71,.23-2.63-.53,.4-1.03,.78-1.59,1.08-3.53,1.92-7.1,1.97-10.68,.19-3.14-1.56-4.96-4.19-5.87-7.51-.71-2.61-.8-5.27-.5-7.95,.04-.37,.08-.75,.19-1.11,.11-.11,.26-.12,.4-.12,2.49,0,4.98-.02,7.48,0,.19,.09,.11,.24,.08,.37-.25,1.02-.43,2.07-.41,3.12,.02,1.58,.02,3.17,.55,4.69,.66,1.89,2.17,2.88,4.35,2.72,2.24-.17,4.08-1.19,5.57-2.86,.25-.28,.34-.59,.34-.96,0-2.88,0-5.76,0-8.64,0-.2-.09-.45,.16-.58,.16,.12,.14,.3,.14,.46,0,.42,.01,.83,0,1.25,0,.32,.12,.44,.43,.44,.92,0,1.84,0,2.76,0,1.05,0,2.1,0,3.15,0,.71,0,.8-.09,.8-.82,0-1.83,0-3.66,0-5.49,0-.2-.08-.45,.18-.58,0,.13,.01,.26,.01,.39,0,6.11,0,12.22,0,18.33,0,1.88-.05,3.76-.31,5.63-.02,.14-.06,.28-.08,.42Z"/>
      <path class="cls-1" d="M123.72,26.02c0-2.61-.01-5.22-.01-7.82,0-.4-.02-.81-.11-1.2-.34-1.54-1.57-2.25-3.19-1.85-1.25,.31-2.29,1-3.26,1.82-1,.85-1.82,1.84-2.57,2.9-.05,.14-.03,.28-.03,.42,0,2.03,0,4.07,0,6.1,0,.4-.07,.48-.47,.48-2.22,0-4.45,0-6.67,0-.11,0-.21,0-.29-.08,0-.13-.01-.26-.01-.39,0-5.68,.01-11.37,0-17.05,0-.41,.12-.48,.49-.48,2.22,.02,4.44,.02,6.66,0,.3,0,.37,.08,.36,.37-.02,.66,0,1.32,0,2.05,.65-.55,1.28-1.05,1.97-1.43,2.46-1.36,5.08-1.98,7.86-1.43,3.07,.61,5.08,2.53,6.19,5.43,.38,.99,.57,2.02,.56,3.08,.04,.11,.03,.23,.03,.35,0,2.76,0,5.52,0,8.28,0,.45-.09,.56-.54,.56-2.19,.01-4.38,.01-6.57,0-.14,0-.29,0-.4-.12Z"/>
      <path class="cls-1" d="M164.06,28.9c.13-2.19,.99-4.05,2.57-5.58,1.55-1.5,3.46-2.34,5.51-2.91,2.11-.59,4.27-.83,6.46-.87,.4,0,.5-.12,.5-.5,0-.7,.13-1.39,.02-2.09-.2-1.23-.9-1.97-2.12-2.23-1.54-.32-3.05-.11-4.54,.28-2.07,.54-4,1.41-5.81,2.54-.08,.05-.16,.09-.24,.13,0,0-.02,0-.07-.03v-.24c0-2.11,0-4.23,0-6.35,0-.23,.05-.37,.29-.47,2.61-1.16,5.32-1.94,8.16-2.25,2.04-.22,4.04-.12,6,.51,3.54,1.15,5.61,3.92,5.7,7.69,.07,2.94,.03,5.89,.03,8.84,0,1.18-.01,2.36-.02,3.54-.15,.13-.34,.12-.52,.12-2.12,0-4.23,0-6.35,0-.57,0-.65-.08-.65-.66,0-.87,0-1.74,0-2.61,0-.15,.03-.31-.06-.45-.1-.13-.24-.15-.39-.15-1.17,.03-2.33,.06-3.47,.38-1.07,.31-2.04,.77-2.76,1.65-.33,.41-.54,.88-.65,1.4-.04,.18-.07,.36-.29,.41-.34,.05-.67,.03-1.01,.03-1.89,0-3.78,0-5.66,0-.22,0-.44,.04-.63-.13Z"/>
      <path class="cls-1" d="M4.82,31.86c-.32-.15-.66-.06-.99-.07-.57-.02-.57,0-.49-.54,0-.04,0-.08,0-.12,.56-1.08,.6-2.28,.86-3.44,.51-2.3,1.07-4.58,1.8-6.82,.04-.13,.11-.26,.16-.39,.04,.55,.18,.6,.92,.53,.55-.05,1.11-.01,1.66-.02,.5,0,1.01-.01,1.51-.01,.53,0,1.06,0,1.59,0,.5,0,1.01,0,1.51,0,.52,0,1.04-.01,1.55-.01,.54,0,1.08,0,1.62,0,.52,0,1.03,.02,1.55,.02,.49,0,.98,0,1.47,0,.55,0,1.11,0,1.66,0,.5,0,1.01-.02,1.51-.02,.52,0,1.04,0,1.55,0,.5,0,1.01,.01,1.51,.02,.55,0,1.11,0,1.66,0,.5,0,1.01-.02,1.51-.02,.51,0,1.01,0,1.52,0,.54,0,1.08,0,1.62,0,.52,0,1.04,.01,1.55,.02,.5,0,1.01,0,1.51,0,.53,0,1.06-.02,1.59,0,.28,.01,.55-.02,.83,0,.22,.02,.38-.19,.38-.46,.25,1,.16,2-.1,2.98-.26,.97-.6,1.91-1.13,2.78-.16,.26-.42,.44-.52,.73-.05,.34,.03,.68-.04,1.02-.08,.74-.32,1.42-.63,2.08-.19,.23-.44,.28-.72,.28-.75,0-1.5,0-2.24,0-.55,0-.56-.03-.57-.56,0-.32,.03-.64-.02-.96-.06-.5-.11-1-.19-1.5-.02-.14,0-.38-.33-.24-1.05,.45-2.17,.6-3.3,.72-.54,.06-1.08,.1-1.63,.08-.25-.01-.38,.04-.44,.35-.29,1.47-.67,2.91-1.16,4.32-.15,.12-.33,.13-.52,.13-.84,0-1.68,0-2.53,0-.18,0-.37,.01-.52-.12-.3-.9-.46-1.83-.63-2.76-.12-.71-.25-1.42-.25-2.15,0-.32-.3-.22-.44-.33-.14-.11-.23-.03-.33,.07-.67,.76-1.35,1.51-2.08,2.22-.12,.12-.13,.24-.09,.39,.14,.6,.29,1.21,.42,1.82,.07,.29,.28,.42,.52,.53,.54,.25,1.07,.53,1.49,.97,.22,.23,.43,.48,.33,.82-.1,.33-.41,.41-.71,.46-.82,.14-1.59-.06-2.35-.36-.2-.08-.25-.29-.32-.47-.52-1.27-.87-2.6-1.33-3.89-.31-.88-.37-1.68,.07-2.54,.26-.51,.37-1.1,.44-1.68,.04-.33,0-.65-.19-.93-.52-.84-1.25-1.41-2.18-1.72-.73-.24-1.32,.14-1.86,.54-.73,.55-1.45,1.13-2.14,1.75-.6,.54-1.19,1.09-1.8,1.61-1.35,1.14-1.88,2.8-2.78,4.22-.13,.21-.22,.43-.33,.65Z"/>
      <path class="cls-1" d="M142.92,19.16c-.14,.1-.3,.08-.45,.08h-7.47c.13-1,.44-1.96,.82-2.9,.77-1.93,1.91-3.62,3.51-4.96,2.48-2.08,5.31-3.26,8.6-3.03,1.83,.12,3.53,.77,5.17,1.57,.28,.14,.39,.18,.38-.21-.02-.84,0-.84,.85-.84,2.12,0,4.23,0,6.35,0,.26,0,.35,.05,.35,.34-.02,1.01-.01,2.02-.02,3.04-.11,.12-.06,.27-.06,.41,0,1.96,0,3.92,0,5.88,0,.58-.13,.72-.7,.72-2.08,0-4.15,0-6.23,0-.37,0-.51-.08-.48-.47,.03-.48,.01-.96,0-1.44,0-.12,.05-.26-.09-.36-.25,.02-.35-.19-.5-.33-1.37-1.2-2.94-1.95-4.78-1.98-2.02-.04-3.51,.85-4.43,2.65-.26,.5-.49,1-.65,1.54-.03,.11-.04,.23-.16,.3Z"/>
      <path class="cls-1" d="M164.06,28.9c2.47,0,4.94,0,7.41,0,.15,.1,.15,.26,.17,.41,.16,1.33,1.05,2.14,2.39,2.2,1.76,.08,3.26-.58,4.63-1.61,.21-.16,.25-.38,.25-.62,0-1.22,0-2.43,0-3.65,0-.19-.04-.39,.11-.55,.12,.12,.07,.27,.07,.41,0,.97,0,1.94,0,2.92q0,.5,.51,.5h6.89c.02,.58,.03,1.17,.07,1.75,.08,1.06,.57,1.51,1.63,1.51,.45,0,.88-.07,1.3-.19,.18-.05,.24-.02,.27,.18,.19,1.5,.4,3.01,.6,4.51,.02,.15,.01,.27-.16,.34-1.66,.77-3.37,1.38-5.23,1.27-1.85-.12-3.24-1.06-4.27-2.57-.17-.25-.26-.28-.52-.1-1.89,1.33-3.94,2.3-6.25,2.62-1.64,.23-3.21-.08-4.7-.73-2.23-.97-3.93-2.49-4.77-4.84-.43-1.21-.55-2.47-.42-3.75Z"/>
      <path class="cls-1" d="M86.33,33.42c3.01,0,6.01,0,9.02,0,.26,0,.47-.12,.71-.16-.27,.92-.67,1.79-1.03,2.67-1.44,3.63-2.9,7.25-4.34,10.88-.11,.29-.25,.38-.56,.38-2.4-.01-4.8,0-7.2,0h-.43c.41-.91,.79-1.77,1.17-2.63,1.2-2.67,2.39-5.33,3.6-7.99,.1-.22,.11-.4,.02-.62-.33-.84-.65-1.69-.97-2.53Z"/>
      <path class="cls-1" d="M123.72,26.02c2.31,0,4.61,0,6.92,0,.53,0,.54-.02,.54-.55,0-2.68,0-5.36,0-8.05,0-.16,0-.31,.01-.47,.08,.15,.05,.31,.05,.46,0,6.63,0,13.27,0,19.9,0,.28-.04,.4-.37,.4-2.29-.02-4.57-.01-6.85,0-.21,0-.32,0-.32-.28,.01-3.78,0-7.56,0-11.33,0-.02,0-.05,.01-.08Z"/>
      <path class="cls-1" d="M107.11,26.8c.89-.07,1.79-.01,2.68-.03,.93-.02,1.86,0,2.79-.02,.51-.01,1.03-.06,1.55,.03,.28,.05,.38-.14,.38-.43-.01-2.01,0-4.02,0-6.02,0-.15-.06-.31,.07-.45,0,5.8,0,11.6,0,17.4,0,.36-.1,.44-.45,.44-2.23-.02-4.46,0-6.7,0-.2,0-.36,.04-.36-.28,.02-3.5,.01-7.01,.02-10.51,0-.04,.01-.08,.02-.12Z"/>
      <path class="cls-1" d="M21.35,32.64h3.56c-.26,.65-.24,1.35-.26,2.03-.08,2.51-.05,5.01,.52,7.47,.05,.19,.03,.41,.21,.56,1.05,.91,.89,2.08-.7,2.53-.78,.22-1.49,.04-2.12-.45-.42-.33-.63-.78-.62-1.32,.02-.8,.04-1.61,.07-2.41,.08-2.13,.03-4.26-.2-6.37-.08-.69-.3-1.36-.46-2.04Z"/>
      <path class="cls-1" d="M31.95,28.9c.14,.35,.05,.71,.06,1.07,0,.25,.07,.34,.33,.34,.89-.01,1.78-.01,2.67,0,.2,0,.33-.14,.5-.16-.76,1.47-1.28,3.02-1.65,4.63-.19,.81-.29,1.63-.28,2.47,0,.4,.12,.75,.39,1.07,.35,.4,.68,.82,.92,1.29,.25,.49,.21,.74-.2,1.1-1.1,.94-2.07,.97-3.3,.04-.4-.3-.47-.79-.55-1.25-.21-1.14,.06-2.24,.3-3.34,.54-2.38,.88-4.79,.8-7.25Z"/>
      <path class="cls-1" d="M36.15,28.06c.01-.34-.06-.69,.04-1.02,.01,.34,.06,.69-.04,1.02Z"/>
      <g>
        <path class="cls-1" d="M194.66,10.35c-.39-1.57-2.07-2.47-3.55-1.91-1.02,.39-1.75,1.36-1.79,2.42-.04,1.11,.58,2.11,1.59,2.59,.98,.46,2.13,.26,2.96-.48,.47-.41,.66-.97,.88-1.52v-.86c-.09-.06-.06-.16-.09-.25Zm-2.65,2.91c-1.23,0-2.24-1.02-2.25-2.25,0-1.27,1.03-2.3,2.3-2.29,1.25,.01,2.25,1.05,2.24,2.3,0,1.29-1.19,2.34-2.3,2.24Z"/>
        <path class="cls-1" d="M192.37,11.16c.02-.09,.09-.08,.13-.1,.43-.16,.6-.44,.54-.86-.06-.4-.3-.61-.75-.63-.43-.02-.85-.02-1.28-.03-.14,0-.25,0-.24,.2,0,.83,0,1.66,0,2.49,0,.11,0,.2,.16,.2,.13,0,.22-.03,.22-.19,0-.19,0-.39,0-.58,0-.48,.35-.68,.78-.42,.12,.07,.22,.19,.3,.3,.15,.21,.28,.43,.43,.65,.19,.29,.21,.3,.6,.17-.29-.41-.5-.87-.88-1.19Zm-.64-.32c-.58,0-.73-.23-.59-.82,.03-.12,.1-.13,.19-.13,.28,0,.57,0,.85,0,.25,.01,.45,.12,.47,.41,.02,.3-.16,.45-.42,.51-.16,.03-.33,.02-.5,.03Z"/>
      </g>
    </g>
  </g>
</svg>