<?xml version="1.0" encoding="utf-8"?>
<!-- Generator: Adobe Illustrator 22.0.1, SVG Export Plug-In . SVG Version: 6.00 Build 0)  -->
<svg version="1.1" id="Layer_1" xmlns="http://www.w3.org/2000/svg" xmlns:xlink="http://www.w3.org/1999/xlink" x="0px" y="0px"
	 viewBox="0 0 226.049 50" enable-background="new 0 0 226.049 50" xml:space="preserve">
<g>
	<path fill="#0377CA" d="M24.919,22.664c0,3.319-0.001,6.638,0,9.957c0.001,2.567,1.022,3.758,3.571,3.92
		c4.596,0.291,8.251-1.457,10.945-5.221c1.51-2.11,2.383-4.446,2.692-7.007c0.343-2.838,0.48-5.678-0.307-8.465
		c-1.494-5.298-5.003-8.682-10.207-10.226c-11.632-3.45-23.4,3.65-25.98,15.594c-0.871,4.033-0.95,8.07,0.291,12.033
		c1.941,6.2,6.289,9.836,12.514,11.3c5.205,1.225,10.263,0.657,15.149-1.499c0.508-0.224,1.011-0.467,1.583-0.478
		c0.137-0.003,0.308-0.056,0.392,0.096c0.101,0.182-0.044,0.314-0.154,0.429c-0.573,0.603-1.243,1.08-1.973,1.472
		c-2.287,1.229-4.771,1.79-7.319,2.068c-4.265,0.465-8.447,0.055-12.432-1.589C6.88,42.241,2.51,37.297,1.351,29.953
		c-1.218-7.718,1.105-14.418,6.63-19.946c4.115-4.117,9.126-6.386,14.929-6.893c3.962-0.346,7.826,0.058,11.474,1.725
		c5.341,2.44,8.449,6.631,9.338,12.408c0.679,4.413,0.292,8.732-1.884,12.722c-2.821,5.174-7.307,7.727-13.135,7.896
		c-2.056,0.06-3.931-0.643-5.426-2.144c-0.883-0.887-1.315-1.953-1.312-3.223c0.013-6.72,0.021-13.441-0.01-20.161
		c-0.004-0.96,0.49-1.634,0.976-2.333c0.271-0.389,0.81-0.324,1.101,0.096c0.528,0.763,0.93,1.53,0.91,2.546
		C24.878,15.984,24.919,19.325,24.919,22.664z"/>
	<path fill="#0276CA" d="M95.554,36.401c0,2.404,0,4.749,0,7.094c0,1.178-0.001,1.167-1.167,1.335
		c-1.222,0.175-2.443,0.358-3.658,0.57c-0.453,0.079-0.645,0.046-0.644-0.509c0.017-9.745,0.016-19.491,0.002-29.236
		c-0.001-0.461,0.114-0.596,0.58-0.583c1.173,0.034,2.349,0.031,3.523,0.001c0.451-0.012,0.6,0.132,0.647,0.58
		c0.079,0.755,0.246,1.501,0.381,2.281c0.291-0.065,0.412-0.325,0.589-0.503c1.59-1.597,3.422-2.718,5.737-2.79
		c3.689-0.115,6.469,1.691,7.724,5.164c1.409,3.899,1.368,7.855-0.147,11.712c-1.574,4.009-5.311,6.148-9.608,5.711
		C98.181,37.092,96.869,36.881,95.554,36.401z M95.554,27.194c0,1.421,0.014,2.842-0.01,4.262c-0.006,0.368,0.12,0.54,0.447,0.684
		c1.11,0.489,2.267,0.696,3.474,0.733c2.065,0.064,3.495-0.869,4.392-2.689c0.471-0.954,0.704-1.976,0.79-3.026
		c0.158-1.925,0.118-3.834-0.8-5.603c-0.88-1.698-2.479-2.416-4.344-1.988c-1.574,0.361-2.652,1.423-3.656,2.593
		c-0.213,0.248-0.304,0.503-0.3,0.833C95.563,24.393,95.554,25.794,95.554,27.194z"/>
	<path fill="#0276CA" d="M63.072,34.251c-0.629,0.522-1.156,1.015-1.738,1.431c-2.222,1.592-4.689,2.16-7.371,1.593
		c-2.592-0.547-4.293-2.602-4.423-5.248c-0.166-3.405,1.165-5.635,4.263-7.1c2.068-0.978,4.285-1.419,6.527-1.752
		c0.671-0.1,1.346-0.193,2.022-0.242c0.343-0.025,0.389-0.177,0.4-0.467c0.088-2.235-1.084-3.42-3.519-3.476
		c-2.43-0.055-4.72,0.582-6.943,1.503c-0.652,0.27-0.648,0.272-0.757-0.435c-0.16-1.037-0.31-2.075-0.493-3.108
		c-0.073-0.412,0.025-0.606,0.445-0.766c3.384-1.29,6.861-1.845,10.474-1.432c0.8,0.092,1.582,0.265,2.335,0.549
		c2.327,0.875,3.478,2.643,3.799,5.034c0.099,0.736,0.12,1.477,0.119,2.219c-0.004,4.615-0.011,9.23,0.011,13.845
		c0.003,0.521-0.134,0.654-0.644,0.637c-1.194-0.04-2.39-0.035-3.584-0.001c-0.41,0.012-0.531-0.152-0.579-0.506
		C63.318,35.801,63.198,35.074,63.072,34.251z M62.747,28.551c0-0.68-0.008-1.36,0.004-2.04c0.005-0.281-0.058-0.424-0.381-0.378
		c-1.94,0.278-3.865,0.604-5.589,1.619c-0.594,0.35-1.112,0.79-1.435,1.412c-0.515,0.992-0.602,2.027-0.06,3.017
		c0.528,0.965,1.475,1.168,2.496,1.144c1.593-0.037,2.933-0.699,4.178-1.636c0.569-0.428,0.904-0.9,0.8-1.656
		C62.693,29.548,62.747,29.046,62.747,28.551z"/>
	<path fill="#0276CA" d="M138.855,18.137c1.008-0.921,1.955-1.71,3.032-2.329c1.858-1.068,3.84-1.429,5.951-1.038
		c2.454,0.455,4.171,2.338,4.489,4.936c0.07,0.571,0.116,1.149,0.117,1.724c0.009,4.989-0.003,9.977,0.018,14.966
		c0.002,0.515-0.123,0.655-0.64,0.641c-1.421-0.038-2.845-0.034-4.266-0.001c-0.469,0.011-0.577-0.122-0.575-0.58
		c0.018-4.432,0.013-8.864,0.008-13.296c0-0.39-0.016-0.784-0.067-1.17c-0.259-1.946-1.57-2.87-3.5-2.477
		c-1.673,0.34-2.919,1.369-4.084,2.531c-0.208,0.208-0.147,0.46-0.147,0.699c-0.003,4.535-0.011,9.07,0.009,13.605
		c0.002,0.517-0.083,0.713-0.661,0.693c-1.441-0.05-2.886-0.034-4.328-0.006c-0.423,0.008-0.511-0.133-0.51-0.524
		c0.01-6.968,0.01-13.935,0.001-20.903c0-0.377,0.064-0.556,0.5-0.546c1.236,0.028,2.474,0.03,3.71-0.002
		c0.399-0.01,0.488,0.173,0.536,0.491C138.571,16.383,138.708,17.213,138.855,18.137z"/>
	<path fill="#0276CA" d="M130.44,30.532c0.173,1.162,0.267,2.27,0.521,3.34c0.186,0.781-0.105,1.133-0.731,1.492
		c-3.495,2.006-7.219,2.632-11.136,1.744c-3.365-0.763-5.691-2.827-6.758-6.133c-1.131-3.502-1.119-7.035,0.306-10.455
		c2.953-7.089,11.237-7.005,14.849-4.014c1.851,1.533,2.813,3.563,3.297,5.853c0.291,1.375,0.375,2.77,0.316,4.178
		c-0.02,0.478-0.151,0.604-0.63,0.602c-4.267-0.02-8.533-0.002-12.8-0.024c-0.536-0.003-0.681,0.094-0.622,0.668
		c0.313,3.065,2.145,5.145,4.836,5.4c1.818,0.172,3.569-0.097,5.256-0.803C128.286,31.904,129.333,31.258,130.44,30.532z
		 M121.368,23.69c1.275,0,2.551-0.019,3.826,0.01c0.453,0.01,0.635-0.086,0.541-0.573c-0.169-0.869-0.354-1.729-0.751-2.528
		c-1.369-2.757-4.987-2.998-6.714-0.446c-0.635,0.939-0.923,2-1.122,3.101c-0.072,0.4,0.062,0.445,0.395,0.441
		C118.817,23.683,120.092,23.69,121.368,23.69z"/>
	<path fill="#0276CA" d="M71.227,30.795c1.354,0.829,2.748,1.523,4.255,1.964c1.717,0.503,3.46,0.773,5.241,0.418
		c1.609-0.321,2.388-1.464,1.973-2.825c-0.219-0.718-0.779-1.084-1.408-1.38c-1.125-0.529-2.34-0.769-3.528-1.098
		c-1.29-0.356-2.543-0.799-3.764-1.358c-4.354-1.992-4.023-8.286-0.539-10.434c1.85-1.14,3.862-1.478,5.973-1.419
		c2.278,0.063,4.498,0.448,6.626,1.308c0.399,0.161,0.535,0.345,0.456,0.771c-0.216,1.173-0.422,2.35-0.579,3.533
		c-0.058,0.439-0.167,0.452-0.519,0.267c-1.915-1.009-3.942-1.649-6.116-1.77c-0.766-0.043-1.525,0.009-2.245,0.303
		c-0.655,0.268-1.09,0.719-1.173,1.456c-0.089,0.789,0.241,1.356,0.908,1.747c1.098,0.644,2.328,0.92,3.535,1.252
		c1.25,0.344,2.494,0.7,3.678,1.236c2.842,1.285,3.982,3.093,3.854,6.107c-0.123,2.901-1.643,4.971-4.436,5.896
		c-3.118,1.033-6.253,0.789-9.371-0.046c-1.114-0.298-2.19-0.709-3.223-1.223c-0.196-0.097-0.412-0.161-0.356-0.484
		c0.228-1.318,0.432-2.64,0.648-3.959C71.131,30.98,71.179,30.909,71.227,30.795z"/>
	<path fill="#0276CA" d="M209.753,18.506c0.749-0.565,1.388-1.081,2.061-1.546c1.824-1.262,3.809-2,6.074-1.864
		c3.575,0.215,5.745,2.335,5.793,5.918c0.069,5.192,0.017,10.386,0.03,15.579c0.001,0.362-0.12,0.45-0.457,0.438
		c-0.659-0.023-1.321-0.04-1.977,0.004c-0.473,0.032-0.576-0.125-0.574-0.581c0.018-4.266,0.013-8.532,0.009-12.797
		c-0.001-0.7,0.002-1.402-0.047-2.099c-0.242-3.428-2.824-4.208-5.307-3.62c-2.187,0.519-3.841,1.909-5.436,3.389
		c-0.238,0.22-0.165,0.494-0.165,0.751c-0.004,4.76-0.012,9.521,0.01,14.281c0.002,0.531-0.106,0.73-0.668,0.677
		c-0.592-0.056-1.197-0.05-1.791-0.001c-0.493,0.041-0.624-0.152-0.551-0.589c0.003-0.02,0-0.041,0-0.062
		c0-10.263,0.004-20.525-0.011-30.788c-0.001-0.497,0.082-0.742,0.639-0.779c0.57-0.038,1.137-0.182,1.696-0.318
		c0.503-0.122,0.693-0.053,0.688,0.553c-0.031,4.224-0.016,8.449-0.016,12.674C209.753,17.949,209.753,18.172,209.753,18.506z"/>
	<path fill="#0377CA" d="M183.951,31.713c0.147,0.842,0.274,1.571,0.401,2.3c0.044,0.252,0.041,0.463-0.204,0.651
		c-3.425,2.62-7.202,3.546-11.38,2.262c-2.443-0.751-4.169-2.417-5.125-4.762c-1.595-3.91-1.657-7.895,0.061-11.763
		c2.479-5.582,8.229-6.236,11.823-4.51c2.512,1.206,3.767,3.403,4.459,5.987c0.342,1.28,0.435,2.593,0.493,3.913
		c0.024,0.545-0.104,0.729-0.696,0.725c-4.533-0.028-9.066-0.005-13.599-0.028c-0.535-0.003-0.718,0.108-0.663,0.668
		c0.132,1.337,0.332,2.652,0.875,3.894c1.158,2.652,3.619,4.066,6.502,3.827c2.384-0.198,4.438-1.136,6.303-2.571
		C183.425,32.131,183.645,31.953,183.951,31.713z M175.401,24.123c1.814,0,3.627-0.008,5.441,0.007
		c0.378,0.003,0.507-0.089,0.459-0.491c-0.122-1.029-0.36-2.023-0.776-2.972c-1.883-4.291-7.122-3.863-9.175-1.027
		c-0.815,1.126-1.295,2.377-1.57,3.72c-0.156,0.76-0.145,0.763,0.614,0.763C172.062,24.123,173.731,24.123,175.401,24.123z"/>
	<path fill="#0377CA" d="M202.979,20.237c-0.668-0.49-1.252-0.941-1.892-1.312c-1.733-1.006-3.602-1.43-5.58-1.18
		c-2.407,0.304-4.042,1.715-4.924,3.911c-1.216,3.028-1.243,6.127-0.01,9.154c1.047,2.572,3.049,3.897,5.845,4.009
		c2.347,0.094,4.413-0.631,6.254-2.062c0.173-0.135,0.314-0.328,0.587-0.373c0.125,0.794,0.243,1.581,0.378,2.364
		c0.038,0.219-0.05,0.338-0.211,0.464c-3.236,2.528-8.351,3.063-11.829,1.05c-1.973-1.142-3.329-2.822-4.078-4.95
		c-1.191-3.381-1.212-6.794,0.055-10.158c1.512-4.014,5.163-6.303,9.436-6.072c2.145,0.116,4.126,0.682,5.956,1.809
		c0.389,0.239,0.534,0.496,0.438,0.95C203.242,18.602,203.129,19.374,202.979,20.237z"/>
	<path fill="#0377CA" d="M157.127,25.797c0-2.37-0.016-4.741,0.013-7.111c0.006-0.505-0.154-0.625-0.625-0.602
		c-0.761,0.037-1.525-0.003-2.287,0.016c-0.313,0.008-0.444-0.07-0.428-0.409c0.033-0.697-0.224-1.587,0.115-2.041
		c0.33-0.44,1.27-0.118,1.941-0.131c1.27-0.024,1.271-0.007,1.271-1.301c0-1.876,0.016-3.751-0.012-5.627
		c-0.006-0.433,0.154-0.573,0.542-0.623c0.632-0.081,1.27-0.156,1.887-0.31c0.463-0.116,0.559,0.002,0.556,0.451
		c-0.018,2.267,0.006,4.535-0.019,6.802c-0.005,0.482,0.117,0.628,0.609,0.614c1.298-0.036,2.597-0.004,3.895-0.018
		c0.318-0.003,0.479,0.058,0.514,0.422c0.057,0.593,0.16,1.184,0.292,1.765c0.085,0.377-0.075,0.406-0.375,0.404
		c-1.463-0.009-2.927,0.013-4.39-0.014c-0.437-0.008-0.546,0.121-0.544,0.55c0.016,4.287,0.009,8.574,0.009,12.861
		c0,0.041,0,0.082,0.001,0.124c0.042,2.305,0.993,3.205,3.301,3.115c0.37-0.014,0.758,0.005,1.105-0.101
		c0.598-0.182,0.859-0.027,0.906,0.605c0.035,0.469,0.142,0.936,0.254,1.395c0.079,0.327-0.047,0.449-0.343,0.504
		c-1.531,0.281-3.064,0.401-4.6,0.049c-2.229-0.511-3.492-1.975-3.55-4.279c-0.06-2.369-0.013-4.74-0.013-7.11
		C157.143,25.797,157.135,25.797,157.127,25.797z"/>
	<path fill="#0377CA" d="M25.946,21.195c0-2.244,0.02-4.489-0.01-6.732c-0.012-0.877,0.654-1.272,1.128-1.812
		c0.077-0.088,0.221-0.078,0.35-0.029c0.359,0.135,1.166,1.245,1.167,1.654c0.003,4.612,0.01,9.224-0.006,13.836
		c-0.003,0.761-0.681,1.124-1.136,1.604c-0.058,0.061-0.245,0.041-0.353,0.004c-0.385-0.131-1.137-1.284-1.138-1.729
		C25.945,25.725,25.946,23.46,25.946,21.195z"/>
	<path fill="#0377CA" d="M18.332,21.194c0-2.264,0.02-4.528-0.01-6.792c-0.011-0.856,0.642-1.23,1.104-1.75
		c0.077-0.086,0.222-0.077,0.351-0.03c0.353,0.128,1.163,1.25,1.163,1.653c0.005,4.61,0.016,9.221-0.001,13.831
		c-0.003,0.755-0.668,1.132-1.132,1.604c-0.096,0.097-0.319,0.082-0.406-0.021c-0.446-0.531-1.098-0.902-1.082-1.764
		C18.358,25.682,18.331,23.438,18.332,21.194z"/>
	<path fill="#0377CA" d="M17.264,22.605c0,1.811-0.022,3.622,0.011,5.432c0.014,0.772-0.579,1.134-0.952,1.648
		c-0.087,0.12-0.308,0.111-0.393-0.005c-0.41-0.56-1.035-0.95-1.025-1.809c0.041-3.559,0.035-7.12,0.003-10.679
		c-0.007-0.832,0.622-1.202,1.02-1.746c0.075-0.103,0.255-0.108,0.334-0.005c0.397,0.517,1.032,0.857,1.014,1.67
		C17.236,18.942,17.264,20.774,17.264,22.605z"/>
	<path fill="#0377CA" d="M29.624,22.548c0-1.811,0.029-3.623-0.013-5.433c-0.019-0.814,0.623-1.15,1.012-1.673
		c0.077-0.103,0.258-0.101,0.335,0.001c0.405,0.539,1.027,0.911,1.02,1.743c-0.033,3.56-0.04,7.121,0.005,10.68
		c0.011,0.863-0.608,1.251-1.018,1.809c-0.089,0.121-0.305,0.129-0.391,0.01c-0.371-0.515-0.974-0.869-0.96-1.644
		C29.646,26.212,29.624,24.38,29.624,22.548z"/>
	<path fill="#0377CA" d="M13.898,22.596c0,0.658-0.076,1.327,0.019,1.972c0.121,0.825-0.33,1.303-0.842,1.789
		c-0.109,0.104-0.22,0.182-0.382,0.147c-0.319-0.069-1.101-1.027-1.102-1.376c-0.004-1.686-0.004-3.373-0.001-5.059
		c0.001-0.36,0.703-1.325,1.039-1.431c0.071-0.022,0.163-0.02,0.234,0.004c0.389,0.131,1.033,1.062,1.034,1.486
		C13.899,20.951,13.898,21.774,13.898,22.596z"/>
	<path fill="#0377CA" d="M35.297,22.55c0,0.679-0.081,1.37,0.02,2.033c0.132,0.872-0.392,1.318-0.926,1.802
		c-0.116,0.106-0.237,0.158-0.391,0.109c-0.307-0.097-1.009-1.044-1.01-1.38c-0.003-1.686-0.003-3.373,0-5.059
		c0.001-0.365,0.705-1.319,1.046-1.418c0.072-0.021,0.163-0.015,0.234,0.01c0.389,0.139,1.026,1.073,1.027,1.498
		C35.299,20.946,35.297,21.748,35.297,22.55z"/>
	<path fill="#0377CA" d="M39.976,39.981c1.12,0.021,2,0.901,1.999,1.999c-0.001,1.147-0.95,2.058-2.109,2.024
		c-1.157-0.034-2.005-0.921-1.983-2.072C37.904,40.799,38.805,39.959,39.976,39.981z M40.879,43.216
		c0.089,0.053,0.152,0.004,0.21-0.056c0.658-0.675,0.586-1.891-0.147-2.483c-0.716-0.579-1.827-0.424-2.352,0.328
		c-0.557,0.797-0.316,1.953,0.507,2.432c0.645,0.376,1.38,0.281,1.793-0.232L40.879,43.216z"/>
	<path fill="#0377CA" d="M40.889,43.205c-0.497-0.001-0.587-0.439-0.798-0.745c-0.104-0.151-0.183-0.351-0.411-0.305
		c-0.277,0.056-0.133,0.297-0.161,0.457c-0.021,0.12-0.003,0.246-0.012,0.368c-0.009,0.121-0.083,0.181-0.204,0.173
		c-0.097-0.006-0.147-0.068-0.148-0.159c-0.003-0.657-0.003-1.313-0.004-1.97c0-0.02-0.004-0.047,0.007-0.06
		c0.227-0.274,0.532-0.106,0.799-0.125c0.325-0.022,0.67-0.021,0.84,0.357c0.123,0.274,0.114,0.601-0.126,0.725
		c-0.493,0.255-0.226,0.479-0.061,0.748c0.106,0.172,0.18,0.363,0.269,0.545C40.879,43.216,40.889,43.205,40.889,43.205z
		 M39.888,41.84c0.276,0.005,0.559-0.025,0.572-0.335c0.015-0.36-0.296-0.362-0.567-0.388c-0.292-0.028-0.382,0.084-0.387,0.375
		C39.502,41.807,39.634,41.887,39.888,41.84z"/>
</g>
</svg>
