<?xml version="1.0" encoding="UTF-8"?>
<svg id="Layer_2" data-name="Layer 2" xmlns="http://www.w3.org/2000/svg" viewBox="0 0 222.09 38.18">
  <defs>
    <style>
      .cls-1 {
        fill: #fff;
      }
    </style>
  </defs>
  <g id="Layer_1-2" data-name="Layer 1">
    <g>
      <path class="cls-1" d="M20.71,0c0,2.76,0,5.51-.03,8.27,0,.46,.23,.43,.53,.43,2.52,0,5.05,.01,7.57-.01,.47,0,.61,.11,.61,.6-.02,6.51-.02,13.03,0,19.54,0,.45-.1,.58-.56,.57-2.52-.02-5.05,0-7.57-.02-.44,0-.58,.1-.58,.56,.02,2.52,0,5.05,.03,7.57,0,.53-.15,.63-.65,.63-6.45-.02-12.91-.01-19.37,0-.23,0-.46,.03-.69,.05v-8.79c.23,0,.46-.02,.69-.02,6.44,0,12.88,0,19.32,.01,.51,0,.64-.12,.64-.64-.02-6.44-.02-12.88,0-19.32,0-.57-.16-.69-.71-.69-6.46,.02-12.91,.01-19.37,.02-.19,0-.38,.03-.57,.05C.01,6.01,.02,3.21,0,.41,0,.07,.07,0,.42,0,7.18,.01,13.95,0,20.71,0Z"/>
      <path class="cls-1" d="M222.09,8.8c-.19,.47-.35,.97-.59,1.41-1.17,2.22-3.7,3.28-6.09,2.6-2.43-.69-3.93-2.95-3.74-5.62,.17-2.28,2.1-4.26,4.49-4.61,2.59-.38,5.11,1.32,5.79,3.89,.03,.12,0,.28,.14,.36,0,.65,0,1.31,0,1.97Zm-1-.97c.01-2.43-1.79-4.26-4.18-4.28-2.38-.01-4.28,1.85-4.29,4.2s1.89,4.26,4.24,4.27c2.35,0,4.21-1.84,4.23-4.19Z"/>
      <path class="cls-1" d="M42.44,19.04c0-4.89,0-9.79,0-14.68,0-.47,.11-.62,.6-.61,3.41,.02,6.82,0,10.23,.02,1.81,.02,3.61,.24,5.34,.81,3.63,1.2,5.83,3.75,6.87,7.35,.97,3.36,1.03,6.79,.74,10.25-.14,1.66-.45,3.28-1.01,4.84-1.35,3.76-4.03,6-7.9,6.87-1.3,.29-2.62,.44-3.95,.45-3.45,.02-6.9,0-10.35,.02-.46,0-.58-.12-.58-.58,.02-4.91,.01-9.83,0-14.74Zm5.87,.06c0,3.24,0,6.47,0,9.71,0,.24-.12,.58,.34,.57,2.21-.06,4.43,.15,6.63-.21,3.04-.5,4.86-2.34,4.95-5.25,.09-3.23,.07-6.47,0-9.7-.05-2.23-1.12-3.88-3.23-4.76-.62-.26-1.28-.43-1.94-.53-2.05-.29-4.12-.09-6.17-.16-.46-.02-.58,.13-.58,.58,.02,3.25,.01,6.51,.01,9.76Z"/>
      <path class="cls-1" d="M127.37,30.8c-.28,.08-.32,.27-.4,.41-1.34,2.3-3.34,3.48-5.99,3.64-1.91,.12-3.69-.23-5.23-1.4-4.21-3.22-3.46-9.72,1.35-11.93,1.21-.55,2.48-.8,3.8-.91,1.86-.15,3.72-.32,5.58-.47,.2-.02,.39,0,.39-.29,0-.87,.05-1.74-.22-2.58-.24-.75-.7-1.34-1.44-1.64-1.51-.6-3.02-.56-4.44,.27-.76,.44-1.19,1.15-1.28,2.02-.04,.43-.16,.59-.62,.58-1.52-.03-3.05-.03-4.57,0-.42,0-.53-.13-.49-.53,.28-2.78,1.66-4.83,4.19-5.99,3.05-1.39,6.23-1.53,9.41-.54,3.24,1.01,4.99,3.61,5,7.17,0,3.57,.01,7.13,0,10.7,0,.5,.11,.68,.63,.64,.71-.05,1.43,0,2.14-.02,.29,0,.41,.08,.4,.39-.01,1.21-.01,2.43,0,3.64,0,.27-.09,.37-.37,.37-2.49,0-4.97,0-7.46,0-.37,0-.39-.22-.39-.49,0-1.01,0-2.02,0-3.06Zm-8.46-3.4h-.02c0,.25,0,.5,0,.75,.01,1.06,.4,1.69,1.39,2.01,2.68,.87,5.42,.01,6.34-3.14,.21-.72,.25-1.48,.25-2.23,0-.32-.11-.39-.41-.36-2.13,.2-4.25,.37-6.38,.57-.75,.07-1.13,.49-1.18,1.25-.02,.38,0,.77,0,1.16Z"/>
      <path class="cls-1" d="M84.23,30.8c-.69,1.28-1.57,2.38-2.86,3.1-2.96,1.65-7.66,1.36-9.98-1.83-2.52-3.47-1.72-9.28,3.91-11,1.28-.39,2.61-.44,3.93-.57,1.42-.13,2.84-.25,4.26-.36,.24-.02,.41-.05,.39-.35-.03-.75,.05-1.5-.13-2.24-.27-1.12-.96-1.83-2.05-2.12-1.04-.28-2.1-.26-3.13,.09-1.22,.42-1.97,1.27-2.09,2.57-.04,.4-.21,.41-.51,.41-1.54,0-3.08-.02-4.62,0-.5,.01-.57-.16-.51-.6,.38-3.24,2.2-5.31,5.22-6.34,2.79-.95,5.64-1.01,8.46-.1,3.01,.97,4.86,3.47,4.9,6.64,.04,3.72,.03,7.44,.01,11.16,0,.56,.14,.74,.7,.69,.69-.05,1.39,0,2.08-.02,.31,0,.45,.06,.44,.41-.02,1.19-.02,2.39,0,3.58,0,.35-.14,.41-.45,.41-2.45,0-4.89-.01-7.34,0-.39,0-.44-.16-.43-.48,.01-1.01,0-2.02,0-3.03-.07,0-.13-.02-.2-.03Zm-8.35-3.42s.01,0,.02,0c0,.31,0,.62,0,.92,0,.74,.33,1.28,.97,1.65,1.6,.93,4.11,.63,5.43-.66,1.31-1.27,1.62-2.87,1.58-4.6,0-.35-.23-.29-.43-.27-2.13,.19-4.25,.37-6.38,.57-.65,.06-1.01,.4-1.12,1.06-.07,.43-.05,.88-.08,1.32Z"/>
      <path class="cls-1" d="M203.61,24.66c-2.26,0-4.51,.02-6.76-.01-.53,0-.66,.17-.63,.66,.03,.65,0,1.31,.14,1.95,.53,2.26,2.62,3.37,4.72,3.22,2.31-.17,3.36-1.09,4.01-3.38,.07-.26,.21-.28,.42-.28,1.62,0,3.24,.01,4.86,0,.42,0,.42,.18,.36,.49-.73,3.67-2.86,6.1-6.47,7.09-2.86,.79-5.73,.75-8.43-.66-2.63-1.37-4.14-3.64-4.86-6.44-.97-3.76-.89-7.49,.86-11.04,2.01-4.07,5.96-5.79,10.26-5.32,5.06,.56,8.37,4.54,8.82,9.49,.11,1.23,.03,2.46,.08,3.69,.02,.43-.11,.55-.55,.55-2.27-.02-4.55,0-6.82,0Zm-2.86-4.4c1.31,0,2.62-.02,3.93,.01,.45,.01,.55-.14,.53-.56-.03-.6-.08-1.19-.3-1.75-.77-1.99-2.99-3.1-5.22-2.61-2.25,.49-3.57,2.24-3.45,4.52,.02,.35,.17,.4,.46,.4,1.35,0,2.7,0,4.05,0Z"/>
      <path class="cls-1" d="M140.86,27c.77,0,1.54,0,2.31,0,.31,0,.46,.07,.53,.42,.42,1.95,1.53,2.9,3.53,3.03,1.11,.07,2.2,0,3.2-.54,.77-.42,1.22-1.04,1.22-1.95,0-.9-.45-1.52-1.22-1.94-.96-.53-2.04-.66-3.09-.9-1.37-.32-2.76-.53-4.1-.94-2.35-.73-4.07-2.1-4.54-4.65-.67-3.66,.94-6.6,4.43-7.9,2.96-1.1,5.98-1.09,8.92,.09,2.74,1.1,4.13,3.27,4.47,6.17,.06,.52-.1,.65-.61,.64-1.5-.04-3.01-.02-4.51,0-.35,0-.51-.08-.55-.46-.19-1.51-1.02-2.42-2.51-2.7-1.06-.2-2.12-.13-3.07,.45-.74,.45-1.09,1.11-1.05,1.98,.04,.86,.46,1.45,1.21,1.82,1.07,.52,2.26,.61,3.39,.89,1.36,.34,2.76,.52,4.08,1.02,2.62,.99,4.22,2.79,4.39,5.65,.18,2.91-1.12,5.04-3.66,6.43-1.21,.67-2.53,1.02-3.9,1.18-2.3,.26-4.58,.16-6.77-.65-3.06-1.14-4.62-3.43-4.94-6.64-.03-.34,.04-.49,.42-.47,.81,.03,1.62,0,2.43,0Z"/>
      <path class="cls-1" d="M98.21,25.06c0-2.91,0-5.82,.01-8.73,0-.43-.1-.57-.54-.55-1.12,.03-2.24-.02-3.35,.02-.56,.02-.67-.17-.65-.68,.04-1.04,.03-2.08,0-3.12-.01-.44,.1-.6,.57-.59,1.15,.03,2.31,0,3.47,.02,.42,.01,.51-.13,.51-.53-.02-2.18,0-4.36-.02-6.53,0-.43,.07-.61,.56-.6,1.52,.03,3.04,.03,4.57,0,.45,0,.55,.14,.54,.56-.02,2.18,0,4.36-.02,6.53,0,.42,.1,.57,.54,.56,1.54-.03,3.08,0,4.63-.02,.38,0,.55,.06,.54,.5-.03,1.14-.03,2.27,0,3.41,0,.4-.14,.48-.5,.48-1.56-.02-3.12,0-4.68-.01-.4,0-.52,.11-.52,.52,.01,4.38,.01,8.75,0,13.13,0,.45,.14,.54,.56,.54,1.54-.02,3.08,0,4.63-.02,.4,0,.53,.1,.52,.51-.03,1.16-.02,2.31,0,3.47,0,.32-.08,.43-.42,.43-3.51-.01-7.02-.01-10.52,0-.43,0-.4-.22-.4-.51,0-2.93,0-5.86,0-8.79Z"/>
      <path class="cls-1" d="M176.01,25.11c0-2.89-.02-5.78,.01-8.67,0-.55-.17-.68-.69-.66-1.14,.03-2.27,0-3.41,.02-.39,0-.49-.12-.49-.5,.02-1.12,.03-2.24,0-3.35-.01-.46,.16-.54,.57-.53,1.14,.02,2.27-.02,3.41,.02,.5,.02,.61-.16,.6-.62-.02-2.16,0-4.32-.02-6.48,0-.43,.12-.56,.55-.55,1.52,.02,3.05,.02,4.57,0,.42,0,.51,.14,.51,.53-.02,2.18,0,4.36-.02,6.53,0,.45,.12,.59,.58,.59,1.54-.03,3.08,0,4.63-.02,.36,0,.51,.09,.51,.48-.02,1.14-.02,2.27,0,3.41,0,.39-.13,.49-.5,.49-1.56-.02-3.12,0-4.68-.01-.4,0-.53,.11-.53,.52,.01,4.38,.01,8.75,0,13.13,0,.45,.15,.54,.56,.53,1.54-.02,3.08,0,4.63-.02,.4,0,.54,.1,.53,.51-.03,1.14-.02,2.28,0,3.41,0,.39-.13,.49-.5,.49-3.43-.01-6.86-.01-10.29,0-.46,0-.53-.17-.53-.57,.01-2.89,0-5.78,0-8.67Z"/>
      <path class="cls-1" d="M167.16,22.88c0,3.62,0,7.24,0,10.86,0,.47-.11,.62-.6,.61-1.5-.03-3.01-.02-4.51,0-.4,0-.52-.12-.52-.52,.01-7.3,.01-14.6,0-21.9,0-.4,.11-.53,.52-.52,1.52,.02,3.04,.02,4.57,0,.44,0,.55,.13,.54,.56-.01,3.64,0,7.28,0,10.92Z"/>
      <path class="cls-1" d="M164.37,3.75c.81,0,1.62,.01,2.42,0,.32,0,.48,.05,.48,.43-.02,1.4-.02,2.81,0,4.21,0,.3-.1,.4-.4,.39-1.67-.01-3.35-.01-5.02,0-.31,0-.4-.11-.39-.4,.01-1.4,.01-2.81,0-4.21,0-.33,.11-.43,.43-.43,.83,.02,1.65,0,2.48,0Z"/>
      <path class="cls-1" d="M218.87,10.21c-.79,.26-1.22-.02-1.47-.68-.1-.27-.3-.5-.41-.76-.17-.42-.52-.35-.83-.3-.32,.05-.15,.34-.18,.52-.03,.23-.04,.47,0,.69,.09,.55-.18,.65-.65,.61-.26-.02-.32-.14-.32-.36,0-1.44,0-2.89,0-4.33,0-.3,.14-.35,.39-.35,.65,0,1.31-.01,1.96,0,.76,.02,1.29,.39,1.46,1,.24,.81,.01,1.59-.65,1.97-.33,.19-.27,.33-.12,.58,.28,.45,.53,.92,.81,1.4Zm-2.13-2.57c.9,0,.99-.03,1.12-.39,.26-.74-.06-1.18-.85-1.18-.23,0-.46,0-.69,0-.11,0-.29,0-.3,.11-.03,.44-.11,.9,0,1.31,.09,.32,.51,.07,.73,.15Z"/>
    </g>
  </g>
</svg>