<?xml version="1.0" encoding="utf-8"?>
<!-- Generator: Adobe Illustrator 22.0.1, SVG Export Plug-In . SVG Version: 6.00 Build 0)  -->
<svg version="1.1" id="Layer_1" xmlns="http://www.w3.org/2000/svg" xmlns:xlink="http://www.w3.org/1999/xlink" x="0px" y="0px"
	 viewBox="0 0 225.5 50" style="enable-background:new 0 0 225.5 50;" xml:space="preserve">
<style type="text/css">
	.st0{fill:#1877F2;}
</style>
<title>FBWordmark_Hex-RGB-1024</title>
<path class="st0" d="M18.3,10.7c-2.6,0-3.3,1.1-3.3,3.7v4.2h6.9l-0.7,6.8H15v20.6H6.7V25.4H1.1v-6.8h5.6v-4.1
	c0-6.8,2.8-10.4,10.4-10.4c1.6,0,3.2,0.1,4.8,0.3v6.4L18.3,10.7z"/>
<path class="st0" d="M22.4,31.4C22.4,23.7,26,18,33.6,18c4.1,0,6.7,2.1,7.9,4.8v-4.2h7.9v27.3h-7.9v-4.1c-1.1,2.6-3.7,4.7-7.9,4.7
	c-7.6,0-11.2-5.7-11.2-13.4V31.4z M30.7,33.2c0,4.1,1.5,6.8,5.3,6.8c3.4,0,5.1-2.5,5.1-6.4v-2.7c0-3.9-1.7-6.4-5.1-6.4
	c-3.8,0-5.3,2.7-5.3,6.8V33.2z"/>
<path class="st0" d="M66.6,18c3.2,0,6.3,0.7,7.9,1.8l-1.8,5.9c-1.7-0.8-3.6-1.3-5.5-1.3c-4.5,0-6.4,2.6-6.4,7V33c0,4.4,2,7,6.4,7
	c1.9,0,3.8-0.4,5.5-1.3l1.8,5.9c-1.7,1.1-4.7,1.8-7.9,1.8c-9.7,0-14.1-5.2-14.1-13.6v-1.3C52.5,23.2,56.9,18,66.6,18z"/>
<path class="st0" d="M75.6,33.3v-2.4C75.6,23.1,80,18,89.1,18c8.5,0,12.2,5.2,12.2,12.7v4.4H83.9c0.2,3.7,1.8,5.4,6.4,5.4
	c3.1,0,6.4-0.6,8.8-1.7l1.5,5.7c-2.2,1.2-6.7,2-10.6,2C79.5,46.5,75.6,41.3,75.6,33.3z M83.9,29.7h10V29c0-3-1.2-5.4-4.8-5.4
	C85.3,23.7,83.9,26,83.9,29.7L83.9,29.7z"/>
<path class="st0" d="M131.9,33.1c0,7.6-3.7,13.4-11.2,13.4c-4.1,0-7-2.1-8.2-4.7v4.1h-7.8V4.9l8.3-0.7v18.3c1.2-2.4,3.8-4.4,7.7-4.4
	c7.6,0,11.2,5.7,11.2,13.4L131.9,33.1z M123.7,31.2c0-3.8-1.5-6.7-5.5-6.7c-3.4,0-5.2,2.4-5.2,6.3v2.9c0,3.9,1.8,6.3,5.2,6.3
	c4,0,5.5-2.9,5.5-6.7V31.2z"/>
<path class="st0" d="M134.7,32.9v-1.4c0-7.9,4.5-13.6,13.6-13.6s13.6,5.7,13.6,13.6v1.4c0,7.9-4.5,13.6-13.6,13.6
	C139.2,46.5,134.7,40.8,134.7,32.9z M153.6,31c0-3.6-1.5-6.5-5.4-6.5S143,27.4,143,31v2.5c0,3.6,1.5,6.5,5.3,6.5s5.4-2.9,5.4-6.5V31
	z"/>
<path class="st0" d="M164.7,32.9v-1.4c0-7.9,4.5-13.6,13.6-13.6c9.1,0,13.6,5.7,13.6,13.6v1.4c0,7.9-4.5,13.6-13.6,13.6
	C169.1,46.5,164.7,40.8,164.7,32.9z M183.6,31c0-3.6-1.5-6.5-5.3-6.5s-5.3,2.9-5.3,6.5v2.5c0,3.6,1.5,6.5,5.3,6.5s5.3-2.9,5.3-6.5
	V31z"/>
<path class="st0" d="M203.2,31.6l8.2-13h8.8l-8.6,13.5l8.9,13.8h-8.8l-8.5-13.4v13.4H195v-41l8.3-0.7V31.6z"/>
</svg>
