<?xml version="1.0" encoding="utf-8"?>
<!-- Generator: Adobe Illustrator 22.0.1, SVG Export Plug-In . SVG Version: 6.00 Build 0)  -->
<svg version="1.1" id="Layer_1" xmlns="http://www.w3.org/2000/svg" xmlns:xlink="http://www.w3.org/1999/xlink" x="0px" y="0px"
	 viewBox="0 0 246.123 50" enable-background="new 0 0 246.123 50" xml:space="preserve">
<g>
	<path fill="#02D94F" d="M0.672,20.51c0.296-0.764,0.277-1.59,0.474-2.375c0.993-3.966,3.264-6.907,7.189-8.18
		c4.009-1.3,7.815-0.603,11.224,1.97c0.341,0.258,0.335,0.416,0.057,0.722c-0.675,0.743-1.329,1.509-1.952,2.297
		c-0.291,0.368-0.48,0.425-0.882,0.115c-1.523-1.176-3.267-1.688-5.192-1.583c-2.225,0.121-3.778,1.317-4.529,3.526
		c-0.724,2.127-0.732,4.337-0.697,6.544c0.018,1.142,0.13,2.28,0.408,3.394c0.763,3.057,2.716,4.479,5.862,4.272
		c0.137-0.009,0.274-0.027,0.411-0.039c1.737-0.155,1.882-0.312,1.882-2.039c0-1.203-0.023-2.406,0.012-3.608
		c0.013-0.46-0.14-0.561-0.567-0.546c-0.926,0.031-1.853-0.002-2.78,0.016c-0.328,0.006-0.481-0.059-0.53-0.434
		c-0.146-1.112-0.338-2.218-0.531-3.323c-0.049-0.281-0.002-0.379,0.306-0.378c2.997,0.009,5.994,0.009,8.99,0
		c0.296-0.001,0.359,0.113,0.359,0.382c-0.007,3.746-0.01,7.492,0.004,11.238c0.001,0.337-0.2,0.435-0.421,0.558
		c-2.484,1.377-5.165,2.011-7.987,1.999c-2.133-0.009-4.204-0.381-6.021-1.594c-2.594-1.732-4.055-4.219-4.734-7.22
		c-0.136-0.6-0.087-1.235-0.354-1.808C0.672,23.114,0.672,21.812,0.672,20.51z"/>
	<path fill="#3B85FA" d="M244,33.884c-1.049-0.045-1.048-0.045-1.049-1.133c-0.001-0.73-0.003-1.459-0.006-2.189
		c0-0.038-0.016-0.076-0.057-0.256c-0.274,1.061-0.534,1.994-0.75,2.937c-0.092,0.403-0.18,0.648-0.697,0.649
		c-0.502,0.001-0.567-0.254-0.654-0.622c-0.225-0.951-0.478-1.895-0.828-2.83c0,0.97-0.02,1.941,0.009,2.911
		c0.013,0.422-0.127,0.538-0.535,0.53c-0.368-0.007-0.522-0.081-0.515-0.49c0.023-1.42,0.019-2.84,0.002-4.26
		c-0.004-0.352,0.089-0.476,0.46-0.48c1.145-0.014,1.145-0.031,1.439,1.053c0.2,0.74,0.399,1.48,0.64,2.377
		c0.276-1.018,0.557-1.883,0.732-2.769c0.107-0.542,0.337-0.727,0.863-0.658c0.311,0.041,0.63,0.018,0.945,0.024
		C244,30.412,244,32.148,244,33.884z"/>
	<path fill="#02D94F" d="M98.183,22.715c-0.312,1.375-0.605,2.754-0.94,4.123c-0.608,2.485-1.252,4.96-1.85,7.447
		c-0.091,0.376-0.245,0.46-0.596,0.455c-1.203-0.018-2.406-0.023-3.609,0.003c-0.35,0.008-0.476-0.122-0.562-0.433
		c-1.583-5.706-3.17-11.411-4.776-17.11c-0.116-0.413-0.016-0.49,0.363-0.527c1.274-0.125,2.546-0.271,3.817-0.431
		c0.381-0.048,0.535,0.036,0.623,0.452c0.823,3.928,1.757,7.834,2.388,11.961c0.277-1.401,0.494-2.659,0.779-3.901
		c0.619-2.705,1.467-5.349,2.192-8.026c0.068-0.25,0.174-0.349,0.443-0.346c1.282,0.013,2.564,0.02,3.845-0.004
		c0.329-0.006,0.4,0.161,0.457,0.403c0.82,3.465,1.761,6.902,2.412,10.407c0.082,0.443,0.179,0.883,0.295,1.451
		c0.269-1.598,0.482-3.075,0.773-4.537c0.489-2.451,1.029-4.892,1.546-7.338c0.048-0.229,0.115-0.386,0.411-0.383
		c1.537,0.014,3.074,0.007,4.664,0.007c-0.489,1.725-0.963,3.407-1.444,5.087c-1.213,4.235-2.438,8.467-3.632,12.708
		c-0.127,0.451-0.314,0.575-0.764,0.561c-1.123-0.034-2.248-0.025-3.372-0.003c-0.35,0.007-0.519-0.084-0.609-0.442
		c-0.859-3.415-1.822-6.804-2.544-10.254c-0.093-0.442-0.154-0.891-0.23-1.336C98.238,22.71,98.21,22.712,98.183,22.715z"/>
	<path fill="#3B85FA" d="M150.401,22.64c0-3.628,0.009-7.256-0.011-10.884c-0.003-0.488,0.124-0.639,0.619-0.624
		c1.162,0.035,2.327,0.029,3.489,0.002c0.416-0.01,0.532,0.114,0.529,0.529c-0.018,2.603,0.007,5.205-0.022,7.808
		c-0.006,0.536,0.156,0.66,0.666,0.652c1.814-0.029,3.628-0.024,5.442-0.002c0.418,0.005,0.528-0.122,0.525-0.532
		c-0.017-2.622,0.003-5.245-0.02-7.867c-0.004-0.465,0.117-0.602,0.586-0.588c1.182,0.034,2.367,0.036,3.548-0.001
		c0.487-0.015,0.625,0.114,0.622,0.612c-0.02,4.614-0.012,9.228-0.012,13.842c0,2.682-0.009,5.363,0.009,8.045
		c0.003,0.439-0.076,0.621-0.572,0.605c-1.202-0.039-2.406-0.039-3.607,0c-0.493,0.016-0.575-0.163-0.573-0.604
		c0.017-3.036,0-6.073,0.019-9.109c0.003-0.453-0.101-0.599-0.578-0.592c-1.833,0.03-3.667,0.028-5.501,0.001
		c-0.455-0.007-0.554,0.134-0.551,0.566c0.018,3.036-0.001,6.073,0.02,9.109c0.003,0.482-0.112,0.645-0.615,0.628
		c-1.142-0.038-2.287-0.034-3.43-0.001c-0.468,0.014-0.595-0.122-0.593-0.591C150.41,29.975,150.401,26.307,150.401,22.64z"/>
	<path fill="#02D94F" d="M130.087,39.559c2.786-0.497,4.553-2.094,5.336-4.766c-0.027-0.017-0.055-0.05-0.083-0.051
		c-1.055-0.036-1.071-0.031-1.4-1.009c-1.863-5.535-3.714-11.075-5.583-16.608c-0.131-0.389-0.083-0.493,0.341-0.533
		c1.274-0.12,2.545-0.277,3.813-0.453c0.485-0.067,0.708,0.045,0.853,0.558c1.248,4.429,2.736,8.789,3.813,13.268
		c0.027,0.112,0.078,0.217,0.144,0.401c0.812-4.692,2.562-9.03,3.867-13.496c0.113-0.386,0.272-0.52,0.689-0.512
		c1.495,0.031,2.991,0.012,4.476,0.012c0.066,0.204-0.021,0.344-0.073,0.49c-2.297,6.403-4.589,12.809-6.896,19.208
		c-0.508,1.409-1.08,2.798-2.04,3.973c-1.364,1.671-3.253,2.341-5.291,2.711c-0.206,0.037-0.316-0.038-0.413-0.228
		C131.146,41.56,130.637,40.607,130.087,39.559z"/>
	<path fill="#02D94F" d="M126.012,25.242c0.011,1.536-0.112,3.071-0.032,4.608c0.053,1.028,0.439,1.882,1.263,2.492
		c0.42,0.311,0.355,0.508,0.038,0.847c-0.646,0.69-1.26,1.411-1.855,2.146c-0.249,0.308-0.451,0.33-0.784,0.14
		c-0.71-0.405-1.381-0.858-1.834-1.546c-0.238-0.362-0.368-0.451-0.703-0.09c-2.09,2.248-6.876,1.891-8.786,0.356
		c-1.703-1.368-2.087-3.229-1.903-5.254c0.259-2.849,1.906-4.553,4.939-5.228c1.451-0.323,2.922-0.429,4.403-0.355
		c0.415,0.021,0.56-0.088,0.521-0.511c-0.045-0.488,0.014-0.981-0.091-1.471c-0.21-0.981-0.641-1.375-1.648-1.448
		c-1.11-0.08-2.146,0.215-3.149,0.647c-0.779,0.335-1.525,0.737-2.222,1.219c-0.248,0.171-0.385,0.175-0.548-0.109
		c-0.548-0.956-1.117-1.9-1.685-2.844c-0.114-0.189-0.184-0.327,0.069-0.473c3.198-1.855,6.542-3.038,10.299-2.116
		c2.386,0.586,3.627,2.149,3.702,4.615C126.048,22.324,126.012,23.783,126.012,25.242z M121.152,28.69c0.016,0,0.033,0,0.049,0
		c0-0.511-0.02-1.023,0.007-1.533c0.019-0.351-0.075-0.513-0.453-0.476c-0.684,0.065-1.373,0.059-2.052,0.195
		c-1.62,0.323-2.27,1.165-2.163,2.827c0.105,1.636,1.437,2.538,2.985,2.019c0.356-0.12,0.67-0.319,0.984-0.526
		c0.462-0.305,0.729-0.673,0.653-1.267C121.11,29.522,121.152,29.103,121.152,28.69z"/>
	<path fill="#3B85FA" d="M222.833,18.448c1.513-1.163,3.121-1.724,4.916-1.704c0.814,0.009,1.603,0.175,2.35,0.507
		c1.802,0.8,2.263,2.385,2.286,4.133c0.047,3.548,0.016,7.097,0.016,10.645c0,0.572-0.025,1.145,0.009,1.715
		c0.024,0.406-0.135,0.494-0.507,0.486c-1.104-0.021-2.208-0.028-3.312,0.003c-0.444,0.013-0.566-0.116-0.562-0.561
		c0.021-2.523,0.012-5.047,0.009-7.57c-0.001-1.222,0.002-2.444-0.019-3.666c-0.027-1.574-0.802-2.209-2.324-1.889
		c-0.959,0.202-1.803,0.661-2.584,1.251c-0.286,0.216-0.281,0.486-0.281,0.786c0.003,3.647-0.012,7.294,0.016,10.941
		c0.004,0.573-0.141,0.738-0.714,0.712c-1.062-0.049-2.13-0.045-3.193-0.001c-0.527,0.022-0.653-0.133-0.652-0.653
		c0.019-6.387,0.01-12.775,0.014-19.162c0.001-1.125-0.063-2.246-0.261-3.352c-0.058-0.322,0.028-0.421,0.303-0.484
		c1.285-0.292,2.572-0.578,3.851-0.895c0.31-0.077,0.36,0.019,0.402,0.291c0.215,1.368,0.232,2.746,0.234,4.125
		C222.835,15.517,222.833,16.928,222.833,18.448z"/>
	<path fill="#02D94F" d="M43.578,27.119c-1.597,0-3.195,0.013-4.792-0.009c-0.423-0.006-0.513,0.118-0.494,0.536
		c0.129,2.81,1.868,4.318,4.63,3.969c1.072-0.136,2.047-0.537,2.963-1.107c0.323-0.201,0.609-0.681,0.956-0.561
		c0.282,0.097,0.435,0.575,0.639,0.888c0.345,0.528,0.676,1.064,1.031,1.585c0.133,0.195,0.162,0.324-0.043,0.493
		c-3.511,2.895-8.755,3.153-11.989,0.742c-1.425-1.062-2.373-2.478-2.876-4.159c-0.823-2.753-0.814-5.537,0.102-8.258
		c1.638-4.867,7.472-6.873,11.8-4.091c1.851,1.19,2.674,3.04,3.093,5.11c0.295,1.456,0.313,2.934,0.317,4.414
		c0.001,0.377-0.133,0.459-0.483,0.455C46.813,27.11,45.195,27.119,43.578,27.119z M41.148,23.567c0.374,0,0.749,0,1.123,0
		c1.876,0,1.876,0,1.48-1.888c-0.25-1.194-1.052-2.009-2.084-2.12c-1.414-0.151-2.352,0.375-2.903,1.612
		c-0.278,0.624-0.351,1.285-0.403,1.954c-0.025,0.318,0.068,0.46,0.422,0.449C39.571,23.551,40.36,23.567,41.148,23.567z"/>
	<path fill="#02D94F" d="M61.504,27.119c-1.578,0-3.156,0.018-4.733-0.011c-0.469-0.009-0.57,0.143-0.516,0.575
		c0.056,0.45,0.092,0.902,0.218,1.339c0.573,1.983,2.302,2.953,4.56,2.574c1.251-0.21,2.376-0.707,3.36-1.499
		c0.317-0.255,0.457-0.206,0.654,0.118c0.451,0.74,0.93,1.462,1.412,2.183c0.141,0.211,0.181,0.349-0.051,0.536
		c-3.311,2.665-7.838,3.022-10.991,1.335c-2.401-1.285-3.667-3.4-4.173-5.993c-0.44-2.255-0.393-4.526,0.313-6.722
		c2.013-6.257,8.333-6.55,11.873-4.421c1.728,1.039,2.551,2.742,3.018,4.629c0.406,1.64,0.419,3.317,0.41,4.996
		c-0.002,0.417-0.246,0.363-0.502,0.363C64.738,27.118,63.121,27.119,61.504,27.119z M59.034,23.567c0.393,0,0.787,0.015,1.18-0.004
		c0.524-0.025,1.268,0.242,1.52-0.106c0.347-0.479,0.061-1.208-0.035-1.825c-0.003-0.019-0.013-0.037-0.018-0.056
		c-0.313-1.211-1.107-1.955-2.16-2.026c-1.408-0.094-2.352,0.466-2.841,1.707c-0.24,0.608-0.322,1.249-0.373,1.899
		c-0.028,0.361,0.109,0.425,0.427,0.417C57.5,23.555,58.268,23.567,59.034,23.567z"/>
	<path fill="#02D94F" d="M73.826,18.066c0.703-0.433,1.331-0.873,2.005-1.226c1.342-0.703,2.779-1.006,4.287-0.747
		c2.486,0.428,3.765,1.867,3.849,4.4c0.061,1.832,0.022,3.667,0.023,5.5c0.002,2.741-0.008,5.481,0.01,8.222
		c0.003,0.407-0.09,0.538-0.515,0.527c-1.202-0.03-2.406-0.036-3.608,0.001c-0.502,0.016-0.66-0.092-0.656-0.634
		c0.028-3.726,0.018-7.453,0.011-11.179c-0.001-0.491-0.037-0.985-0.096-1.473c-0.118-0.982-0.611-1.411-1.581-1.351
		c-1.246,0.077-2.207,0.768-3.126,1.528c-0.201,0.166-0.121,0.403-0.121,0.611c-0.004,3.963-0.013,7.926,0.009,11.889
		c0.003,0.5-0.133,0.623-0.619,0.609c-1.221-0.037-2.445-0.033-3.667-0.001c-0.46,0.012-0.593-0.11-0.591-0.583
		c0.019-4.259,0.007-8.518,0.014-12.777c0.002-1.328-0.129-2.639-0.528-3.907c-0.113-0.359,0.002-0.434,0.299-0.515
		c1.158-0.316,2.317-0.629,3.461-0.991c0.391-0.124,0.526,0.014,0.663,0.328C73.589,16.843,73.746,17.407,73.826,18.066z"/>
	<path fill="#3B85FA" d="M190.886,16.836c1.374,0.005,2.56,0.167,3.652,0.735c1.393,0.724,2.115,1.899,2.241,3.452
		c0.142,1.752-0.039,3.504-0.014,5.257c0.015,1.005-0.015,2.011-0.033,3.016c-0.021,1.113,0.335,2.063,1.243,2.739
		c0.343,0.255,0.276,0.411,0.033,0.676c-0.573,0.625-1.144,1.254-1.663,1.923c-0.317,0.409-0.598,0.392-0.992,0.151
		c-0.614-0.375-1.168-0.812-1.576-1.406c-0.165-0.241-0.254-0.317-0.516-0.086c-2.005,1.765-5.348,2.074-7.676,0.734
		c-1.353-0.779-2.054-1.988-2.236-3.498c-0.254-2.105,0.092-4.03,1.919-5.393c1.07-0.798,2.334-1.11,3.631-1.31
		c1.019-0.157,2.044-0.147,3.069-0.131c0.313,0.005,0.479-0.054,0.451-0.415c-0.036-0.47,0.015-0.945-0.087-1.413
		c-0.203-0.931-0.57-1.271-1.529-1.339c-1.327-0.093-2.517,0.373-3.666,0.963c-0.455,0.234-0.89,0.507-1.321,0.784
		c-0.218,0.14-0.329,0.111-0.459-0.114c-0.513-0.887-1.039-1.766-1.57-2.642c-0.13-0.215-0.099-0.327,0.122-0.459
		C185.575,18.066,188.488,16.756,190.886,16.836z M191.465,26.783c-0.001-0.007-0.002-0.015-0.003-0.022
		c-0.468,0.054-0.94,0.083-1.402,0.165c-1.575,0.281-2.307,1.4-1.958,2.96c0.208,0.928,0.772,1.518,1.562,1.633
		c0.846,0.122,2.211-0.448,2.554-1.074c0.044-0.08,0.059-0.185,0.061-0.278c0.028-1.001,0.043-2.002,0.08-3.002
		c0.012-0.327-0.134-0.411-0.423-0.384C191.78,26.795,191.622,26.783,191.465,26.783z"/>
	<path fill="#3B85FA" d="M177.718,27.121c-1.459,0-2.918,0.013-4.376-0.008c-0.39-0.006-0.498,0.114-0.494,0.5
		c0.027,2.827,2.224,4.324,5.142,3.486c0.862-0.247,1.655-0.64,2.348-1.206c0.279-0.228,0.423-0.249,0.623,0.088
		c0.402,0.677,0.845,1.329,1.278,1.987c0.131,0.199,0.202,0.348-0.04,0.543c-2.82,2.28-6.783,2.781-9.788,1.391
		c-1.75-0.81-2.982-2.142-3.652-3.923c-1.119-2.977-1.115-6.007,0.116-8.934c1.767-4.2,7.503-5.608,11.085-2.784
		c1.384,1.091,2.03,2.625,2.375,4.306c0.275,1.338,0.31,2.695,0.319,4.056c0.003,0.375-0.101,0.515-0.503,0.509
		C180.676,27.107,179.197,27.121,177.718,27.121z M175.442,23.824c0.452,0,0.904,0,1.357,0c1.301,0,1.301,0,1.154-1.306
		c-0.152-1.357-0.952-2.279-2.059-2.37c-1.468-0.121-2.412,0.558-2.792,2.036c-0.102,0.397-0.138,0.811-0.209,1.217
		c-0.061,0.349,0.098,0.438,0.425,0.429C174.026,23.81,174.734,23.824,175.442,23.824z"/>
	<path fill="#3B85FA" d="M208.332,25.867c0-1.676-0.012-3.352,0.008-5.028c0.005-0.415-0.068-0.588-0.541-0.578
		c-1.181,0.025-1.181-0.001-1.181-1.203c0-0.118-0.002-0.237,0-0.355c0.011-0.471-0.141-1.05,0.08-1.383
		c0.226-0.341,0.841-0.106,1.284-0.114c0.367-0.007,0.347-0.214,0.353-0.462c0.023-1.024,0.005-2.048,0.098-3.071
		c0.035-0.387,0.208-0.527,0.558-0.609c1.15-0.268,2.303-0.529,3.434-0.863c0.589-0.174,0.612,0.049,0.556,0.513
		c-0.153,1.272-0.177,2.553-0.234,3.831c-0.021,0.488,0.064,0.698,0.626,0.665c0.963-0.056,1.932-0.008,2.898-0.019
		c0.321-0.004,0.488,0.028,0.329,0.42c-0.31,0.766-0.594,1.543-0.857,2.326c-0.097,0.288-0.259,0.344-0.525,0.339
		c-0.69-0.013-1.381,0.011-2.07-0.011c-0.318-0.01-0.398,0.105-0.397,0.408c0.015,2.918,0.016,5.836,0.024,8.754
		c0.001,0.176,0.024,0.354,0.055,0.528c0.217,1.23,0.893,1.713,2.134,1.513c0.33-0.053,0.661-0.122,0.976-0.228
		c0.249-0.083,0.344-0.049,0.396,0.223c0.128,0.676,0.289,1.346,0.437,2.019c0.046,0.211,0.027,0.378-0.22,0.466
		c-2.045,0.733-4.095,1.003-6.143,0.028c-1.34-0.638-2.014-1.737-2.042-3.202c-0.031-1.636-0.007-3.272-0.007-4.909
		C208.351,25.867,208.341,25.867,208.332,25.867z"/>
	<path fill="#3B85FA" d="M204.042,20.187c0,2.819-0.004,5.639,0.003,8.458c0.001,0.551,0.032,1.102,0.076,1.652
		c0.068,0.846,0.443,1.211,1.278,1.207c0.273-0.001,0.388,0.081,0.454,0.326c0.179,0.665,0.358,1.331,0.564,1.987
		c0.08,0.254,0.014,0.356-0.226,0.426c-1.41,0.412-2.825,0.547-4.233,0.02c-1.702-0.637-2.339-2.001-2.441-3.698
		c-0.037-0.609-0.034-1.221-0.035-1.832c-0.011-5.086-0.013-10.172-0.036-15.258c-0.003-0.766-0.09-1.532-0.169-2.295
		c-0.037-0.351,0.032-0.532,0.415-0.612c1.194-0.248,2.383-0.521,3.568-0.809c0.465-0.113,0.595,0.027,0.648,0.499
		c0.121,1.082,0.114,2.165,0.125,3.247C204.058,15.732,204.042,17.959,204.042,20.187z"/>
	<path fill="#02D94F" d="M27.464,18.457c0.62-0.726,1.211-1.294,1.881-1.775c1.178-0.847,2.45-0.99,3.814-0.557
		c0.305,0.097,0.438,0.201,0.311,0.572c-0.393,1.153-0.74,2.322-1.097,3.487c-0.083,0.271-0.165,0.351-0.486,0.233
		c-1.37-0.503-2.932,0.004-3.865,1.183c-0.173,0.219-0.127,0.445-0.128,0.672c-0.004,3.961-0.01,7.922,0.007,11.883
		c0.002,0.45-0.094,0.603-0.573,0.589c-1.24-0.037-2.483-0.033-3.724-0.002c-0.444,0.011-0.56-0.111-0.558-0.556
		c0.018-3.941,0.014-7.883,0.009-11.824c-0.002-1.677-0.089-3.347-0.576-4.967c-0.084-0.28-0.008-0.378,0.267-0.448
		c1.22-0.309,2.437-0.627,3.647-0.971c0.281-0.08,0.382,0.004,0.491,0.233C27.203,16.874,27.391,17.571,27.464,18.457z"/>
	<path fill="#3B85FA" d="M235.698,31.685c0-0.551-0.027-1.104,0.009-1.653c0.028-0.432-0.142-0.561-0.541-0.514
		c-0.194,0.023-0.395-0.014-0.59,0.008c-0.353,0.039-0.421-0.128-0.427-0.446c-0.006-0.346,0.125-0.432,0.448-0.427
		c1.102,0.016,2.205,0.019,3.307-0.001c0.351-0.006,0.421,0.127,0.425,0.446c0.005,0.339-0.109,0.427-0.439,0.433
		c-1.11,0.02-1.11,0.033-1.11,1.157c0,0.925-0.02,1.851,0.009,2.775c0.014,0.436-0.229,0.416-0.521,0.406
		c-0.287-0.01-0.605,0.079-0.578-0.412C235.723,32.868,235.698,32.276,235.698,31.685z"/>
</g>
</svg>
