<?xml version="1.0" encoding="UTF-8"?>
<svg id="Layer_2" data-name="Layer 2" xmlns="http://www.w3.org/2000/svg" viewBox="0 0 158.4 38.9">
  <defs>
    <style>
      .cls-1 {
        fill: #fff;
      }

      .cls-2 {
        fill: #8d248a;
      }

      .cls-3 {
        fill: none;
      }
    </style>
  </defs>
  <g id="Layer_1-2" data-name="Layer 1">
    <rect class="cls-3" width="158.4" height="38.9"/>
    <path class="cls-1" d="M51.3,9.3l6.2-1.4v30h-6.2V9.3Zm28.7,25.2c-2,2.5-5.2,3.9-8.4,3.9-6.2,0-11.1-4.1-11.1-10.5s4.9-10.4,11.1-10.4c5.8,0,9.4,4.1,9.4,10.5v1.9h-14.3c.5,2.3,2.3,3.9,4.6,3.9,2,0,3.4-1,4.4-2.4l4.3,3.1Zm-5.2-8.8c.1-2.1-1.6-3.8-3.8-3.8-2.7,0-4.2,1.8-4.3,3.8h8.1Zm40.4,12.2h-5.7v-2.6h-.1c-1,1.4-3.3,3.1-6.1,3.1-5.9,0-9.8-4.3-9.8-10.3,0-5.5,3.4-10.6,9.1-10.6,2.5,0,4.9,.7,6.3,2.6h.1V9.3l6.2-1.4v30h0Zm-10.7-15c-3.1,0-4.9,2.1-4.9,5.1s1.8,5.1,4.9,5.1,4.9-2.1,4.9-5.1-1.8-5.1-4.9-5.1m24.3-5.4c6.2,0,11.1,4.1,11.1,10.5s-4.9,10.5-11.1,10.5-11.1-4.1-11.1-10.5c0-6.4,5-10.5,11.1-10.5m0,15.5c3.1,0,4.9-2.1,4.9-5.1s-1.9-5.1-4.9-5.1-4.9,2.1-4.9,5.1,1.8,5.1,4.9,5.1m25-9.2c-.9-1.1-2.1-1.7-3.6-1.7-1,0-2.3,.5-2.3,1.7,0,3,10.4,.5,10.4,8.1,0,5.1-4.9,6.6-9.2,6.6-2.8,0-5.9-.7-7.8-2.7l3.7-4.2c1.1,1.4,2.5,2.2,4.3,2.2,1.4,0,2.8-.4,2.8-1.4,0-3.2-10.4-.5-10.4-8.1,0-4.7,4.2-6.7,8.4-6.7,2.6,0,5.5,.7,7.4,2.6l-3.7,3.6Zm-69.5-5.8h6.2v20h-6.2V18Zm6.2-8.6h-6.2v5.1h6.2v-5.1Z"/>
    <rect class="cls-3" width="158.4" height="38.9"/>
    <path class="cls-1" d="M21,22.8l-6.7-5,31.7-9.4-25,14.4ZM0,7.2l6.5,4.8,1.7-4.6-8.2-.2Z"/>
    <rect class="cls-3" width="158.4" height="38.9"/>
    <path class="cls-1" d="M10.8,0l-2.7,7.4,37.9,1L10.8,0ZM3.2,21.1l11.1-3.3-7.8-5.8-3.3,9.1Z"/>
    <rect class="cls-3" width="158.4" height="38.9"/>
    <polygon class="cls-2" points="8.1 7.4 6.5 12 14.3 17.8 46 8.4 8.1 7.4"/>
  </g>
</svg>