<?xml version="1.0" encoding="UTF-8"?>
<svg id="Layer_2" data-name="Layer 2" xmlns="http://www.w3.org/2000/svg" viewBox="0 0 118.93 40.94">
  <defs>
    <style>
      .cls-1 {
        fill: #fff;
      }
    </style>
  </defs>
  <g id="Layer_1-2" data-name="Layer 1">
    <path class="cls-1" d="M105.62,28.13c.65-1.61,1.28-3.16,1.91-4.7,.47-1.15,.93-2.3,1.41-3.45,.1-.24,.09-.42-.02-.66-1.23-2.73-2.44-5.46-3.64-8.19-.15-.34-.32-.49-.71-.47-.87,.04-1.74,.03-2.6,0-.42-.02-.55,.09-.55,.53,.02,3.18,0,6.36,.02,9.54,0,.49-.13,.59-.6,.58-1.12-.04-2.24-.03-3.36,0-.39,.01-.47-.11-.47-.48,.02-3.2,0-6.4,.02-9.6,0-.44-.09-.61-.55-.57-.56,.04-1.12,0-1.68,.02-.27,0-.34-.09-.34-.34,.01-.87,.02-1.74,0-2.6,0-.31,.12-.36,.38-.35,.58,.02,1.16-.02,1.74,.01,.36,.02,.46-.1,.45-.45-.02-1.36,0-2.71-.02-4.07,0-.36,.06-.5,.46-.49,1.14,.02,2.28,0,3.41-.04,.45-.02,.53,.14,.52,.55-.02,1.32,0,2.64-.02,3.96,0,.41,.09,.55,.53,.55,2.01-.03,4.01,0,6.02-.02,.42,0,.59,.14,.73,.52,.86,2.2,1.74,4.38,2.63,6.61,.25-.36,.35-.74,.49-1.1,.74-1.86,1.48-3.71,2.2-5.58,.13-.34,.31-.45,.67-.44,1.39,.03,2.78,.01,4.25,.01-.26,.65-.5,1.24-.74,1.84-2.55,6.15-5.11,12.3-7.66,18.46-.15,.35-.31,.48-.7,.47-1.37-.03-2.75,0-4.21,0Z"/>
    <path class="cls-1" d="M15.35,12.42c-.65-3.53-4.25-5.93-7.76-5.28-1.21,.22-2.21,.81-3.16,1.75,0-.48-.02-.82,0-1.16,.02-.28-.07-.37-.36-.37-1.23,.02-2.46,.02-3.69,0-.33,0-.38,.13-.38,.41,0,6.65,0,13.3,0,19.95,0,.36,.13,.41,.44,.41,1.19-.02,2.39-.02,3.58,0,.35,0,.41-.11,.41-.43-.01-2.46,0-4.92,0-7.37v-.58c.38,.3,.69,.58,1.03,.8,2.27,1.53,5.57,1.19,7.76-.8,2.21-2,2.65-4.56,2.14-7.34Zm-7.47,5c-1.75,.01-3.15-1.4-3.14-3.17,0-1.73,1.41-3.13,3.14-3.12,1.72,0,3.15,1.43,3.15,3.13,0,1.68-1.46,3.15-3.15,3.16Z"/>
    <path class="cls-1" d="M32.18,13.58c0-1.93,0-3.87,0-5.8,0-.34-.09-.42-.42-.42-1.21,.02-2.42,.02-3.63,0-.3,0-.37,.1-.36,.38,.02,.34,0,.69,0,1.1-.39-.32-.66-.58-.97-.79-2.49-1.7-6.08-1.19-8.26,1.18-1.86,2.02-2.19,4.44-1.66,6.98,.52,2.48,2.09,4.16,4.49,4.98,2.35,.79,4.47,.37,6.39-1.48,0,.44,.03,.78,0,1.11-.05,.43,.13,.5,.52,.5,1.12-.03,2.24-.03,3.36,0,.41,.01,.54-.07,.54-.52-.02-2.4-.01-4.81-.01-7.21Zm-7.71,3.85c-1.75-.02-3.13-1.41-3.12-3.14,0-1.74,1.41-3.13,3.15-3.12,1.72,0,3.12,1.43,3.11,3.16-.01,1.66-1.48,3.12-3.13,3.1Z"/>
    <path class="cls-1" d="M33.48,7.37c1.56,0,3.06,.02,4.56-.01,.4,0,.42,.27,.52,.5,.84,2.09,1.67,4.18,2.5,6.27,.04,.1,.08,.2,.17,.38,.18-.44,.34-.81,.49-1.18,.73-1.84,1.47-3.68,2.18-5.53,.13-.34,.29-.46,.66-.46,1.39,.03,2.78,.01,4.16,.01,.13,.15,.01,.26-.03,.36-2.76,6.67-5.53,13.34-8.29,20.01-.08,.19-.11,.4-.42,.4-1.46-.02-2.93,0-4.46,0,.48-1.18,.93-2.31,1.39-3.44,.62-1.52,1.23-3.04,1.86-4.55,.14-.34,.14-.62-.01-.96-1.71-3.81-3.41-7.63-5.11-11.44-.04-.1-.08-.2-.15-.37Z"/>
    <path class="cls-1" d="M69.32,9.35c-1.62-1.8-3.72-2.41-6.1-2.35-4.48,.11-7.91,4.47-6.87,8.83,.84,3.52,3.69,5.72,7.41,5.74,.27-.02,.54-.02,.81-.05,2.98-.32,5.11-1.85,6.2-4.62,1.09-2.76,.53-5.34-1.45-7.54Zm-5.6,8.11c-1.8,0-3.1-1.35-3.1-3.23,0-1.77,1.33-3.15,3.02-3.15,1.83,0,3.13,1.36,3.13,3.27,0,1.77-1.31,3.11-3.05,3.11Z"/>
    <path class="cls-1" d="M80.45,7.01c2.38,.07,4.34,1.04,5.81,2.99,.19,.25,.11,.34-.11,.48-.92,.57-1.84,1.14-2.74,1.74-.3,.2-.44,.12-.66-.11-1.67-1.67-4.46-1.2-5.33,.88-.61,1.45-.15,3.12,1.09,3.96,1.24,.84,3.06,.7,4.13-.4,.36-.37,.58-.34,.96-.08,.82,.56,1.66,1.08,2.51,1.59,.3,.18,.31,.3,.11,.56-1.56,2.01-3.61,3.03-6.15,2.91-2.91-.14-5.26-1.34-6.6-4.01-2.01-3.97-.16-9.29,5.33-10.36,.53-.11,1.08-.1,1.66-.16Z"/>
    <path class="cls-1" d="M54.51,10.66c0,3.38,0,6.76,0,10.14,0,.37-.07,.5-.47,.49-1.17-.03-2.35-.02-3.52,0-.3,0-.44-.03-.44-.4,0-6.83,0-13.66-.01-20.49,0-.3,.08-.39,.39-.39,1.21,.02,2.42,.03,3.63,0,.39,0,.43,.15,.43,.47,0,3.4,0,6.8,0,10.19Z"/>
    <path class="cls-1" d="M88.06,14.34c0-2.15,.02-4.3-.01-6.45,0-.45,.14-.53,.54-.52,1.16,.03,2.31,.02,3.47,0,.3,0,.44,.04,.44,.4-.01,4.38-.01,8.75,0,13.13,0,.35-.12,.41-.43,.41-1.19-.02-2.39-.02-3.58,0-.37,0-.44-.12-.44-.46,.01-2.17,0-4.34,0-6.51Z"/>
    <path class="cls-1" d="M90.26,5.22c-1.45,0-2.7-1.18-2.72-2.54-.02-1.42,1.3-2.57,2.99-2.57,1.32,0,2.45,1.2,2.43,2.59-.02,1.42-1.21,2.53-2.7,2.52Z"/>
    <path class="cls-1" d="M86.43,34.47c-.36,0-.65,0-.56,.51-1.14-.83-2.19-.79-3.03,.09-.79,.83-.84,2.09-.11,2.96,.83,.99,1.85,1.07,3.1,.26,.06,1.06-.39,1.69-1.27,1.79-.48,.06-.91-.09-1.2-.48-.32-.41-.56-.06-.77,.07-.32,.2,.02,.37,.13,.49,.65,.75,1.5,.89,2.42,.67,1.04-.25,1.59-1.05,1.62-2.33,.03-1.15,.02-2.31,0-3.47,0-.23,.15-.57-.32-.58Zm-2.01,3.6c-.74-.02-1.33-.69-1.3-1.5,.02-.82,.58-1.35,1.39-1.33,.76,.02,1.36,.67,1.34,1.42-.02,.78-.68,1.43-1.42,1.41Z"/>
    <path class="cls-1" d="M69.5,32.65c0-.43-.13-.54-.54-.55-.49-.01-.39,.3-.39,.57,0,.73,0,1.46,0,2.23-1.27-.77-2.43-.65-3.2,.27-.72,.86-.69,2.12,.06,2.97,.78,.88,1.91,.95,3.11,.18-.03,.47,.25,.51,.62,.48,.43-.03,.35-.33,.35-.58,0-1.86-.01-3.72,.01-5.57Zm-2.34,5.42c-.77,0-1.35-.64-1.35-1.45,0-.84,.57-1.4,1.39-1.38,.79,.02,1.34,.59,1.33,1.39,0,.82-.61,1.44-1.37,1.44Z"/>
    <path class="cls-1" d="M48.36,34.5c.94-.06,.95-.06,1.23,.73,.25,.68,.48,1.36,.77,2.17,.32-.89,.61-1.67,.86-2.46,.1-.31,.22-.48,.59-.48,.36,0,.5,.15,.6,.47,.25,.79,.54,1.57,.87,2.48,.31-.88,.62-1.63,.83-2.41,.15-.58,.53-.54,.95-.51,.19,0,.19,.11,.14,.25-.47,1.29-.95,2.57-1.41,3.86-.08,.24-.25,.21-.44,.21-.24-.01-.44-.05-.54-.34-.24-.74-.52-1.46-.79-2.19-.05-.14-.12-.28-.22-.53-.33,.94-.63,1.76-.9,2.59-.1,.32-.26,.47-.61,.49-.37,.02-.39-.25-.48-.47-.49-1.28-.97-2.56-1.46-3.85Z"/>
    <path class="cls-1" d="M97.23,35.03c.57-.59,1.13-.71,1.75-.63,.68,.09,1.24,.66,1.32,1.38,.1,.88,.06,1.77,.08,2.65,0,.44-.28,.37-.54,.38-.3,.02-.42-.08-.41-.4,.02-.67,0-1.34,0-2,0-.7-.39-1.13-1.02-1.14-.62-.01-1.15,.46-1.18,1.1-.03,.67-.02,1.34,0,2,0,.35-.11,.47-.47,.47-.34,0-.48-.07-.47-.45,.02-1.95,.02-3.9,0-5.85,0-.39,.16-.43,.48-.44,.35-.01,.47,.1,.46,.46-.02,.77,0,1.54,0,2.46Z"/>
    <path class="cls-1" d="M60.29,34.99c0-.23,.1-.53-.33-.53-.35,0-.68-.02-.54,.58-1.03-.86-2.12-.86-2.94-.08-.88,.82-1.01,2.04-.31,2.99,.38,.52,.89,.83,1.54,.9,.65,.08,1.19-.15,1.72-.71-.12,.57,.05,.69,.46,.68,.43,0,.4-.24,.4-.52,0-1.1,0-2.21,0-3.31Zm-2.33,3.08c-.74-.03-1.36-.71-1.33-1.49,.02-.79,.61-1.35,1.38-1.35,.76,0,1.37,.63,1.37,1.37,0,.8-.67,1.49-1.42,1.46Z"/>
    <path class="cls-1" d="M35.53,35.56c0-.92,0-1.84,0-2.77,0-.23,0-.43,.33-.43,1.03,.02,2.06,.04,3.09,.03,.38,0,.38,.2,.39,.48,.01,.32-.13,.41-.42,.4-.67-.01-1.34,0-2.01,0-.3,0-.4,.1-.41,.4-.06,1.52-.07,1.5,1.46,1.53,.24,0,.61-.22,.74,.21,.15,.5,0,.67-.54,.69-.53,.03-1.23-.24-1.56,.12-.32,.35-.07,1.04-.1,1.57,0,.14,0,.29,0,.43,0,.55-.24,.72-.77,.58-.27-.07-.2-.27-.2-.43,0-.94,0-1.88,0-2.82Z"/>
    <path class="cls-1" d="M91.85,37.01c.34,0,.44-.1,.42-.43-.03-.56-.16-1.07-.53-1.49-.79-.91-2.2-.97-3.1-.15-.94,.87-1.02,2.27-.17,3.2,.86,.94,2.34,.99,3.25,.12,.43-.41,.38-.55-.18-.75-.26-.09-.31,.11-.44,.21-.83,.66-1.93,.35-2.27-.72,1.04,0,2.03-.01,3.02,0Zm-2.54-.76c-.16-.01-.4,.11-.47-.12-.06-.17,.09-.34,.2-.48,.53-.67,1.7-.6,2.13,.12,.16,.28,.23,.51-.25,.48-.29-.02-.57,0-.86,0-.25,0-.5,.01-.75,0Z"/>
    <path class="cls-1" d="M102.75,37c.43,0,.87,0,1.3,0h.81c1.03,0,1.13-.14,.83-1.14,0-.03-.03-.07-.04-.1-.32-.92-1.13-1.43-2.15-1.38-1,.05-1.81,.74-2.05,1.78-.22,.91,.26,1.97,1.11,2.45,.85,.48,1.96,.33,2.66-.35,.43-.42,.39-.55-.17-.74-.23-.08-.28,.08-.4,.18-.7,.56-1.73,.46-2.15-.22-.07-.12-.19-.25-.1-.4,.07-.13,.23-.07,.35-.07Zm-.29-1.15c.25-.46,.66-.65,1.15-.66,.48,0,.87,.18,1.12,.61,.16,.27,.18,.47-.24,.45-.3-.02-.61,0-.91,0-.29,0-.57,0-.86,0-.34,.02-.43-.09-.26-.4Z"/>
    <path class="cls-1" d="M74.26,36.08c0-.76-.03-1.52,.01-2.27,.02-.44-.14-.57-.56-.53-.29,.03-.58,0-.87,0-.34,.02-.52-.05-.53-.46,0-.44,.22-.45,.54-.45,1.26,0,2.53,.01,3.79,0,.36,0,.45,.12,.46,.47,0,.36-.11,.47-.46,.46-.45,0-1.03-.2-1.31,.08-.33,.32-.11,.92-.11,1.4-.02,1.19-.02,2.38,0,3.57,0,.4-.16,.48-.51,.48-.36,0-.47-.11-.46-.47,.03-.76,0-1.52,0-2.27Z"/>
    <path class="cls-1" d="M41.92,34.44c-1.18-.01-2.25,1.02-2.26,2.17,0,1.15,1.03,2.16,2.24,2.19,1.16,.03,2.27-1.01,2.3-2.14,.03-1.14-1.07-2.21-2.28-2.22Zm.03,3.56c-.78,0-1.4-.6-1.4-1.35,0-.76,.64-1.38,1.39-1.38,.75,0,1.39,.68,1.38,1.46,0,.69-.63,1.26-1.37,1.26Z"/>
    <path class="cls-1" d="M79.15,34.45c-1.21,0-2.29,1.03-2.28,2.17,.02,1.16,1.08,2.18,2.27,2.18,1.18,0,2.27-1.03,2.28-2.17,0-1.15-1.06-2.17-2.27-2.17Zm-.04,3.55c-.76,0-1.38-.64-1.35-1.39,.02-.72,.71-1.36,1.43-1.33,.75,.03,1.31,.63,1.29,1.38-.02,.81-.58,1.35-1.37,1.34Z"/>
    <path class="cls-1" d="M93.58,37.06c0-.4-.01-.79,0-1.19,.02-.39,.02-.72-.54-.65-.31,.04-.22-.26-.23-.44-.02-.21,.03-.38,.29-.34,.51,.08,.51-.22,.49-.58-.01-.18,.01-.36,0-.54-.03-.33,.02-.53,.45-.53,.43,0,.54,.16,.5,.55-.02,.16,.01,.33,0,.49-.06,.45,.07,.69,.58,.61,.31-.05,.35,.15,.35,.4,0,.26-.05,.44-.35,.39-.51-.08-.6,.17-.58,.62,.03,.85,0,1.7,.02,2.54,.01,.4-.2,.43-.51,.43-.3,0-.47-.05-.45-.41,.03-.45,0-.9,0-1.35Z"/>
    <path class="cls-1" d="M46.2,35.35c.32-.79,.8-1.05,1.47-.95,.22,.03,.53,.04,.43,.39-.06,.23,.06,.64-.5,.5-.63-.16-.99,.13-1.24,.76-.29,.73-.17,1.5-.18,2.25,0,.33-.01,.54-.45,.53-.42,0-.52-.15-.51-.54,.02-1.1,.02-2.2,0-3.3,0-.35,.03-.56,.48-.57,.46,0,.51,.2,.47,.56,0,.06,0,.13,.02,.37Z"/>
    <path class="cls-1" d="M107.82,35.1c.36-.59,.85-.81,1.49-.7,.26,.04,.46,.1,.35,.44-.07,.24,.03,.54-.44,.45-.7-.13-1.07,.14-1.3,.83-.24,.7-.13,1.43-.13,2.15,0,.42-.1,.56-.54,.56-.44,0-.44-.22-.43-.54,.01-1.06,0-2.13,0-3.19,0-.26-.17-.62,.38-.64,.49-.02,.67,.14,.62,.64Z"/>
    <path class="cls-1" d="M62.57,35.32c.36-.74,.83-1.02,1.5-.93,.28,.04,.51,.1,.42,.46-.06,.24,0,.56-.49,.44-.63-.15-1.07,.19-1.27,.87-.21,.7-.17,1.43-.14,2.15,.02,.41-.11,.54-.51,.52-.31-.02-.4-.12-.4-.42,.01-1.15,.01-2.31,0-3.46,0-.32,.05-.49,.43-.49,.39,0,.52,.14,.47,.5,0,.06,0,.13,0,.36Z"/>
    <path class="cls-1" d="M110.26,37.62c.43,0,.67,.2,.68,.59,.02,.41-.2,.63-.62,.65-.4,.02-.62-.21-.64-.57-.02-.39,.21-.63,.57-.67Z"/>
  </g>
</svg>