<?xml version="1.0" encoding="utf-8"?>
<!-- Generator: Adobe Illustrator 22.0.1, SVG Export Plug-In . SVG Version: 6.00 Build 0)  -->
<svg version="1.1" id="Layer_1" xmlns="http://www.w3.org/2000/svg" xmlns:xlink="http://www.w3.org/1999/xlink" x="0px" y="0px"
	 viewBox="0 0 169.218 50" enable-background="new 0 0 169.218 50" xml:space="preserve">
<g>
	<path fill="#118289" d="M19.247,9.486c-1.055-0.983-2.304-1.735-3.665-2.209c-1.887-0.63-3.87-0.922-5.858-0.864H0.904
		c-0.204,0-0.382,0.139-0.432,0.336C0.419,6.947,0.513,7.154,0.696,7.246c0.3,0.169,0.561,0.398,0.768,0.672
		C1.683,8.213,1.79,8.576,1.768,8.942v27.226c0.02,0.354-0.082,0.704-0.288,0.992c-0.227,0.281-0.497,0.524-0.8,0.72
		c-0.162,0.109-0.238,0.307-0.192,0.496c0.049,0.189,0.221,0.321,0.416,0.32h6.899c0.247,0,0.448-0.199,0.448-0.447
		c0-0.001,0-0.001,0-0.002c0.001-0.191-0.122-0.36-0.304-0.416c-0.29-0.156-0.541-0.375-0.736-0.64
		c-0.188-0.301-0.277-0.654-0.256-1.008V24.548c0.733,0.257,1.498,0.413,2.273,0.464c0.911,0.075,1.827,0.07,2.737-0.016
		c0.779-0.083,1.549-0.227,2.305-0.432c0.543-0.145,1.078-0.321,1.601-0.528c1.329-0.593,2.514-1.467,3.473-2.561
		c0.66-0.762,1.21-1.614,1.633-2.529c0.494-1.095,0.735-2.288,0.704-3.489c-0.015-1.02-0.193-2.03-0.528-2.993
		C20.756,11.337,20.104,10.317,19.247,9.486z M6.938,9.198h0.304c0.256,0,0.576,0,0.992-0.016c0.4-0.016,0.848-0.016,1.377-0.016
		c1.817-0.138,3.61,0.475,4.962,1.697c1.159,1.283,1.754,2.979,1.649,4.706c0.059,1.237-0.223,2.466-0.816,3.553
		c-0.485,0.829-1.159,1.532-1.969,2.049c-0.749,0.464-1.58,0.779-2.449,0.928c-1.325,0.31-2.703,0.321-4.034,0.032L6.938,9.198
		L6.938,9.198z"/>
	<path fill="#118289" d="M35.621,16.385c-0.288-0.128-0.512-0.224-0.704-0.288c-0.403-0.099-0.818-0.137-1.232-0.112
		c-0.537,0.017-1.06,0.171-1.521,0.448c-0.534,0.301-1.034,0.661-1.489,1.072c-0.476,0.431-0.925,0.89-1.344,1.377
		c-0.06,0.078-0.124,0.153-0.192,0.224v-2.689c-0.002-0.13-0.061-0.252-0.16-0.336c-0.105-0.08-0.238-0.114-0.368-0.096
		l-5.682,1.104c-0.202,0.037-0.349,0.211-0.352,0.416c-0.016,0.202,0.11,0.388,0.304,0.448c0.364,0.106,0.713,0.257,1.04,0.448
		c0.272,0.144,0.304,0.672,0.304,0.976v17.126c0.033,0.281-0.035,0.565-0.192,0.8c-0.235,0.226-0.499,0.42-0.784,0.576
		c-0.174,0.099-0.259,0.303-0.208,0.496c0.052,0.194,0.231,0.327,0.432,0.32h6.434c0.247,0,0.448-0.2,0.448-0.447
		c0-0.001,0-0.001,0-0.002c0.003-0.186-0.113-0.354-0.288-0.416c-0.261-0.158-0.503-0.346-0.72-0.56
		c-0.162-0.228-0.236-0.506-0.208-0.784V22.339c0.453-0.538,0.957-1.031,1.505-1.473c0.582-0.488,1.321-0.75,2.081-0.736
		c0.471-0.015,0.936,0.102,1.345,0.336c0.401,0.242,0.754,0.557,1.04,0.928c0.117,0.15,0.317,0.208,0.496,0.144
		c0.179-0.061,0.301-0.227,0.304-0.416v-4.338C35.884,16.613,35.776,16.464,35.621,16.385z"/>
	<path fill="#118289" d="M54.572,19.698c-1.928-2.436-4.898-3.814-8.003-3.713c-1.56-0.027-3.103,0.324-4.498,1.024
		c-1.287,0.652-2.425,1.562-3.345,2.673c-0.908,1.105-1.612,2.362-2.081,3.713c-0.477,1.352-0.721,2.776-0.72,4.21
		c0.008,1.322,0.202,2.637,0.576,3.905c0.379,1.333,0.997,2.586,1.825,3.697c1.916,2.563,4.965,4.028,8.163,3.921
		c1.524,0.022,3.029-0.33,4.386-1.024c1.276-0.654,2.413-1.551,3.345-2.641c0.934-1.089,1.656-2.343,2.129-3.697
		c0.487-1.333,0.736-2.742,0.736-4.162c-0.003-1.413-0.202-2.819-0.592-4.178C56.098,22.073,55.446,20.807,54.572,19.698z
		 M49.146,35.672c-0.686,0.493-1.508,0.761-2.353,0.768h-0.16c-0.757,0.015-1.503-0.19-2.145-0.592
		c-0.725-0.45-1.333-1.064-1.777-1.793c-0.529-0.867-0.933-1.805-1.2-2.785c-0.307-1.122-0.474-2.278-0.496-3.441
		c-0.034-1.168,0.046-2.337,0.24-3.489c0.162-1.022,0.474-2.015,0.928-2.945c0.385-0.796,0.943-1.496,1.633-2.049
		c0.672-0.523,1.501-0.805,2.353-0.8h0.16c0.8-0.019,1.586,0.204,2.257,0.64c0.735,0.502,1.352,1.157,1.809,1.921
		c0.526,0.883,0.904,1.845,1.12,2.849c0.257,1.104,0.418,2.229,0.48,3.361c0.063,1.188-0.007,2.38-0.208,3.553
		c-0.162,1.001-0.486,1.969-0.96,2.865C50.399,34.485,49.828,35.143,49.146,35.672z"/>
	<path fill="#118289" d="M113.65,36.761c-0.463-0.036-0.885-0.277-1.152-0.656c-0.243-0.474-0.359-1.004-0.336-1.537V16.417
		c-0.002-0.13-0.061-0.252-0.16-0.336c-0.105-0.08-0.238-0.114-0.368-0.096l-5.538,1.104c-0.238,0.047-0.392,0.278-0.345,0.516
		c0.031,0.156,0.145,0.284,0.297,0.332c0.349,0.119,0.686,0.269,1.008,0.448c0.272,0.144,0.304,0.672,0.304,0.976v14.021
		c-0.579,0.552-1.212,1.045-1.889,1.473c-0.776,0.45-1.665,0.667-2.561,0.624c-1.164,0.014-2.276-0.483-3.041-1.361
		c-0.933-1.177-1.384-2.664-1.264-4.162V16.417c-0.002-0.13-0.061-0.252-0.16-0.336c-0.105-0.08-0.238-0.114-0.368-0.096
		l-5.586,1.104c-0.238,0.047-0.392,0.278-0.345,0.516c0.031,0.156,0.145,0.284,0.297,0.332l0.56,0.192
		c0.134,0.047,0.259,0.118,0.368,0.208c0.105,0.092,0.187,0.207,0.24,0.336c0.077,0.226,0.11,0.466,0.096,0.704V29.99
		c-0.045,1.513,0.21,3.02,0.752,4.434c0.422,1.062,1.066,2.023,1.889,2.817c0.7,0.658,1.536,1.155,2.449,1.457
		c2.22,0.741,4.652,0.491,6.675-0.688c0.725-0.459,1.411-0.978,2.049-1.553c0.016,0.128,0.032,0.256,0.048,0.352
		c0.059,0.354,0.178,0.695,0.352,1.008c0.169,0.276,0.386,0.52,0.64,0.72c0.254,0.194,0.522,0.371,0.8,0.528
		c0.064,0.036,0.135,0.058,0.208,0.064c0.049-0.003,0.098-0.014,0.144-0.032l4.018-1.473c0.232-0.089,0.348-0.35,0.259-0.583
		C113.933,36.896,113.805,36.789,113.65,36.761L113.65,36.761z"/>
	<path fill="#118289" d="M132.121,18.322c-0.846-0.792-1.85-1.398-2.945-1.777c-1.018-0.36-2.089-0.549-3.169-0.56
		c-1.68-0.03-3.344,0.343-4.85,1.088c-1.341,0.674-2.524,1.623-3.473,2.785c-0.914,1.119-1.619,2.393-2.081,3.761
		c-0.454,1.291-0.692,2.649-0.704,4.018c0.001,1.431,0.256,2.851,0.752,4.194c0.494,1.345,1.232,2.588,2.177,3.665
		c0.967,1.096,2.142,1.988,3.457,2.625c1.43,0.675,2.996,1.014,4.578,0.992c1.227,0.011,2.445-0.218,3.585-0.672
		c1.039-0.42,1.997-1.015,2.833-1.761c0.78-0.717,1.425-1.568,1.905-2.513c0.463-0.916,0.725-1.92,0.768-2.945
		c0-0.213-0.146-0.398-0.352-0.448c-0.21-0.048-0.423,0.069-0.496,0.272c-0.235,0.573-0.571,1.099-0.992,1.553
		c-0.486,0.564-1.046,1.059-1.665,1.473c-0.657,0.438-1.36,0.803-2.097,1.088c-0.711,0.271-1.464,0.411-2.225,0.416
		c-1.048,0.026-2.087-0.205-3.025-0.672c-0.845-0.429-1.583-1.042-2.161-1.793c-0.597-0.786-1.042-1.676-1.312-2.625
		c-0.298-1.041-0.449-2.118-0.448-3.201v-0.848h14.517c0.24-0.001,0.433-0.196,0.432-0.436c0-0.004,0-0.008,0-0.012
		c0.035-1.558-0.254-3.106-0.848-4.546C133.781,20.267,133.046,19.205,132.121,18.322z M120.421,23.828
		c0.096-0.585,0.252-1.159,0.464-1.713c0.247-0.675,0.598-1.307,1.04-1.873c1.224-1.601,3.372-2.178,5.234-1.409
		c0.545,0.209,1.033,0.544,1.425,0.976c0.452,0.512,0.795,1.112,1.008,1.761c0.241,0.729,0.371,1.49,0.384,2.257H120.421z"/>
	<path fill="#118289" d="M149.52,27.477c-0.625-0.605-1.318-1.137-2.065-1.585c-0.736-0.448-1.489-0.88-2.225-1.312
		c-0.985-0.554-1.932-1.174-2.833-1.857c-0.598-0.473-0.926-1.208-0.88-1.969c0.005-0.266,0.065-0.527,0.176-0.768
		c0.124-0.288,0.31-0.544,0.544-0.752c0.275-0.25,0.596-0.446,0.944-0.576c0.436-0.157,0.897-0.233,1.361-0.224
		c0.577-0.011,1.146,0.133,1.649,0.416c0.499,0.308,0.942,0.698,1.312,1.152c0.402,0.495,0.741,1.038,1.008,1.617
		c0.267,0.577,0.497,1.17,0.688,1.777c0.063,0.206,0.267,0.335,0.48,0.304c0.211-0.037,0.365-0.218,0.368-0.432v-5.538
		c-0.004-0.166-0.095-0.318-0.24-0.4c-0.941-0.511-1.948-0.888-2.993-1.12c-0.748-0.158-1.509-0.244-2.273-0.256
		c-1.165-0.037-2.325,0.165-3.409,0.592c-0.843,0.341-1.606,0.853-2.241,1.505c-0.552,0.572-0.977,1.254-1.248,2.001
		c-0.229,0.632-0.354,1.297-0.368,1.969c-0.009,0.644,0.077,1.286,0.256,1.905c0.174,0.607,0.468,1.173,0.864,1.665
		c0.453,0.564,0.975,1.069,1.553,1.505c0.74,0.562,1.515,1.075,2.321,1.537l2.129,1.216c0.523,0.287,1.016,0.624,1.473,1.008
		c0.335,0.274,0.612,0.611,0.816,0.992c0.176,0.387,0.263,0.808,0.256,1.232c-0.009,0.31-0.063,0.618-0.16,0.912
		c-0.124,0.393-0.326,0.758-0.592,1.072c-0.316,0.377-0.709,0.683-1.152,0.896c-0.582,0.265-1.218,0.391-1.857,0.368
		c-0.661,0.008-1.312-0.157-1.889-0.48c-0.597-0.34-1.128-0.785-1.569-1.312c-0.486-0.582-0.89-1.229-1.2-1.921
		c-0.332-0.72-0.595-1.471-0.784-2.241c-0.046-0.222-0.256-0.369-0.48-0.336c-0.22,0.025-0.385,0.211-0.384,0.432v5.954
		c0.003,0.15,0.081,0.289,0.208,0.368c0.879,0.546,1.787,1.043,2.721,1.489c1.147,0.515,2.393,0.771,3.649,0.752
		c0.934-0.009,1.861-0.154,2.753-0.432c0.944-0.274,1.836-0.701,2.641-1.264c0.804-0.561,1.484-1.28,2.001-2.113
		c0.544-0.92,0.822-1.973,0.8-3.041c0.018-0.938-0.19-1.866-0.608-2.705C150.644,28.734,150.13,28.058,149.52,27.477z"/>
	<path fill="#118289" d="M165.27,35.128c-0.165-0.066-0.353-0.029-0.48,0.096c-0.144,0.144-0.304,0.288-0.448,0.416
		c-0.136,0.119-0.287,0.222-0.448,0.304c-0.225,0.106-0.461,0.187-0.704,0.24c-0.741,0.151-1.505,0.14-2.241-0.032
		c-0.431-0.09-0.836-0.276-1.184-0.544c-0.429-0.344-0.764-0.789-0.976-1.296c-0.308-0.762-0.45-1.58-0.416-2.401V19.33h6.018
		c0.247,0,0.448-0.199,0.448-0.447c0-0.001,0-0.001,0-0.002v-1.937c0-0.247-0.2-0.448-0.447-0.448c-0.001,0-0.001,0-0.002,0h-5.922
		v-3.761c-0.002-0.176-0.109-0.334-0.272-0.4c-0.165-0.066-0.353-0.029-0.48,0.096l-6.002,6.178
		c-0.125,0.127-0.162,0.315-0.096,0.48c0.066,0.163,0.224,0.27,0.4,0.272h1.553v12.629c-0.141,1.977,0.576,3.919,1.969,5.33
		c1.336,1.215,3.092,1.864,4.898,1.809c0.683,0.013,1.363-0.107,2.001-0.352c0.564-0.207,1.093-0.498,1.569-0.864
		c0.414-0.314,0.78-0.686,1.088-1.104c0.276-0.359,0.433-0.796,0.448-1.249C165.55,35.373,165.442,35.201,165.27,35.128z"/>
	<path fill="#118289" d="M91.594,42.075c-0.48,0.089-0.968,0.132-1.457,0.128c-3.291,0.074-6.177-2.183-6.899-5.394
		c-0.048-0.144-0.096-0.272-0.128-0.4c1.083-0.634,2.06-1.434,2.897-2.369c2.846-3.064,4.434-7.087,4.45-11.268
		c0.214-4.609-1.564-9.087-4.882-12.293c-1.437-1.386-3.127-2.484-4.978-3.233c-1.746-0.72-3.603-1.131-5.49-1.216
		c-2.356-0.101-4.703,0.354-6.851,1.328c-1.921,0.903-3.645,2.176-5.074,3.745c-1.394,1.537-2.486,3.324-3.217,5.266
		c-0.722,1.86-1.117,3.831-1.168,5.826c-0.08,2.187,0.274,4.368,1.04,6.418c0.699,1.9,1.747,3.654,3.089,5.17
		c1.303,1.468,2.866,2.683,4.61,3.585c1.772,0.922,3.708,1.488,5.698,1.665l3.697-0.192c0.798-0.116,1.585-0.298,2.353-0.544
		c0.096,0.288,0.192,0.592,0.272,0.896c0.864,3.121,3.217,4.786,6.819,4.786c1.88-0.045,3.74-0.396,5.506-1.04
		c0.212-0.089,0.322-0.324,0.256-0.544C92.062,42.167,91.83,42.031,91.594,42.075z M72.099,31.206c-0.24,0.059-0.386,0.3-0.328,0.54
		c0.048,0.196,0.222,0.336,0.424,0.34h0.192c2.231,0.382,4.212,1.653,5.49,3.521c-2.252,0.771-4.712,0.656-6.883-0.32
		c-1.291-0.603-2.437-1.477-3.361-2.561c-1.086-1.315-1.922-2.817-2.465-4.434c-0.682-2.064-1.007-4.229-0.96-6.402
		c-0.026-1.877,0.244-3.746,0.8-5.538c0.464-1.491,1.214-2.877,2.209-4.082c0.903-1.076,2.027-1.945,3.297-2.545
		c1.299-0.599,2.715-0.9,4.146-0.88c1.434-0.015,2.85,0.315,4.13,0.96c1.286,0.669,2.398,1.628,3.249,2.801
		c0.978,1.356,1.709,2.873,2.161,4.482c0.539,1.916,0.804,3.9,0.784,5.89c0.03,1.86-0.235,3.713-0.784,5.49
		c-0.456,1.496-1.183,2.896-2.145,4.13c-0.144,0.176-0.24,0.304-0.32,0.416c-0.088,0.124-0.184,0.241-0.288,0.352
		c-1.486-1.606-3.559-2.541-5.746-2.593C74.487,30.782,73.279,30.927,72.099,31.206z"/>
</g>
</svg>
