<?xml version="1.0" encoding="UTF-8"?>
<svg id="Layer_2" data-name="Layer 2" xmlns="http://www.w3.org/2000/svg" xmlns:xlink="http://www.w3.org/1999/xlink" viewBox="0 0 143.3 45.6">
  <defs>
    <style>
      .cls-1 {
        fill: #fff;
      }

      .cls-2 {
        fill: url(#linear-gradient);
      }
    </style>
    <linearGradient id="linear-gradient" x1="-760.57" y1="544.55" x2="-759.78" y2="545.61" gradientTransform="translate(18838.62 -7239.49) scale(24.61 13.3)" gradientUnits="userSpaceOnUse">
      <stop offset=".04" stop-color="#21dbaa"/>
      <stop offset=".36" stop-color="#00b4ef"/>
      <stop offset=".43" stop-color="#01a7ec"/>
      <stop offset=".57" stop-color="#0487e4"/>
      <stop offset=".68" stop-color="#0768dd"/>
      <stop offset=".96" stop-color="#5f1ae5"/>
    </linearGradient>
  </defs>
  <g id="Layer_1-2" data-name="Layer 1">
    <path class="cls-1" d="M47.4,28.3c-.9,0-1.1-.6-1.1-1.8V15.4c0-3.8-2.1-6.1-5.7-6.1-4.3,0-6.2,3.3-6.3,6.6v.1h2.9v-.1c0-1.1,.4-2.2,1.1-3,.6-.6,1.4-.9,2.2-.9,1.7,0,2.7,1.3,2.7,3.6v1l-3.4,1.6c-3.9,1.8-6.4,3.3-6.4,7.1,0,3.4,2.1,5.6,5.3,5.6,1.9-.1,3.7-1,4.8-2.5,.3,1.5,1.7,2.6,3.3,2.5,.6,0,1.2-.1,1.8-.4h.1v-2.7l-.2,.1c-.4,.3-.8,.4-1.1,.4Zm-4.2-8.9v6.5c-.8,1.4-2.3,2.4-3.9,2.5-1.5,.1-2.8-1.1-2.8-2.5v-.4c0-2.6,2.2-3.9,4.2-4.8l2.5-1.3ZM63.4,3.1h-3l-.2,6.6h-2.8v2.8h2.8v13.7c0,3.1,1.4,4.8,4,4.8,1.1,0,2.2-.3,3.1-.9h.1v-2.8l-.2,.1c-.6,.5-1.4,.8-2.2,.9-1.4,0-1.7-1.2-1.7-2.1V12.5h4.5v-2.8h-4.5l.1-6.6ZM26.9,25.7c-1.2,1.7-2.5,2.7-3.8,2.7-1.7,0-2.3-1.7-2.3-3.2V9.7h-3.1v15.6c0,3.6,1.6,5.7,4.5,5.7,1.9,0,3.7-.9,4.8-2.5l.1,2.1h3V9.7h-3.1l-.1,16ZM10.8,11.6c-.8-1.5-2.4-2.4-4.1-2.3-1.8,0-3.5,.9-4.5,2.4-1.4,1.9-2.2,4.7-2.2,8.4,0,8,3.2,10.8,6.3,10.8,1.6,0,3.1-.7,4.1-1.9v16.6h3.1V9.7h-2.7v1.9Zm-.3,2.9v11.4c-.9,1.6-1.9,2.3-3.3,2.3-2.6,0-3.9-2.7-3.9-8.1,0-5.1,1.5-8.1,4-8.1,1.5,.1,2.8,1.1,3.2,2.5ZM51.1,0h3.1V30.6h-3.1V0Zm31.5,9.7h3.1V30.6h-3.1V9.7Zm.1-6.6h3.1v3.6h-3.1V3.1Zm-8.7,9.1l-.2-2.4h-3V30.7h3.1V15.7c1.4-2.9,3.2-3.3,5-3.3l.7,.1v-3h-.8c-2.1-.2-3.3,.5-4.8,2.7Zm37.2,6l-.1,.1h0l.1-.1h0c-2-1-3.4-1.9-3.4-3.6,0-.7,.3-1.4,.8-1.9s1.2-.7,1.9-.7c.8,0,1.6,.3,2.1,.9,.7,.8,1,1.9,.8,2.9v.1h2.9v-.1c.2-1.8-.4-3.5-1.6-4.9-1.1-1.1-2.6-1.7-4.1-1.7-3.4,0-5.7,2.2-5.7,5.4,0,3.5,2.8,5,4.8,6s3.9,2.1,3.9,4.3c.1,1.7-1.3,3.1-2.9,3.2h-.2c-2,0-3.4-1.7-3.5-4.1v-.1h-2.9v.1c.1,4.2,2.5,6.8,6.4,6.8,1.6,.1,3.3-.5,4.4-1.7s1.8-2.8,1.7-4.4c0-3.7-2.9-5.2-5.4-6.5h0Zm-12.1,5.8c0,1.2-.4,2.5-1.2,3.4-.5,.5-1.2,.8-1.9,.8-2.4,0-3.7-2.8-3.7-8.1s1.3-8.2,3.7-8.2c.7,0,1.3,.2,1.7,.7,.7,.9,1.1,2,1.1,3.2h2.9c.1-1.9-.5-3.7-1.7-5.1-1-1-2.5-1.6-3.9-1.5-4.5,0-6.9,3.8-6.9,10.8s2.4,10.8,6.7,10.8c3.5,0,5.7-2.6,5.9-6.9h-2.7v.1Zm21.9,4.9c.1-.1,.1-.3,.1-.4,0-.2-.1-.4-.2-.5-.2-.1-.4-.2-.6-.2h-1.1v2.2h.6v-.8h.4l.4,.8h.6l-.5-.9c.2,0,.3-.1,.3-.2Zm-.5-.2c-.1,0-.2,.1-.3,.1h-.4v-.6h.4c.1,0,.2,0,.3,.1q.1,.1,.1,.2c0,.1-.1,.2-.1,.2h0Z"/>
    <path class="cls-1" d="M122,28.1c-.1-.2-.2-.4-.4-.6s-.4-.3-.6-.4c-.5-.2-1.1-.2-1.6,0-.2,.1-.5,.2-.6,.4-.2,.2-.3,.4-.4,.6-.2,.5-.2,1.1,0,1.6,.1,.2,.2,.5,.4,.6,.2,.2,.4,.3,.6,.4,.5,.2,1.1,.2,1.6,0,.2-.1,.5-.2,.6-.4,.2-.2,.3-.4,.4-.6,.2-.5,.2-1.1,0-1.6Zm-.4,1.5c-.1,.2-.2,.4-.3,.5-.1,.1-.3,.3-.5,.3-.4,.2-.8,.2-1.2,0-.2-.1-.4-.2-.5-.3s-.3-.3-.3-.5c-.2-.4-.2-.9,0-1.3,.1-.2,.2-.4,.3-.5,.1-.1,.3-.3,.5-.3,.4-.2,.8-.2,1.2,0,.2,.1,.4,.2,.5,.3,.1,.1,.3,.3,.3,.5,.2,.4,.2,.9,0,1.3Z"/>
    <path class="cls-2" d="M139.3,3l-2.7,9.5h0l-2.9-9.5h-6.4l-2.2,3.9-2.3-3.9h-3.2l3.8,6.1-4.1,6.8h3l2.7-4.5,2.8,4.5h4.9V6.9h0c.1,.4,.1,.7,.2,1,.1,.3,.1,.5,.2,.7l.2,.7,.2,.7,1.9,5.9h2.5l1.9-5.9c.1-.5,.3-.9,.4-1.4,.1-.5,.2-1,.3-1.5h0V15.9h2.8V2.9l-4,.1Zm-12.8,6.1l3.4-5.6V14.6l-3.4-5.5Z"/>
  </g>
</svg>