<?xml version="1.0" encoding="UTF-8"?>
<svg id="Layer_2" data-name="Layer 2" xmlns="http://www.w3.org/2000/svg" viewBox="0 0 217.29 40.18">
  <defs>
    <style>
      .cls-1 {
        fill: #fff;
      }
    </style>
  </defs>
  <g id="Layer_1-2" data-name="Layer 1">
    <g>
      <path class="cls-1" d="M38.53,16.2c.03-.05,.06-.1,.07-.15,.21-1.04,.53-2.06,.76-3.1,.22-1.01,.5-2.01,.8-3.01,.17-.57,.41-1.11,.46-1.73,.01-.19,.17-.4,.25-.61,.16-.46,.23-.94,.31-1.41,.04-.24,.18-.4,.25-.6,.1-.32,.11-.65,.2-.98,.11-.45,.32-.86,.4-1.32,.07-.45,.29-.88,.36-1.33,.1-.67,.39-1.28,.54-1.95,1.28,.34,2.53,.66,3.77,.99,1.09,.29,2.17,.61,3.26,.91,1.98,.54,3.97,1.07,5.95,1.61,2.09,.56,4.18,1.12,6.27,1.68,1.93,.52,3.86,1.04,5.78,1.56,2.07,.56,4.14,1.12,6.21,1.68,.36,.1,.37,.1,.27,.49-.34,1.33-.69,2.65-1.05,3.97-.33,1.25-.68,2.51-1.01,3.76-.4,1.48-.81,2.96-1.2,4.44-.39,1.45-.76,2.9-1.15,4.34-.42,1.55-.89,3.09-1.27,4.65-.5,2.08-1.13,4.12-1.64,6.2-.29,1.17-.62,2.33-.94,3.5-.12,.42-.26,.48-.67,.28-.13-.06-.28-.11-.43-.14-.72-.14-1.39-.43-2.11-.56-.92-.17-1.84-.39-2.71-.69-.54-.19-1.16-.14-1.65-.49-.13-.09-.32-.11-.49-.14-.56-.09-1.09-.28-1.63-.43-.54-.15-1.08-.3-1.63-.41-.58-.12-1.15-.26-1.7-.5-.19-.08-.4-.12-.61-.16-.62-.14-1.22-.31-1.83-.47-.85-.22-1.67-.51-2.52-.7-.62-.14-1.21-.37-1.82-.51-.83-.2-1.68-.35-2.49-.62-.93-.31-1.91-.48-2.85-.77-.91-.28-1.85-.44-2.76-.72-.55-.16-1.11-.27-1.64-.51-.39-.18-.86-.19-1.29-.3-.26-.07-.51-.19-.77-.29-.11-.04-.12-.13-.08-.23,.22-.56,.13-1.21,.47-1.75,.12-.2,.03-.44,.1-.66,.2-.67,.55-1.3,.53-2.03,0-.18,.19-.3,.23-.5,.1-.53,.18-1.07,.37-1.56,.22-.55,.26-1.14,.48-1.68,.15-.35,.11-.75,.24-1.11,.13-.39,.31-.78,.39-1.19,.18-.92,.53-1.79,.71-2.71,.12-.61,.31-1.2,.48-1.8,.06-.07,.07-.15,.05-.24Zm21.49,.89c.03-.28-.19-.27-.34-.31-2.68-.74-5.36-1.47-8.03-2.22-.43-.12-.4-.11-.52,.32-.71,2.65-1.41,5.3-2.12,7.94-.12,.45-.12,.46,.31,.58,1.5,.42,3.01,.83,4.51,1.25,1.17,.32,2.35,.64,3.52,.98,.26,.08,.4,.05,.44-.23,0-.06,.03-.11,.04-.17,.7-2.63,1.4-5.26,2.1-7.89,.02-.09,.06-.18,.08-.25Z"/>
      <path class="cls-1" d="M106.33,20.35c.76,.45,1.53,.89,2.17,1.52,.98,.97,1.6,2.15,1.95,3.46,.55,2.06,.43,4.12-.21,6.13-.87,2.78-2.75,4.54-5.52,5.45-1.53,.5-3.08,.7-4.67,.7-6.79,0-13.57,0-20.35,0-.53,0-.48,.03-.48-.51V3.38c0-.1,0-.19,0-.29-.01-.19,.07-.28,.26-.27,.13,0,.27,0,.4,0,6.27,0,12.54,0,18.81,0,.19,0,.38-.01,.57-.02,.11,.05,.23,.05,.34,0,1.44,.07,2.87,.24,4.25,.69,1.63,.54,3.06,1.39,4.19,2.7,.72,.84,1.23,1.8,1.57,2.85,.52,1.64,.58,3.32,.34,5.01-.32,2.29-1.35,4.19-3.16,5.65-.13,.06-.25,.13-.33,.26-.06,0-.11,.03-.12,.09-.09,.01-.18,.05-.19,.15,0,.12,.11,.11,.19,.14Zm-12.59,8.92c.25,0,.5,0,.74,0,1.07,0,2.13,.02,3.2-.03,1.28-.06,2.13-.83,2.34-2.03,.08-.45,.06-.91-.04-1.36-.2-.94-.79-1.5-1.69-1.73-.29-.08-.6-.12-.9-.12-2.49,0-4.99,0-7.48,0-.39,0-.39,0-.4,.42,0,1.49,0,2.97,0,4.46,0,.39,0,.4,.4,.4,1.28,0,2.55,0,3.83,0Zm-.41-12.94c.55,0,1.1,0,1.65,0,.63,0,1.26,.02,1.88-.02,1.43-.09,2.29-.84,2.47-2.15,.22-1.56-.56-2.64-2.11-2.9-.24-.04-.49-.08-.74-.08-2.19,0-4.38,0-6.56,0-.42,0-.42,0-.42,.45,0,1.41,0,2.82,0,4.22,0,.5-.03,.47,.46,.47,1.12,0,2.24,0,3.37,0Z"/>
      <path class="cls-1" d="M32.37,37.62h-.53c-3.49,0-6.97,0-10.46,.01-.46,0-.69-.16-.89-.55-.66-1.27-1.4-2.5-2.03-3.78-.5-1.02-1.11-1.97-1.62-2.98-.37-.73-.77-1.44-1.14-2.17-.13-.25-.29-.34-.57-.33-1.37,.01-2.74,0-4.12,0-.42,0-.43,0-.43,.44,0,2.8,0,5.6,0,8.4,0,.15,0,.31,0,.46,0,.49,0,.49-.5,.49-3.18,0-6.36,0-9.55,0-.62,0-.53,0-.53-.58,0-4.95,0-9.91,0-14.86V3.54C0,3.45,0,3.35,0,3.26c0-.43,0-.43,.45-.43,6.48,0,12.96-.02,19.44,.01,2.39,.01,4.69,.52,6.82,1.69,1.81,.99,3.2,2.36,4.18,4.19,1.23,2.28,1.58,4.72,1.5,7.26-.06,1.87-.48,3.65-1.32,5.32-.96,1.9-2.38,3.38-4.2,4.48-.67,.41-.66,.4-.28,1.09,1.31,2.39,2.61,4.79,3.92,7.18,.56,1.03,1.13,2.05,1.69,3.08,.07,.13,.17,.25,.16,.5ZM14.72,18.75c1.05,0,2.1,0,3.14,0,.3,0,.61,0,.91-.04,1.4-.15,2.46-1.04,2.79-2.34,.15-.6,.18-1.2,.07-1.81-.24-1.34-1.02-2.18-2.33-2.53-.39-.1-.78-.16-1.19-.16-2.36,0-4.73,0-7.09,0-.44,0-.45,0-.45,.43,0,2.02,0,4.04,0,6.06,0,.39,0,.39,.42,.39,1.24,0,2.48,0,3.72,0Z"/>
      <path class="cls-1" d="M175.09,33.24c-1.29,1.19-2.69,2.24-4.25,3.04-.43,.22-.87,.43-1.32,.62-3.9,1.63-7.89,1.81-11.97,.75-2.19-.57-4.16-1.54-5.94-2.91-.82-.63-1.53-1.37-2.26-2.09-.65-.65-1.23-1.36-1.73-2.12-.33-.5-.65-1.03-.97-1.54-.3-.47-.35-1.06-.76-1.46-.02-.04-.05-.08-.08-.13-.23-.64-.49-1.28-.67-1.93-.28-1.04-.47-2.1-.59-3.17-.27-2.35-.05-4.66,.53-6.95,.16-.64,.45-1.21,.63-1.82,.05-.16,.18-.3,.12-.48,.03-.05,.06-.11,.09-.16,.04-.03,.1-.06,.11-.1,.33-.87,.87-1.63,1.32-2.44,.1-.08,.17-.17,.19-.3,.51-.66,1-1.34,1.54-1.97,.41-.48,.89-.91,1.37-1.32,.68-.58,1.38-1.14,2.1-1.65,.54-.38,1.11-.71,1.7-1,1.6-.79,3.28-1.36,5.04-1.67,2.66-.46,5.29-.38,7.91,.35,1.57,.43,3.04,1.07,4.45,1.85,.95,.53,1.82,1.16,2.64,1.87,1.81,1.58,3.3,3.42,4.35,5.58,2.36,4.85,2.6,9.81,.65,14.84-.83,2.15-2.05,4.06-3.65,5.73-.08,.08-.15,.17-.22,.26-.15,.07-.26,.19-.33,.33Zm-20.11-13.09c.02,.78,.1,1.54,.31,2.27,1.5,5.25,7.78,7.26,11.91,3.82,3.36-2.8,3.76-7.91,.87-11.19-2.59-2.95-6.94-3.4-10.05-1.01-2,1.54-2.95,3.62-3.04,6.11Z"/>
      <path class="cls-1" d="M198.76,11.97c.38-.59,.71-1.2,1.06-1.81,.19-.34,.43-.68,.62-1.02,.28-.5,.65-.95,.85-1.51,.07-.21,.21-.4,.34-.58,.79-1.12,1.43-2.33,2.15-3.5,.04-.06,.09-.13,.11-.2,.1-.46,.41-.55,.84-.55,2.74,.01,5.48,0,8.22,0,1.14,0,2.28,0,3.43,0,.09,0,.19-.03,.29,.08-.75,1.21-1.51,2.43-2.26,3.65-.16,.13-.26,.3-.32,.49-.7,.92-1.25,1.94-1.87,2.91-1.37,2.13-2.72,4.27-4.07,6.4-.62,.97-1.23,1.96-1.86,2.92-.2,.3-.18,.52,0,.81,.81,1.25,1.61,2.51,2.4,3.77,1.18,1.86,2.36,3.73,3.55,5.59,1.65,2.6,3.3,5.19,4.96,7.79,.06,.09,.14,.18,.1,.35-.17,0-.35,.02-.53,.02-3.79,0-7.58-.01-11.38,.01-.56,0-.81-.27-1.02-.69-.34-.68-.79-1.3-1.19-1.94-.23-.36-.44-.73-.65-1.1-.26-.47-.51-.95-.82-1.39-.69-.99-1.31-2.03-1.9-3.08-.27-.48-.57-.94-.9-1.38-.11-.15-.09-.33-.21-.45-.08-.17-.15-.16-.22,0-1.31,2.07-2.63,4.13-3.94,6.2-.28,.45-.55,.9-.82,1.36-.13,.09-.2,.21-.23,.36-.4,.6-.8,1.2-1.18,1.81-.12,.19-.24,.29-.49,.29-4.08,0-8.15,0-12.23-.01-.04,0-.07-.02-.13-.03-.02-.23,.16-.37,.27-.53,3.73-5.5,7.45-11.01,11.19-16.5,.24-.35,.26-.58,.02-.94-2.78-4.37-5.54-8.75-8.32-13.12-.66-1.03-1.36-2.05-2.01-3.09-.1-.16-.19-.32-.23-.57,.16,0,.3-.02,.44-.02,3.87,0,7.74,0,11.6-.01,.35,0,.55,.1,.73,.39,1.01,1.68,2.03,3.35,3.06,5.02,.77,1.25,1.51,2.52,2.34,3.74,0,.11,.06,.18,.15,.17,.07,0,.09-.09,.09-.16Z"/>
      <path class="cls-1" d="M115.97,20.24V3.49c0-.08,0-.15,0-.23,0-.43,0-.44,.44-.44,3.2,0,6.4,0,9.6,0,.6,0,.54-.04,.54,.57V21.85c0,1.66,0,3.32,0,4.97,0,.55-.05,.49,.49,.49,4.67,0,9.34,0,14,0,.71,0,.64-.11,.64,.63,0,3.01,0,6.02,0,9.03,0,.11,0,.23,0,.34,.02,.21-.05,.33-.28,.3-.13-.01-.27,0-.4,0-8.12,0-16.23,0-24.35,0-.82,0-.7,.09-.7-.69,0-5.56,0-11.13,0-16.69,0,0,0,0,0,0Z"/>
    </g>
  </g>
</svg>