<?xml version="1.0" encoding="UTF-8"?>
<svg id="Layer_2" data-name="Layer 2" xmlns="http://www.w3.org/2000/svg" xmlns:xlink="http://www.w3.org/1999/xlink" viewBox="0 0 122.52 44.03">
  <defs>
    <style>
      .cls-1 {
        fill: url(#linear-gradient-2);
      }

      .cls-2 {
        fill: #fff;
      }

      .cls-3 {
        fill: url(#linear-gradient-3);
      }

      .cls-4 {
        fill: url(#linear-gradient);
      }
    </style>
    <linearGradient id="linear-gradient" x1="1140.36" y1="1031.51" x2="1184.4" y2="1031.51" gradientTransform="translate(-1140.36 -1009.5)" gradientUnits="userSpaceOnUse">
      <stop offset="0" stop-color="#e7380d"/>
      <stop offset=".02" stop-color="#e7380d"/>
      <stop offset=".08" stop-color="#e8410c"/>
      <stop offset=".17" stop-color="#ec590a"/>
      <stop offset=".28" stop-color="#f18107"/>
      <stop offset=".41" stop-color="#f9b703"/>
      <stop offset=".5" stop-color="#ffe100"/>
      <stop offset=".59" stop-color="#f9b703"/>
      <stop offset=".72" stop-color="#f18107"/>
      <stop offset=".83" stop-color="#ec590a"/>
      <stop offset=".92" stop-color="#e8410c"/>
      <stop offset=".98" stop-color="#e7380d"/>
      <stop offset="1" stop-color="#e7380d"/>
    </linearGradient>
    <linearGradient id="linear-gradient-2" x1="1166.62" y1="1024" x2="1154.86" y2="1024" gradientTransform="translate(-1140.36 -1009.69)" gradientUnits="userSpaceOnUse">
      <stop offset=".2" stop-color="#fd0"/>
      <stop offset=".28" stop-color="#fdca02"/>
      <stop offset=".45" stop-color="#f79a05"/>
      <stop offset=".68" stop-color="#ee4e0c"/>
      <stop offset=".9" stop-color="#e50012"/>
    </linearGradient>
    <linearGradient id="linear-gradient-3" x1="-7751.84" y1="-7781.12" x2="-7763.59" y2="-7781.12" gradientTransform="translate(-7734.08 -7751.4) rotate(-180)" xlink:href="#linear-gradient-2"/>
  </defs>
  <g id="logo">
    <g>
      <polygon class="cls-4" points="44.03 22.02 22.02 0 0 22.02 22.02 44.03 44.03 22.02"/>
      <polygon class="cls-1" points="23.23 5.39 14.31 14.31 23.23 23.23 23.23 5.39"/>
      <polygon class="cls-3" points="20.81 38.64 29.72 29.72 20.81 20.81 20.81 38.64"/>
    </g>
    <g>
      <path class="cls-2" d="M57.24,8.48c-.22-.11-.55-.22-.77-.22-.33,0-.55-.11-.77-.11h-.55c-.22,0-.33,.11-.44,.11-.11,.11-.22,.22-.33,.33-.11,.11-.11,.33-.11,.44s0,.22,.11,.33c0,.11,.11,.22,.22,.33,.11,.22,.22,.33,.44,.44s.44,.22,.66,.33c.33,.11,.66,.22,.88,.44,.22,.11,.44,.33,.66,.44,.22,.22,.33,.33,.44,.55,.11,.22,.11,.44,.11,.77s-.11,.66-.22,.99c-.11,.22-.33,.44-.55,.66-.22,.22-.55,.33-.88,.33-.33,.11-.66,.11-.99,.11s-.66,0-1.1-.11-.77-.22-1.1-.33l.22-.99c.33,.11,.66,.22,.99,.33s.66,.11,.99,.11c.44,0,.77-.11,1.1-.22,.22-.22,.44-.44,.44-.77,0-.11,0-.33-.11-.44-.11-.11-.22-.22-.33-.33-.11-.11-.33-.22-.55-.33-.22-.11-.44-.22-.66-.33-.33-.11-.55-.22-.88-.44-.22-.11-.44-.33-.66-.44-.22-.22-.33-.33-.44-.55-.11-.22-.11-.44-.11-.66,0-.33,.11-.66,.22-.88,.11-.22,.33-.44,.55-.66,.22-.22,.55-.33,.77-.33,.33-.11,.66-.11,.88-.11,.33,0,.66,0,.99,.11,.33,0,.66,.11,.88,.22v.88h0Z"/>
      <path class="cls-2" d="M64.29,11.89c0,.44-.11,.88-.22,1.21-.11,.33-.33,.66-.55,.88-.22,.22-.55,.44-.88,.55-.33,.11-.66,.22-1.1,.22s-.77-.11-1.1-.22c-.33-.11-.66-.33-.88-.55-.22-.22-.44-.55-.55-.88-.11-.33-.22-.77-.22-1.21s.11-.88,.22-1.21c.11-.33,.33-.66,.55-.88s.55-.44,.88-.55c.33-.11,.66-.22,1.1-.22s.77,.11,1.1,.22c.33,.11,.66,.33,.88,.55,.22,.22,.44,.55,.55,.88,.11,.44,.22,.77,.22,1.21Zm-1.21,0c0-.33,0-.55-.11-.77-.11-.22-.11-.44-.22-.66-.11-.22-.33-.33-.44-.44-.22-.11-.44-.11-.66-.11s-.44,0-.66,.11c-.22,.11-.33,.22-.44,.44-.11,.22-.22,.33-.22,.66-.11,.22-.11,.44-.11,.77,0,.55,.11,1.1,.33,1.43s.66,.55,1.1,.55c.55,0,.88-.22,1.1-.55,.22-.33,.33-.77,.33-1.43Z"/>
      <path class="cls-2" d="M66.49,9.25v.77h0c.11-.33,.44-.55,.66-.66,.33-.11,.66-.22,.99-.22,.66,0,1.1,.22,1.43,.55,.33,.33,.55,.88,.55,1.43v3.63h-1.21v-3.85c0-.22-.11-.33-.22-.44-.11-.11-.22-.22-.33-.33s-.33-.11-.55-.11-.33,0-.44,.11c-.11,.11-.33,.11-.44,.33-.11,.11-.22,.33-.33,.55-.11,.22-.11,.44-.11,.77v2.97h-1.21v-5.5h1.21Z"/>
      <path class="cls-2" d="M73.75,13.21h0l1.54-3.96h1.21l-2.97,7.49h-1.21l.88-2.09-2.2-5.28h1.32l1.43,3.85Z"/>
      <path class="cls-2" d="M53.39,18.16h1.21v7.38h-1.21v-7.38Z"/>
      <path class="cls-2" d="M57.35,20.04v.77h0c.11-.33,.44-.55,.66-.66,.33-.11,.66-.22,.99-.22,.66,0,1.1,.22,1.43,.55,.33,.33,.55,.88,.55,1.43v3.63h-1.21v-3.85c0-.22-.11-.33-.22-.44-.11-.11-.22-.22-.33-.33-.11-.11-.33-.11-.55-.11s-.33,0-.44,.11c-.11,.11-.33,.11-.44,.33-.11,.11-.22,.33-.33,.55-.11,.22-.11,.44-.11,.77v2.97h-1.21v-5.39h1.21v-.11h0Z"/>
      <path class="cls-2" d="M61.98,20.04h.88v-1.43h1.21v1.43h1.21v.88h-1.21v3.3c0,.11,0,.22,.11,.22,0,.11,.11,.11,.22,.11h.88v.88h-.88c-.33,0-.55,0-.77-.11s-.33-.22-.44-.33c-.11-.11-.22-.33-.22-.44v-3.63h-.88v-.88s-.11,0-.11,0Z"/>
      <path class="cls-2" d="M67.15,23.12c0,.55,.22,.88,.55,1.21,.33,.33,.77,.44,1.32,.44,.22,0,.44,0,.77-.11,.22,0,.44-.11,.66-.22l.11,.88c-.44,.11-.99,.22-1.65,.22-.44,0-.88-.11-1.32-.22-.33-.11-.66-.33-.88-.55-.22-.22-.44-.55-.55-.88-.11-.33-.22-.77-.22-1.1s.11-.77,.22-1.1c.11-.33,.33-.66,.55-.88,.22-.22,.55-.44,.88-.55,.33-.11,.66-.22,1.1-.22s.77,.11,.99,.22c.33,.11,.55,.33,.77,.55,.22,.22,.33,.55,.44,.88,.11,.33,.11,.66,.11,1.1v.33h-3.85Zm1.54-2.31c-.44,0-.77,.11-.99,.44-.22,.22-.44,.66-.44,1.1h2.75c0-.44-.11-.77-.33-1.1-.33-.33-.66-.44-.99-.44Z"/>
      <path class="cls-2" d="M75.18,20.91h-.44c-.11,0-.33,0-.55,.11-.22,.11-.33,.22-.44,.33-.11,.11-.22,.33-.33,.55-.11,.22-.11,.55-.11,.77v2.86h-1.21v-5.39h1.21v.77h0c.22-.55,.77-.88,1.43-.88h.44v.88h0Z"/>
      <path class="cls-2" d="M79.04,21.91c0-.33-.11-.66-.33-.88-.22-.22-.55-.33-.99-.33-.22,0-.44,0-.66,.11-.22,0-.55,.11-.77,.22l-.22-.88c.22-.11,.44-.11,.77-.22,.33-.11,.66-.11,.99-.11,.77,0,1.43,.22,1.76,.55,.44,.33,.66,.88,.66,1.54v2.97c0,.22,0,.44,.11,.66h-1.1c0-.11,0-.22-.11-.33v-.44h0c-.11,.22-.33,.44-.66,.66-.33,.11-.66,.22-.99,.22-.22,0-.44,0-.66-.11-.22-.11-.44-.11-.66-.33-.22-.11-.33-.33-.44-.55-.11-.22-.22-.44-.22-.77,0-.44,.11-.66,.33-.99,.22-.22,.44-.44,.77-.55,.33-.11,.66-.22,1.1-.22s.88-.11,1.32-.11v-.11h0Zm-.22,.99h-.77c-.22,0-.44,.11-.66,.11-.22,.11-.33,.22-.44,.33-.11,.11-.22,.33-.22,.55s.11,.44,.22,.66c.11,.11,.33,.22,.66,.22,.22,0,.44,0,.66-.11,.22-.11,.33-.22,.44-.33,.11-.11,.22-.33,.22-.44,.11-.22,.11-.33,.11-.55v-.44h-.22Z"/>
      <path class="cls-2" d="M85.2,21.03c-.11-.11-.33-.11-.44-.11h-.44c-.33,0-.55,0-.77,.11-.22,.11-.44,.22-.55,.44-.11,.22-.22,.33-.33,.66-.11,.22-.11,.44-.11,.77,0,.22,0,.55,.11,.77,.11,.22,.22,.44,.33,.66,.11,.22,.33,.33,.55,.44,.22,.11,.44,.11,.77,.11h.55c.11,0,.33-.11,.44-.11l.22,.88c-.22,.11-.44,.11-.66,.11h-.66c-.44,0-.88-.11-1.32-.22-.33-.11-.66-.33-.88-.55-.22-.22-.44-.55-.55-.88-.11-.33-.22-.77-.22-1.1,0-.44,.11-.77,.22-1.1,.11-.33,.33-.66,.55-.88,.22-.22,.55-.44,.88-.55,.33-.11,.77-.22,1.21-.22,.55,0,.88,.11,1.32,.22l-.22,.55Z"/>
      <path class="cls-2" d="M86.08,20.04h.88v-1.43h1.21v1.43h1.21v.88h-1.21v3.3c0,.11,0,.22,.11,.22,0,.11,.11,.11,.22,.11h.88v.88h-.88c-.33,0-.55,0-.77-.11-.22-.11-.33-.22-.44-.33-.11-.11-.22-.33-.22-.44v-3.63h-.88v-.88s-.11,0-.11,0Z"/>
      <path class="cls-2" d="M91.7,17.94v1.1h-1.21v-1.1s1.21,0,1.21,0Zm0,2.09v5.39h-1.21v-5.39h1.21Z"/>
      <path class="cls-2" d="M95.33,24.44h0l1.54-4.4h1.32l-2.09,5.39h-1.43l-2.09-5.39h1.32l1.43,4.4Z"/>
      <path class="cls-2" d="M99.62,23.12c0,.55,.22,.88,.55,1.21,.33,.33,.77,.44,1.32,.44,.22,0,.44,0,.77-.11,.22,0,.44-.11,.66-.22l.11,.88c-.44,.11-.99,.22-1.65,.22-.44,0-.88-.11-1.32-.22-.33-.11-.66-.33-.88-.55-.22-.22-.44-.55-.55-.88-.11-.33-.22-.77-.22-1.1s.11-.77,.22-1.1c.11-.33,.33-.66,.55-.88,.22-.22,.55-.44,.88-.55,.33-.11,.66-.22,1.1-.22s.77,.11,.99,.22c.33,.11,.55,.33,.77,.55,.22,.22,.33,.55,.44,.88,.11,.33,.11,.66,.11,1.1v.33h-3.85Zm1.43-2.31c-.44,0-.77,.11-.99,.44-.22,.22-.44,.66-.44,1.1h2.75c0-.44-.11-.77-.33-1.1-.22-.33-.55-.44-.99-.44Z"/>
      <path class="cls-2" d="M53.39,28.95h4.29v.99h-3.08v2.09h2.86v.99h-2.86v2.31h3.19v.99h-4.4v-7.38Z"/>
      <path class="cls-2" d="M60.21,30.93v.77h0c.11-.33,.44-.55,.66-.66,.33-.11,.66-.22,.99-.22,.66,0,1.1,.22,1.43,.55,.33,.33,.55,.88,.55,1.43v3.52h-1.1v-3.85c0-.22-.11-.33-.22-.44-.11-.11-.22-.22-.33-.33-.11-.11-.33-.11-.55-.11s-.33,0-.44,.11c-.11,.11-.33,.11-.44,.33-.11,.11-.22,.33-.33,.55-.11,.22-.11,.44-.11,.77v2.97h-1.21v-5.39h1.1Z"/>
      <path class="cls-2" d="M64.84,30.93h.88v-1.43h1.21v1.43h1.32v.88h-1.21v3.3c0,.11,0,.22,.11,.22,0,.11,.11,.11,.22,.11h.88v.88h-.88c-.33,0-.55,0-.77-.11-.22-.11-.33-.22-.44-.33-.11-.11-.22-.33-.22-.44v-3.74h-.88v-.77h-.22Z"/>
      <path class="cls-2" d="M70.12,33.9c0,.55,.22,.88,.55,1.21,.33,.33,.77,.44,1.32,.44,.22,0,.44,0,.77-.11,.22,0,.44-.11,.66-.22l.11,.88c-.44,.11-.99,.22-1.65,.22-.44,0-.88-.11-1.32-.22-.33-.11-.66-.33-.88-.55-.22-.22-.44-.55-.55-.88-.11-.33-.22-.77-.22-1.1,0-.44,.11-.77,.22-1.1,.11-.33,.33-.66,.55-.88,.22-.22,.55-.44,.88-.55,.33-.11,.66-.22,1.1-.22s.77,.11,.99,.22c.33,.11,.55,.33,.77,.55,.22,.22,.33,.55,.44,.88,.11,.33,.11,.66,.11,1.1v.55h-3.85v-.22h0Zm1.43-2.31c-.44,0-.77,.11-.99,.44-.22,.22-.44,.66-.44,1.1h2.75c0-.44-.11-.77-.33-1.1-.22-.33-.55-.44-.99-.44Z"/>
      <path class="cls-2" d="M78.05,31.7h-.44c-.11,0-.33,0-.55,.11-.22,.11-.33,.22-.44,.33-.11,.11-.22,.33-.33,.55-.11,.22-.11,.55-.11,.77v2.86h-1.21v-5.4h1.21v.77h0c.22-.55,.77-.88,1.43-.88h.44v.88h0Z"/>
      <path class="cls-2" d="M78.6,30.93h.88v-1.43h1.21v1.43h1.21v.88h-1.21v3.3c0,.11,0,.22,.11,.22,0,.11,.11,.11,.22,.11h.88v.88h-.88c-.33,0-.55,0-.77-.11-.22-.11-.33-.22-.44-.33-.11-.11-.22-.33-.22-.44v-3.74h-.88v-.77h-.11Z"/>
      <path class="cls-2" d="M86.19,32.8c0-.33-.11-.66-.33-.88-.22-.22-.55-.33-.99-.33-.22,0-.44,0-.66,.11-.22,0-.55,.11-.77,.22l-.22-.88c.22-.11,.44-.11,.77-.22,.33-.11,.66-.11,.99-.11,.77,0,1.43,.22,1.76,.55,.44,.33,.66,.88,.66,1.54v2.97c0,.22,0,.44,.11,.66h-1.1c0-.11,0-.22-.11-.33v-.44h0c-.11,.22-.33,.44-.66,.66-.33,.11-.66,.22-.99,.22-.22,0-.44,0-.66-.11-.22-.11-.44-.11-.66-.33-.22-.11-.33-.33-.44-.55-.11-.22-.22-.44-.22-.77,0-.44,.11-.66,.33-.99,.22-.22,.44-.44,.77-.55,.33-.11,.66-.22,1.1-.22s.88-.11,1.32-.11v-.11h0Zm-.22,.88h-.77c-.22,0-.44,.11-.66,.11-.22,.11-.33,.22-.44,.33-.11,.11-.22,.33-.22,.55s.11,.44,.22,.66c.11,.11,.33,.22,.66,.22,.22,0,.44,0,.66-.11,.22-.11,.33-.22,.44-.33,.11-.11,.22-.33,.22-.44,.11-.22,.11-.33,.11-.55v-.44h-.22Z"/>
      <path class="cls-2" d="M90.05,28.84v1.1h-1.21v-1.1h1.21Zm0,2.09v5.39h-1.21v-5.39h1.21Z"/>
      <path class="cls-2" d="M92.8,30.93v.77h0c.11-.33,.44-.55,.66-.66,.33-.11,.66-.22,.99-.22,.66,0,1.1,.22,1.43,.55,.33,.33,.55,.88,.55,1.43v3.52h-1.21v-3.85c0-.22-.11-.33-.22-.44-.11-.11-.22-.22-.33-.33-.11-.11-.33-.11-.55-.11s-.33,0-.44,.11c-.11,.11-.33,.11-.44,.33-.11,.11-.22,.33-.33,.55-.11,.22-.11,.44-.11,.77v2.97h-1.21v-5.39h1.21Z"/>
      <path class="cls-2" d="M99.07,30.93v.77h0c.11-.33,.33-.55,.66-.66,.33-.11,.66-.22,.99-.22,.77,0,1.32,.33,1.65,.88h0c.22-.33,.44-.55,.77-.66,.33-.22,.66-.22,.99-.22s.66,0,.88,.11c.22,.11,.44,.22,.66,.44,.22,.22,.33,.33,.33,.66,.11,.22,.11,.55,.11,.77v3.52h-1.21v-3.85c0-.11-.11-.33-.11-.44s-.22-.22-.33-.33c-.11-.11-.33-.11-.55-.11-.11,0-.33,0-.44,.11-.11,0-.33,.11-.44,.22-.11,.11-.22,.22-.22,.44-.11,.22-.11,.33-.11,.66v3.3h-1.21v-3.85c0-.22-.11-.33-.11-.44-.11-.11-.22-.22-.33-.33-.11-.11-.33-.11-.55-.11-.11,0-.33,0-.44,.11-.11,.11-.33,.11-.44,.22-.11,.11-.22,.33-.33,.44-.11,.33-.22,.66-.22,.88v3.08h-1.21v-5.39h1.21Z"/>
      <path class="cls-2" d="M108.32,33.9c0,.55,.22,.88,.55,1.21,.33,.33,.77,.44,1.32,.44,.22,0,.44,0,.77-.11,.22,0,.44-.11,.66-.22l.11,.88c-.44,.11-.99,.22-1.65,.22-.44,0-.88-.11-1.32-.22-.33-.11-.66-.33-.88-.55-.22-.22-.44-.55-.55-.88-.11-.33-.22-.77-.22-1.1,0-.44,.11-.77,.22-1.1,.11-.33,.33-.66,.55-.88,.22-.22,.55-.44,.88-.55,.33-.11,.66-.22,1.1-.22s.77,.11,.99,.22c.33,.11,.55,.33,.77,.55,.22,.22,.33,.55,.44,.88,.11,.33,.11,.66,.11,1.1v.55h-3.85v-.22h0Zm1.54-2.31c-.44,0-.77,.11-.99,.44-.22,.22-.44,.66-.44,1.1h2.75c0-.44-.11-.77-.33-1.1-.33-.33-.66-.44-.99-.44Z"/>
      <path class="cls-2" d="M114.48,30.93v.77h0c.11-.33,.44-.55,.66-.66,.33-.11,.66-.22,.99-.22,.66,0,1.1,.22,1.43,.55,.33,.33,.55,.88,.55,1.43v3.52h-1.21v-3.85c0-.22-.11-.33-.22-.44-.11-.11-.22-.22-.33-.33-.11-.11-.33-.11-.55-.11s-.33,0-.44,.11c-.11,.11-.33,.11-.44,.33-.11,.11-.22,.33-.33,.55-.11,.22-.11,.44-.11,.77v2.97h-1.1v-5.39h1.1Z"/>
      <path class="cls-2" d="M119.22,30.93h.88v-1.43h1.21v1.43h1.21v.88h-1.21v3.3c0,.11,0,.22,.11,.22,0,.11,.11,.11,.22,.11h.88v.88h-.88c-.33,0-.55,0-.77-.11-.22-.11-.33-.22-.44-.33-.11-.11-.22-.33-.22-.44v-3.74h-.88v-.77h-.11Z"/>
    </g>
  </g>
</svg>