<?xml version="1.0" encoding="UTF-8"?>
<svg id="Layer_2" data-name="Layer 2" xmlns="http://www.w3.org/2000/svg" viewBox="0 0 197.67 33.75">
  <defs>
    <style>
      .cls-1 {
        fill: #fff;
      }
    </style>
  </defs>
  <g id="Layer_1-2" data-name="Layer 1">
    <g>
      <path class="cls-1" d="M28.35,7.87c-1.56,.9-3.1,1.79-4.65,2.68-.28,.16-.48-.07-.69-.19-1.72-.97-3.44-1.94-5.13-2.95-.55-.33-.66-.21-.65,.38,.02,1.32-.02,8.72,0,10.04,0,.47-.15,.61-.61,.6-1.24-.03-2.48-.03-3.72,0-.46,.01-.62-.14-.61-.6,.02-1.29,0-8.67-.02-9.96,0-.23,.14-.55-.16-.67-.26-.1-.47,.1-.68,.24-1.59,1.09-3.32,1.93-4.95,2.94-.32,.2-.59,.28-.97,.06-1.45-.87-2.93-1.7-4.5-2.61,.57-.34,1.07-.65,1.57-.94C6.37,4.67,10.19,2.47,13.98,.24c.55-.32,.94-.32,1.5,.01,2.56,1.53,5.16,3.01,7.75,4.5,1.5,.87,2.99,1.73,4.49,2.6,.21,.12,.46,.21,.64,.51Z"/>
      <path class="cls-1" d="M197.67,20.7c-4.56,0-9.12-.01-13.68-.03-.38,0-.48,.1-.44,.47,.11,1.22,.37,2.4,1.08,3.43,1.31,1.93,4.18,2.52,6.16,1.27,.41-.26,.83-.58,.99-1.03,.32-.92,.96-.98,1.77-.94,1.04,.05,2.08,.06,3.12,0,.72-.04,.65,.23,.46,.72-1.12,2.93-3.14,4.84-6.22,5.57-1.78,.42-3.57,.44-5.35,.05-2.9-.65-4.98-2.39-6.07-5.13-1.55-3.88-1.46-7.78,.38-11.55,1.4-2.87,3.83-4.35,6.97-4.71,2.29-.26,4.51-.04,6.53,1.16,2.67,1.59,3.73,4.15,4.17,7.07,.02,.15-.09,.37,.16,.45v.15c-.21,.96-.23,1.93,0,2.89,0,.05,0,.1,0,.15Zm-9.58-3.27h3.94c.25,0,.47,.05,.49-.36,.12-2.06-1.27-4.04-3.21-4.5-2.26-.53-4.32,.49-5.12,2.57-.2,.51-.28,1.07-.44,1.6-.15,.51-.05,.72,.54,.7,1.26-.04,2.53-.01,3.79-.01Z"/>
      <path class="cls-1" d="M197.67,20.55c-.23-.96-.21-1.93,0-2.89v2.89Z"/>
      <path class="cls-1" d="M108.39,9.47c1.94,0,3.89,.01,5.83-.01,.44,0,.47,.27,.54,.57,.86,3.72,1.73,7.44,2.58,11.16,.29,1.28,.53,2.58,.79,3.87,.04,.17,.03,.36,.24,.47,1.07-5.16,2.43-10.24,3.7-15.34,.14-.57,.37-.76,.96-.73,1.11,.06,2.23,.06,3.34,0,.56-.03,.73,.2,.85,.69,1.13,4.9,2.47,9.76,3.44,14.7,.03,.17,.09,.33,.16,.59,1.1-5.11,2.38-10.08,3.57-15.07,.16-.68,.4-.96,1.14-.91,1.13,.08,2.28,.06,3.42,0,.65-.03,.7,.17,.53,.72-1.02,3.39-2.02,6.78-3.03,10.17-.94,3.15-1.89,6.29-2.8,9.45-.15,.54-.38,.7-.93,.68-1.32-.04-2.64-.04-3.95,0-.58,.02-.81-.13-.95-.73-1.06-4.71-2.17-9.41-3.27-14.11-.03-.12-.06-.24-.14-.55-.59,3.08-1.3,5.94-2.03,8.8-.51,2.01-1.03,4.02-1.52,6.03-.1,.42-.27,.57-.71,.56-1.42-.03-2.84-.03-4.26,0-.52,.01-.73-.13-.87-.66-1.69-6.06-3.42-12.11-5.12-18.18-.25-.9-.67-1.62-1.51-2.17Z"/>
      <path class="cls-1" d="M12.23,16.52c.73,.41,1.35,.71,1.9,1.09,.45,.32,.81,.25,1.22-.03,.4-.27,.85-.46,1.24-.74,.6-.43,.67-.17,.67,.41-.02,2.84,0,5.68,0,8.51v.8c.7-.4,1.28-.74,1.87-1.07,1.56-.9,3.11-1.81,4.68-2.68,.45-.25,.63-.55,.63-1.07-.01-2.89,.02-5.78,0-8.67,0-.59,.19-.91,.7-1.18,1.25-.67,2.46-1.41,3.69-2.11,.17-.1,.35-.17,.6-.28v.67c.01,4.79,.01,9.58,.04,14.37,0,.5-.14,.8-.58,1.1-1.47,.99-3.04,1.77-4.56,2.66-2.99,1.75-6,3.48-8.98,5.25-.46,.27-.78,.25-1.23-.01-4.43-2.59-8.88-5.15-13.34-7.7C.22,25.53,0,25.19,0,24.54c.05-4.74,.04-9.48,.06-14.22,0-.83,0-.83,.7-.43,1.23,.7,2.45,1.43,3.7,2.1,.44,.24,.58,.53,.58,1.02-.02,2.91,.01,5.83,0,8.74,0,.53,.16,.82,.62,1.07,1.99,1.11,3.96,2.25,5.92,3.41,.53,.32,.66,.25,.65-.37-.02-2.81,0-5.62,0-8.44,0-.25,0-.5,0-.92Z"/>
      <path class="cls-1" d="M89.57,3.08c1.77,0,3.55,.02,5.32-.01,.55-.01,.73,.11,.72,.7-.04,2.64-.02,5.27-.02,7.91v.57c2.21-2.92,5.09-3.5,8.28-2.73,2.81,.68,4.16,2.78,4.64,5.51,.12,.7,.16,1.41,.16,2.12,0,4.21-.01,8.42,0,12.62,0,.55-.11,.74-.69,.71-1.24-.05-2.48-.04-3.72,0-.5,.01-.63-.13-.63-.62,.02-3.98,.01-7.96,0-11.94,0-.43-.02-.86-.09-1.28-.34-2.04-1.39-3.11-3.14-3.22-2.33-.15-3.76,.74-4.4,2.76-.34,1.07-.42,2.18-.42,3.3,0,3.45-.01,6.89,.01,10.34,0,.52-.11,.69-.66,.67-1.24-.04-2.49-.05-3.72,0-.6,.03-.69-.18-.69-.72,.02-8.21,0-16.42,.02-24.64,0-.88-.16-1.59-.99-2.04Z"/>
      <path class="cls-1" d="M152.49,28.07c-2.34,2.68-5.34,2.78-8.44,2.06-2.68-.62-4.33-2.76-4.56-5.51-.24-2.93,1.01-5.16,3.59-6.35,1.71-.79,3.52-1.07,5.39-1.09,1.12-.02,2.23-.04,3.35,.01,.6,.03,.69-.18,.69-.73,0-3.36-2.07-4.85-5.32-3.81-.99,.32-1.57,1.02-1.77,2-.11,.53-.35,.62-.82,.6-1.16-.03-2.33-.06-3.5,0-.67,.04-.68-.26-.59-.75,.5-2.68,2.01-4.49,4.65-5.26,2.59-.76,5.2-.75,7.78,0,2.82,.83,4.35,2.82,4.43,5.74,.07,2.2,.05,4.41,.06,6.61,.02,2.63-.09,5.27,.21,7.89,.05,.42-.09,.51-.48,.5-1.22-.02-2.43-.04-3.65,0-.55,.02-.76-.16-.83-.69-.06-.42,.04-.86-.2-1.26Zm0-6.46c0-.26-.02-.41,0-.56,.1-.6-.15-.78-.74-.74-.6,.05-1.21,0-1.82,.01-1.26,.05-2.53,.05-3.71,.62-1.97,.95-2.26,3.85-.55,5.2,1.33,1.05,5.15,.98,6.2-1.46,.44-1.02,.54-2.09,.61-3.07Z"/>
      <path class="cls-1" d="M67.28,23.9c-1.06,3.78-4.04,6.24-7.87,6.53-1.52,.11-3.04,.1-4.51-.36-3-.93-4.89-2.99-5.82-5.91-1.03-3.24-.94-6.5,.3-9.67,1.66-4.25,5.19-5.84,9.17-5.74,3.52,.08,6.32,1.46,7.92,4.77,.77,1.6,1.08,3.31,1.12,5.07,.04,2.1,.02,2.1-2.08,2.1-3.78,0-7.55,.01-11.33-.01-.57,0-.74,.11-.64,.71,.14,.88,.29,1.74,.69,2.55,1.15,2.34,3.94,3.26,6.28,2.07,.73-.37,1.22-.97,1.55-1.71,.13-.3,.3-.4,.62-.4,1.52,.02,3.04,0,4.61,0Zm-9.32-6.47c1.32,0,2.63-.01,3.95,0,.41,0,.57-.08,.57-.53-.03-3.34-3.03-5.37-6.12-4.1-1.63,.67-2.26,2.08-2.58,3.68-.19,.94-.17,.95,.76,.95,1.14,0,2.28,0,3.42,0Z"/>
      <path class="cls-1" d="M85.72,15.99c-.2,0-.41-.02-.61,0-1.18,.17-1.89-.09-2.48-1.39-1.22-2.66-5.37-2.44-6.95,.23-.61,1.02-.87,2.15-.99,3.32-.19,1.89-.1,3.75,.6,5.53,.67,1.69,1.87,2.74,3.77,2.8,1.93,.06,3.22-.86,3.94-2.62,.13-.33,.29-.46,.66-.45,1.32,.02,2.64,.02,3.95,0,.41,0,.58,.02,.44,.53-.97,3.81-3.97,6.29-7.91,6.5-1.4,.07-2.79,.05-4.14-.35-2.47-.73-4.32-2.23-5.35-4.6-1.72-3.95-1.74-7.95,.26-11.8,1.87-3.61,5.04-5.09,9.03-4.94,2.03,.08,3.9,.61,5.48,1.93,1.48,1.23,2.33,2.84,2.69,4.71,.08,.42,.03,.65-.51,.6-.63-.05-1.26-.01-1.9-.01Z"/>
      <path class="cls-1" d="M157.41,9.47c1.94,0,3.88,.01,5.82-.01,.43,0,.49,.24,.57,.54,1.46,5.02,2.98,10.03,4.19,15.12,.03,.11,.07,.22,.17,.56,.53-2.12,1.02-4,1.62-5.86,1.04-3.27,2.07-6.55,3.09-9.83,.13-.41,.31-.55,.74-.53,1.29,.03,2.59,.04,3.88,0,.6-.02,.59,.16,.42,.65-2.35,6.61-4.69,13.23-7.02,19.86-.15,.42-.36,.52-.77,.51-1.39-.02-2.79-.03-4.18,0-.48,.01-.69-.12-.85-.6-2.02-6.04-4.07-12.06-6.09-18.09-.31-.93-.67-1.79-1.59-2.31Z"/>
      <path class="cls-1" d="M40.83,9.42c1.9,0,3.8,.02,5.7-.01,.5,0,.66,.13,.64,.63-.04,.91-.03,1.82,0,2.74,.01,.43-.12,.57-.56,.56-1.04-.03-2.08,.01-3.12-.02-.46-.01-.61,.12-.6,.6,.02,3.44,0,6.89,.02,10.33,.02,1.97,.7,2.54,2.89,2.35,.72-.06,.89,.12,.84,.79-.06,.73-.04,1.47,0,2.2,.02,.42-.13,.59-.51,.66-1.53,.28-3.08,.35-4.61,.1-2.12-.35-3.3-1.69-3.55-3.86-.08-.7-.12-1.41-.13-2.12-.01-3.37-.04-6.74,.02-10.1,.01-.83-.25-1.04-1-.95-.47,.06-.97-.03-1.44,.02-.66,.07-.97-.1-.89-.85,.07-.73,.06-1.47,0-2.2-.05-.66,.11-.91,.85-.89,1.82,.06,3.65,.02,5.47,.02Z"/>
      <path class="cls-1" d="M37.67,5.68c0-.71,.01-1.42,0-2.12-.01-.36,.11-.48,.48-.48,1.42,.02,2.83,.02,4.25,0,.39,0,.46,.15,.46,.49,0,2.27-2.52,4.73-4.77,4.68-.36,0-.42-.14-.42-.44,.01-.71,0-1.41,0-2.12Z"/>
    </g>
  </g>
</svg>