<?xml version="1.0" encoding="utf-8"?>
<!-- Generator: Adobe Illustrator 22.0.1, SVG Export Plug-In . SVG Version: 6.00 Build 0)  -->
<svg version="1.1" id="Layer_1" xmlns="http://www.w3.org/2000/svg" xmlns:xlink="http://www.w3.org/1999/xlink" x="0px" y="0px"
	 viewBox="0 0 148.258 50" enable-background="new 0 0 148.258 50" xml:space="preserve">
<g>
	<path fill="#FA5A5D" d="M0.942,38.287c-0.074-1.671,0.401-3.178,1.04-4.659c0.622-1.442,1.29-2.863,1.934-4.295
		c0.453-1.007,0.94-1.998,1.416-2.994c0.595-1.244,1.192-2.488,1.793-3.729c0.528-1.09,1.061-2.177,1.595-3.263
		c1.058-2.152,2.09-4.319,3.191-6.449c0.562-1.088,1.082-2.199,1.675-3.269c0.65-1.172,1.184-2.405,1.94-3.521
		c1.037-1.531,2.353-2.73,4.108-3.324c2.084-0.705,4.156-0.564,6.107,0.496c1.109,0.603,1.976,1.505,2.719,2.52
		c0.631,0.861,1.118,1.805,1.597,2.756c0.714,1.418,1.43,2.835,2.165,4.242c1.151,2.201,2.245,4.431,3.345,6.657
		c0.445,0.901,0.899,1.797,1.331,2.704c0.861,1.804,1.712,3.613,2.561,5.423c0.457,0.973,0.867,1.969,1.357,2.925
		c0.658,1.282,1.231,2.603,1.773,3.932c0.754,1.849,0.904,3.768,0.448,5.734c-0.2,0.864-0.465,1.7-0.85,2.493
		c-0.304,0.627-0.698,1.204-1.132,1.754c-0.688,0.87-1.512,1.597-2.454,2.161c-1.028,0.616-2.135,1.079-3.33,1.276
		c-2.886,0.474-5.52-0.241-7.987-1.722c-1.19-0.714-2.264-1.576-3.278-2.522c-0.6-0.56-1.22-1.099-1.729-1.747
		c-0.139-0.177-0.271-0.172-0.415-0.006c-0.38,0.439-0.8,0.844-1.2,1.26c-0.43,0.447-0.911,0.864-1.395,1.266
		c-1.112,0.922-2.285,1.755-3.586,2.388c-1.291,0.628-2.649,1.014-4.087,1.169c-2.048,0.22-3.95-0.186-5.735-1.176
		c-1.593-0.883-2.828-2.138-3.725-3.721C1.295,41.558,0.866,39.967,0.942,38.287z M33.76,45.084c0.584,0.074,1.315-0.09,2.001-0.353
		c1.81-0.694,3.192-1.859,3.979-3.695c0.651-1.519,0.735-3.049,0.357-4.635c-0.218-0.916-0.635-1.75-1.02-2.599
		c-0.649-1.431-1.287-2.866-1.951-4.289c-0.732-1.568-1.488-3.125-2.234-4.686c-0.538-1.126-1.072-2.254-1.615-3.378
		c-0.834-1.725-1.728-3.42-2.553-5.15c-0.285-0.597-0.618-1.177-0.912-1.771c-1.006-2.033-2.02-4.062-3.103-6.056
		c-0.571-1.051-1.308-1.955-2.398-2.502c-1.885-0.946-3.875-0.548-5.376,0.8c-0.64,0.575-1.07,1.314-1.465,2.063
		c-1.123,2.133-2.234,4.272-3.322,6.423c-1.134,2.243-2.238,4.501-3.35,6.754c-0.611,1.238-1.223,2.476-1.817,3.723
		c-0.692,1.454-1.359,2.92-2.047,4.375c-0.834,1.764-1.705,3.513-2.434,5.324c-0.569,1.415-0.809,2.886-0.471,4.395
		c0.343,1.527,1.132,2.793,2.352,3.796c1.241,1.021,2.669,1.492,4.251,1.519c1.673,0.029,3.177-0.537,4.592-1.384
		c1.497-0.896,2.804-2.024,4.001-3.285c0.24-0.254,0.511-0.475,0.715-0.77c0.128-0.186,0.1-0.279-0.022-0.435
		c-1.13-1.447-2.193-2.937-3.112-4.533c-0.919-1.595-1.641-3.261-2.117-5.038c-0.363-1.358-0.52-2.737-0.314-4.129
		c0.215-1.454,0.807-2.765,1.799-3.854c1.41-1.547,3.197-2.388,5.276-2.535c1.648-0.116,3.228,0.173,4.69,1.013
		c1.567,0.901,2.664,2.185,3.281,3.878c0.681,1.871,0.525,3.762,0.081,5.648c-0.418,1.773-1.197,3.4-2.087,4.978
		c-0.907,1.606-1.974,3.102-3.136,4.53c-0.159,0.196-0.159,0.338,0.025,0.491c0.539,0.448,0.951,1.017,1.472,1.489
		c0.995,0.901,2,1.77,3.152,2.474C30.366,44.558,31.89,45.094,33.76,45.084z M26.854,26.907c-0.013-0.376,0.003-0.748-0.071-1.123
		c-0.26-1.31-0.906-2.363-2.055-3.056c-1.052-0.634-2.204-0.851-3.423-0.638c-2.777,0.487-4.022,2.517-3.995,4.922
		c0.011,0.927,0.227,1.842,0.53,2.724c0.389,1.136,0.879,2.226,1.484,3.265c0.774,1.33,1.626,2.605,2.578,3.815
		c0.211,0.268,0.299,0.134,0.417-0.025c0.381-0.513,0.762-1.025,1.126-1.55c0.947-1.364,1.79-2.785,2.447-4.316
		C26.444,29.637,26.871,28.328,26.854,26.907z"/>
	<path fill="#FA5A5D" d="M96.261,35.102c0,0.246,0.002,0.4,0,0.553c-0.006,0.448-0.242,0.732-0.675,0.737
		c-1.155,0.014-2.311,0.003-3.466,0.006c-0.163,0-0.255-0.045-0.24-0.227c0.008-0.097-0.002-0.194-0.002-0.292
		c0-8.148,0-16.296,0.001-24.444c0-0.59-0.04-0.512,0.502-0.514c1.192-0.004,2.384,0.009,3.575-0.008
		c0.303-0.004,0.389,0.083,0.388,0.387c-0.011,2.833-0.008,5.667-0.008,8.5c0,0.165,0,0.329,0,0.576
		c0.447-0.355,0.813-0.661,1.234-0.898c0.762-0.429,1.576-0.69,2.439-0.743c1.454-0.089,2.878,0.071,4.24,0.641
		c0.808,0.338,1.549,0.785,2.212,1.349c1.217,1.036,2.09,2.328,2.608,3.832c0.298,0.865,0.444,1.774,0.482,2.7
		c0.063,1.499-0.179,2.942-0.735,4.33c-0.33,0.825-0.833,1.558-1.407,2.228c-1.03,1.203-2.303,2.085-3.814,2.558
		c-1.69,0.529-3.406,0.7-5.131,0.094c-0.734-0.258-1.367-0.67-1.953-1.168C96.456,35.254,96.399,35.211,96.261,35.102z
		 M96.337,27.72c0,0.912,0.002,1.824-0.002,2.735c-0.001,0.175,0.009,0.346,0.133,0.478c0.423,0.451,0.857,0.887,1.424,1.167
		c0.943,0.467,1.924,0.591,2.964,0.433c1.495-0.228,2.745-0.836,3.52-2.189c1.064-1.859,1.013-3.732-0.159-5.502
		c-0.932-1.407-2.397-1.96-4.025-2.005c-1.512-0.042-2.754,0.612-3.753,1.74c-0.115,0.13-0.101,0.266-0.101,0.408
		C96.335,25.896,96.337,26.808,96.337,27.72z"/>
	<path fill="#FA5A5D" d="M133.763,20.326c0.463-0.362,0.923-0.704,1.439-0.964c0.815-0.411,1.67-0.61,2.583-0.638
		c1.316-0.041,2.589,0.14,3.805,0.645c1.287,0.535,2.378,1.352,3.275,2.415c1.054,1.25,1.687,2.709,1.952,4.311
		c0.182,1.102,0.152,2.222,0.002,3.331c-0.133,0.981-0.469,1.906-0.909,2.783c-0.269,0.535-0.634,1.025-1.011,1.498
		c-0.538,0.674-1.181,1.233-1.903,1.698c-1.176,0.758-2.457,1.214-3.857,1.366c-0.927,0.101-1.834,0.084-2.739-0.14
		c-0.899-0.222-1.702-0.62-2.377-1.261c-0.053-0.05-0.108-0.097-0.167-0.14c-0.027-0.019-0.065-0.024-0.112-0.04
		c-0.112,0.253,0.025,0.527-0.097,0.777c-0.138,0.284-0.356,0.426-0.653,0.427c-1.155,0.008-2.311-0.003-3.466,0.007
		c-0.233,0.002-0.3-0.089-0.282-0.301c0.011-0.133,0-0.267,0-0.401c0-8.088,0-16.176,0.001-24.263c0-0.59-0.039-0.511,0.503-0.513
		c1.192-0.004,2.384,0.008,3.576-0.008c0.304-0.004,0.387,0.085,0.386,0.389c-0.012,2.846-0.009,5.692-0.007,8.538
		C133.703,19.994,133.665,20.153,133.763,20.326z M133.703,27.716c0,0.9,0.006,1.8-0.004,2.7c-0.002,0.207,0.042,0.384,0.172,0.538
		c0.46,0.545,1.003,0.978,1.661,1.266c1.077,0.471,2.192,0.496,3.305,0.215c1.526-0.386,2.682-1.252,3.293-2.751
		c0.316-0.776,0.373-1.584,0.327-2.411c-0.065-1.147-0.474-2.155-1.269-2.975c-0.977-1.008-2.242-1.406-3.605-1.465
		c-1.227-0.053-2.283,0.444-3.228,1.199c-0.471,0.376-0.731,0.806-0.668,1.46C133.758,26.227,133.703,26.974,133.703,27.716z"/>
	<path fill="#FA5A5D" d="M65.531,35.161c-0.347,0.293-0.688,0.593-1.073,0.84c-0.659,0.422-1.384,0.64-2.14,0.752
		c-1.554,0.23-3.065,0.016-4.521-0.555c-1.465-0.574-2.675-1.506-3.629-2.751c-0.986-1.286-1.555-2.763-1.762-4.358
		c-0.189-1.452-0.053-2.892,0.384-4.303c0.375-1.209,0.981-2.269,1.824-3.212c1.449-1.621,3.25-2.532,5.401-2.778
		c1.191-0.136,2.365-0.122,3.513,0.296c0.751,0.274,1.403,0.696,2,1.246c0.122-0.154,0.067-0.316,0.073-0.463
		c0.016-0.421,0.262-0.7,0.671-0.703c1.143-0.009,2.286,0.004,3.43-0.009c0.269-0.003,0.288,0.129,0.287,0.337
		c-0.005,1.155-0.001,2.311-0.001,3.466c0,4.318,0,8.635,0,12.952c0,0.478-0.001,0.479-0.466,0.479c-0.985,0-1.97,0-2.955,0
		c-0.757,0-0.944-0.183-0.967-0.936C65.598,35.371,65.636,35.268,65.531,35.161z M65.603,27.779c0-0.912-0.002-1.824,0.001-2.736
		c0.001-0.174-0.002-0.349-0.129-0.479c-0.288-0.295-0.562-0.604-0.91-0.836c-1.253-0.833-2.617-1.029-4.058-0.673
		c-1.573,0.389-2.738,1.283-3.327,2.835c-0.328,0.864-0.383,1.747-0.266,2.669c0.173,1.374,0.829,2.441,1.946,3.202
		c1.142,0.779,2.436,1.049,3.806,0.829c1.071-0.172,1.986-0.667,2.713-1.482c0.156-0.175,0.235-0.377,0.231-0.629
		C65.595,29.579,65.604,28.679,65.603,27.779z"/>
	<path fill="#FA5A5D" d="M115.509,20.394c0.215-0.087,0.326-0.289,0.496-0.414c1.117-0.821,2.366-1.241,3.755-1.252
		c1.017-0.008,2.027,0.005,2.998,0.374c1.406,0.534,2.595,1.352,3.399,2.646c0.418,0.673,0.638,1.427,0.76,2.211
		c0.139,0.89,0.147,1.785,0.146,2.682c-0.004,3.113-0.007,6.227,0.005,9.34c0.001,0.331-0.085,0.428-0.421,0.422
		c-1.216-0.02-2.432-0.02-3.648,0.001c-0.331,0.006-0.403-0.101-0.402-0.413c0.01-3.284,0.017-6.567-0.002-9.851
		c-0.005-0.813-0.162-1.611-0.629-2.308c-0.396-0.591-0.988-0.86-1.66-0.995c-1.407-0.283-2.662,0.087-3.809,0.895
		c-0.195,0.137-0.346,0.331-0.548,0.469c-0.204,0.139-0.199,0.371-0.199,0.595c0.001,3.6,0,7.2,0,10.8c0,0.801,0,0.801-0.801,0.801
		c-1.095,0-2.189-0.011-3.284,0.009c-0.312,0.006-0.38-0.096-0.379-0.391c0.008-5.497,0.008-10.994-0.001-16.491
		c0-0.29,0.087-0.367,0.37-0.363c1.009,0.016,2.019,0.006,3.028,0.007c0.595,0,0.773,0.185,0.776,0.784
		C115.459,20.092,115.419,20.239,115.509,20.394z"/>
	<path fill="#FA5A5D" d="M84.219,20.373c0.478-0.364,0.874-0.69,1.331-0.937c0.643-0.347,1.311-0.633,2.03-0.688
		c0.769-0.059,1.549-0.065,2.318,0.112c0.255,0.059,0.308,0.163,0.307,0.389c-0.006,1.155-0.006,2.31,0.002,3.465
		c0.002,0.271-0.048,0.355-0.354,0.28c-1.24-0.302-2.482-0.335-3.699,0.123c-0.702,0.265-1.312,0.672-1.823,1.229
		c-0.128,0.139-0.108,0.288-0.108,0.441c-0.002,3.672,0,7.344-0.005,11.016c-0.001,0.685,0.088,0.588-0.606,0.592
		c-1.167,0.006-2.335-0.006-3.502,0.007c-0.265,0.003-0.354-0.062-0.354-0.342c0.007-5.52,0.007-11.041-0.001-16.561
		c0-0.283,0.096-0.341,0.358-0.338c1.094,0.013,2.189,0.006,3.283,0.006c0.581,0,0.811,0.227,0.823,0.809
		C84.221,20.075,84.219,20.172,84.219,20.373z"/>
	<path fill="#FA5A5D" d="M77.141,27.778c0,2.722-0.007,5.445,0.008,8.167c0.002,0.365-0.089,0.47-0.463,0.462
		c-1.203-0.026-2.406-0.017-3.609-0.004c-0.286,0.003-0.402-0.054-0.402-0.375c0.009-5.494,0.009-10.987,0-16.481
		c0-0.305,0.09-0.39,0.39-0.386c1.227,0.016,2.455,0.02,3.682-0.002c0.337-0.006,0.4,0.109,0.399,0.414
		C77.138,22.308,77.142,25.043,77.141,27.778z"/>
	<path fill="#FA5A5D" d="M74.901,16.838c-1.69,0.064-3.011-1.304-3.012-2.977c-0.001-1.711,1.316-3.015,2.974-3.004
		c1.677,0.011,3.029,1.176,3.051,3.004C77.934,15.571,76.5,16.947,74.901,16.838z"/>
</g>
</svg>
