<?xml version="1.0" encoding="utf-8"?>
<!-- Generator: Adobe Illustrator 22.0.1, SVG Export Plug-In . SVG Version: 6.00 Build 0)  -->
<svg version="1.1" id="Layer_1" xmlns="http://www.w3.org/2000/svg" xmlns:xlink="http://www.w3.org/1999/xlink" x="0px" y="0px"
	 viewBox="0 0 163.359 50" enable-background="new 0 0 163.359 50" xml:space="preserve">
<g>
	<path fill="#FC4400" d="M31.726,33.656c-1.605-0.243-3.334-0.697-5.106-0.957c-3.484-0.511-6.969-0.704-10.485-0.557
		c-3.427,0.144-6.797,0.648-10.134,1.414c-1.226,0.282-1.771,0.038-2.408-1.054c-1.013-1.735-2.031-3.466-3.047-5.199
		c-0.514-0.877-0.34-1.701,0.527-2.625C3.764,21.81,6.068,18.656,8.1,15.29c2.353-3.898,4.074-8.064,5.456-12.386
		c0.461-1.442,0.847-1.709,2.305-1.711c1.87-0.003,3.74-0.01,5.609,0.002c1.419,0.01,1.738,0.239,2.145,1.597
		c1.55,5.163,3.788,10.014,6.723,14.527c1.761,2.708,3.773,5.239,5.984,7.601c0.642,0.686,0.771,1.376,0.289,2.205
		c-1.094,1.886-2.161,3.787-3.241,5.681C33.045,33.379,32.591,33.736,31.726,33.656z M29.307,29.756
		c-0.055-0.229-0.081-0.38-0.127-0.524c-2.404-7.427-4.811-14.853-7.214-22.281c-0.172-0.531-0.316-0.742-0.803-0.185
		c-2.181,2.494-4.402,4.953-6.607,7.427c-2.995,3.361-5.978,6.733-8.992,10.076c-0.563,0.625-0.188,0.73,0.335,0.841
		c1.303,0.277,2.607,0.548,3.911,0.825c4.392,0.932,8.785,1.86,13.176,2.799c1.867,0.399,3.727,0.828,5.595,1.219
		C28.837,30.007,29.278,30.304,29.307,29.756z"/>
	<path fill="#035878" d="M158.847,28.257c-1.501,0-2.909,0-4.317,0c-0.461,0-0.783-0.102-1.093-0.566
		c-1.373-2.056-2.837-4.051-4.248-6.083c-0.321-0.462-0.659-0.716-1.267-0.669c-0.822,0.064-1.659,0.076-2.479-0.001
		c-0.772-0.073-0.89,0.246-0.875,0.921c0.042,1.868-0.008,3.739,0.028,5.608c0.011,0.567-0.143,0.744-0.713,0.715
		c-0.948-0.047-1.902-0.052-2.849,0.001c-0.597,0.034-0.698-0.188-0.697-0.73c0.018-6.62,0.012-13.239,0.01-19.859
		c0-0.401-0.08-0.809,0.563-0.788c3.492,0.114,6.99-0.144,10.48,0.153c3.08,0.262,5.426,2.048,6.223,4.733
		c1.035,3.489-0.451,6.724-3.82,8.215c-0.533,0.236-0.618,0.328-0.246,0.841C155.32,23.196,157.037,25.682,158.847,28.257z
		 M144.583,13.855c0,0.919,0.015,1.838-0.007,2.756c-0.009,0.371,0.087,0.604,0.485,0.583c1.887-0.1,3.786,0.128,5.664-0.144
		c1.175-0.17,2.159-0.715,2.629-1.879c0.82-2.034-0.184-3.885-2.373-4.249c-1.995-0.332-4.02-0.126-6.032-0.157
		c-0.402-0.006-0.367,0.176-0.367,0.427C144.585,12.079,144.583,12.967,144.583,13.855z"/>
	<path fill="#035878" d="M126.617,28.169c-1.404,0-2.688-0.013-3.971,0.008c-0.368,0.006-0.551-0.139-0.684-0.461
		c-0.557-1.352-1.15-2.69-1.685-4.05c-0.162-0.41-0.393-0.556-0.804-0.555c-2.733,0.006-5.467,0.009-8.2-0.002
		c-0.492-0.002-0.735,0.181-0.92,0.658c-0.495,1.276-1.1,2.509-1.596,3.785c-0.189,0.486-0.431,0.647-0.936,0.628
		c-1.01-0.037-2.022-0.029-3.033-0.004c-0.542,0.013-0.616-0.134-0.398-0.628c1.119-2.537,2.197-5.093,3.308-7.634
		c1.828-4.183,3.685-8.354,5.491-12.546c0.236-0.547,0.533-0.738,1.082-0.704c0.536,0.033,1.097,0.128,1.609,0.019
		c1.154-0.245,1.518,0.386,1.917,1.31c2.501,5.79,5.066,11.553,7.606,17.327C125.805,26.234,126.186,27.156,126.617,28.169z
		 M115.323,12.096c-1.081,2.513-2.073,4.82-3.11,7.231c1.974,0,3.845-0.016,5.716,0.01c0.562,0.008,0.435-0.239,0.298-0.556
		C117.292,16.63,116.359,14.479,115.323,12.096z"/>
	<path fill="#035878" d="M47.724,28.169c1.129-2.584,2.186-5.009,3.247-7.433c1.893-4.325,3.803-8.643,5.667-12.98
		c0.338-0.787,0.71-1.218,1.658-1.079c0.816,0.12,1.86-0.272,2.443,0.111c0.606,0.398,0.798,1.446,1.139,2.224
		c2.63,5.995,5.252,11.994,7.875,17.992c0.085,0.195,0.132,0.41,0.235,0.594c0.253,0.453,0.098,0.583-0.377,0.576
		c-1.102-0.018-2.206-0.03-3.308,0.006c-0.472,0.016-0.622-0.229-0.772-0.595c-0.52-1.267-1.073-2.521-1.595-3.788
		c-0.192-0.466-0.428-0.695-1.009-0.686c-2.64,0.039-5.282,0.02-7.923-0.007c-0.558-0.006-0.874,0.178-1.08,0.709
		c-0.486,1.248-1.046,2.468-1.533,3.716c-0.198,0.507-0.483,0.673-1.021,0.653C50.209,28.14,49.046,28.169,47.724,28.169z
		 M62.091,19.291c-1.042-2.411-2.053-4.75-3.114-7.205c-1.084,2.495-2.097,4.825-3.155,7.262c1.907,0,3.662,0.002,5.418-0.002
		C61.476,19.345,61.714,19.316,62.091,19.291z"/>
	<path fill="#035878" d="M95.973,6.818c2.64,0,5.28,0.022,7.92-0.015c0.7-0.01,0.979,0.156,0.914,0.905
		c-0.071,0.821-0.058,1.655-0.003,2.479c0.041,0.612-0.163,0.789-0.763,0.777c-1.679-0.031-3.362,0.047-5.038-0.026
		c-0.717-0.031-0.793,0.23-0.791,0.818c0.015,5.176-0.017,10.353,0.035,15.528c0.009,0.857-0.275,1.018-1.012,0.974
		c-0.837-0.05-1.683-0.073-2.518-0.011c-0.679,0.051-0.882-0.13-0.877-0.838c0.032-5.176-0.01-10.353,0.044-15.528
		c0.009-0.856-0.3-0.971-1.003-0.959c-1.68,0.028-3.362-0.029-5.041,0.023c-0.542,0.017-0.521-0.23-0.518-0.588
		c0.005-0.949,0.034-1.9-0.01-2.848c-0.028-0.591,0.19-0.696,0.743-0.689c2.64,0.033,5.28,0.015,7.92,0.015
		C95.973,6.828,95.973,6.823,95.973,6.818z"/>
	<path fill="#035878" d="M73.435,17.557c0-3.308,0.021-6.617-0.018-9.925c-0.008-0.657,0.199-0.853,0.808-0.831
		c0.911,0.032,1.827,0.076,2.733,0.012c0.683-0.048,0.802,0.207,0.799,0.82c-0.021,5.238,0.007,10.477-0.032,15.715
		c-0.006,0.787,0.219,0.948,0.964,0.937c3.032-0.044,6.065-0.002,9.098-0.032c0.622-0.006,0.875,0.131,0.827,0.799
		c-0.059,0.823-0.032,1.654-0.007,2.48c0.014,0.439-0.058,0.656-0.585,0.654c-4.656-0.02-9.312-0.02-13.969-0.001
		c-0.555,0.002-0.631-0.22-0.628-0.702C73.444,24.173,73.435,20.865,73.435,17.557z"/>
	<path fill="#035878" d="M134.411,17.458c0,3.28-0.026,6.561,0.019,9.84c0.01,0.747-0.216,0.936-0.919,0.889
		c-0.885-0.059-1.778-0.038-2.666-0.005c-0.497,0.019-0.673-0.099-0.671-0.649c0.022-6.652,0.02-13.305,0.003-19.957
		c-0.001-0.587,0.123-0.807,0.766-0.758c1.142,0.087,2.294-0.087,3.438,0.082c0.009,1.128,0.025,2.256,0.027,3.384
		C134.414,12.676,134.411,15.067,134.411,17.458z"/>
	<path fill="#1BCCD4" d="M121.33,46.159c0.622-1.857,1.25-3.711,1.859-5.572c0.121-0.369,0.2-0.672,0.708-0.65
		c0.444,0.019,0.687,0.08,0.842,0.587c0.543,1.767,1.173,3.508,1.759,5.262c0.059,0.175,0.065,0.364,0.338,0.488
		c0.573-1.73,1.144-3.454,1.717-5.177c0.408-1.226,0.409-1.225,1.819-1.08c-0.92,2.704-1.853,5.394-2.739,8.099
		c-0.16,0.488-0.543,0.495-0.846,0.493c-0.314-0.002-0.64-0.097-0.791-0.581c-0.576-1.843-1.248-3.657-1.89-5.501
		c-0.424,0.194-0.384,0.616-0.499,0.932c-0.56,1.54-1.138,3.075-1.605,4.644c-0.181,0.609-0.605,0.361-0.925,0.481
		c-0.392,0.146-0.551-0.151-0.652-0.432c-0.935-2.588-1.857-5.18-2.783-7.771c-0.062-0.173-0.122-0.44,0.134-0.403
		c0.482,0.069,1.145-0.394,1.412,0.411c0.295,0.888,0.587,1.778,0.881,2.667c0.341,1.03,0.682,2.061,1.023,3.091
		C121.171,46.151,121.25,46.155,121.33,46.159z"/>
	<path fill="#1BCCD4" d="M60.65,42.32c0,1.985-0.012,3.667,0.007,5.349c0.006,0.532,0.032,0.908-0.729,0.902
		c-0.724-0.006-0.681-0.37-0.678-0.857c0.01-2.296-0.005-4.593,0.016-6.889c0.003-0.288-0.23-0.755,0.24-0.843
		c0.421-0.079,0.907-0.168,1.258,0.295c0.679,0.897,1.388,1.771,2.082,2.657c0.769,0.98,1.535,1.961,2.368,3.024
		c0.21-0.773,0.091-1.49,0.106-2.193c0.022-1.071,0.041-2.145-0.008-3.214c-0.028-0.608,0.284-0.597,0.724-0.611
		c0.483-0.015,0.706,0.072,0.698,0.636c-0.031,2.327-0.002,4.654-0.025,6.981c-0.003,0.321,0.245,0.809-0.231,0.951
		c-0.508,0.152-0.992,0.048-1.362-0.457c-1.022-1.398-2.078-2.771-3.134-4.143C61.611,43.426,61.201,42.975,60.65,42.32z"/>
	<path fill="#1BCCD4" d="M115.948,48.423c-1.762,0.674-2.244-0.725-2.872-1.719c-0.567-0.897-1.213-1.3-2.289-1.17
		c-0.543,0.066-0.654,0.239-0.627,0.718c0.033,0.581-0.023,1.167,0.016,1.746c0.038,0.578-0.314,0.559-0.702,0.544
		c-0.355-0.014-0.735,0.094-0.73-0.514c0.023-2.514,0.015-5.028,0.004-7.541c-0.002-0.374,0.075-0.555,0.502-0.542
		c1.494,0.045,2.995-0.087,4.482,0.177c1.058,0.188,1.913,0.998,2.096,2.001c0.217,1.189-0.271,2.41-1.329,2.836
		c-0.826,0.333-0.602,0.658-0.237,1.145C114.84,46.874,115.396,47.661,115.948,48.423z M110.316,42.739
		c0,0.366-0.004,0.732,0.001,1.098c0.004,0.287,0.113,0.422,0.443,0.402c0.83-0.049,1.672,0.016,2.491-0.1
		c0.688-0.097,1.154-0.601,1.169-1.322c0.015-0.71-0.287-1.258-1.052-1.492c-0.511-0.156-1.017-0.14-1.53-0.141
		C110.315,41.179,110.315,41.182,110.316,42.739z"/>
	<path fill="#1BCCD4" d="M148.633,48.462c-1.01,0.209-1.79,0.158-2.279-0.845c-0.277-0.567-0.698-1.065-1.073-1.581
		c-0.195-0.268-0.402-0.473-0.809-0.49c-1.556-0.068-1.555-0.091-1.555,1.462c0,0.276-0.029,0.555,0.006,0.826
		c0.074,0.569-0.149,0.727-0.714,0.727c-0.6,0-0.651-0.254-0.647-0.756c0.02-2.398,0.009-4.797-0.014-7.195
		c-0.005-0.474,0.087-0.701,0.632-0.669c1.338,0.078,2.681-0.074,4.02,0.149c1.141,0.19,2.008,0.86,2.222,1.856
		c0.279,1.293-0.129,2.512-1.224,3.014c-0.815,0.373-0.598,0.655-0.206,1.163C147.559,46.859,148.064,47.644,148.633,48.462z
		 M144.376,44.231c0.001,0.016,0.002,0.032,0.003,0.048c0.52-0.036,1.044-0.044,1.559-0.117c0.565-0.08,0.878-0.494,1.072-0.99
		c0.203-0.519,0.103-1.007-0.261-1.425c-0.394-0.45-2.799-0.886-3.457-0.524c-0.756,0.416-0.238,1.217-0.371,1.831
		c-0.032,0.146,0.009,0.306-0.007,0.457c-0.055,0.533,0.135,0.802,0.712,0.726C143.871,44.204,144.125,44.231,144.376,44.231z"/>
	<path fill="#1BCCD4" d="M47.847,44.299c-0.018-2.309,1.59-4.499,4.486-4.457c2.938,0.042,4.485,2.075,4.426,4.384
		c-0.069,2.695-1.785,4.374-4.359,4.401C49.379,48.659,47.818,46.616,47.847,44.299z M52.296,41.153
		c-1.681-0.013-3.052,1.292-3.044,2.969c0.01,2.051,1.307,3.248,2.976,3.261c2.017,0.016,3.055-1.412,3.027-3.135
		C55.228,42.46,54.028,41.166,52.296,41.153z"/>
	<path fill="#1BCCD4" d="M151.032,44.161c0-1.162,0.024-2.326-0.01-3.487c-0.016-0.538,0.11-0.758,0.704-0.736
		c1.365,0.05,2.744-0.076,4.073,0.339c2.076,0.648,3.184,2.437,2.904,4.637c-0.245,1.924-2.006,3.517-4.006,3.586
		c-1.008,0.035-2.02-0.018-3.028,0.026c-0.554,0.024-0.658-0.202-0.647-0.694C151.051,46.609,151.032,45.385,151.032,44.161z
		 M153.723,47.274c0.122,0,0.245,0.001,0.368,0c2.208-0.017,3.536-1.688,3.041-3.827c-0.38-1.642-1.938-2.507-4.029-2.266
		c-0.506,0.058-0.695,0.233-0.674,0.786c0.052,1.346,0.009,2.695,0.019,4.042C152.459,47.438,152.258,47.257,153.723,47.274z"/>
	<path fill="#1BCCD4" d="M106.46,44.124c0.011,2.617-1.817,4.449-4.456,4.465c-2.622,0.016-4.534-1.815-4.457-4.414
		c0.077-2.621,1.798-4.278,4.455-4.332C105.077,39.78,106.533,42.202,106.46,44.124z M102.095,41.151
		c-1.67-0.01-3.161,1.433-3.121,3.023c0.043,1.754,1.451,3.263,3.027,3.245c1.705-0.02,3.058-1.401,3.063-3.127
		C105.068,42.544,103.761,41.161,102.095,41.151z"/>
	<path fill="#1BCCD4" d="M139.479,48.417c-1.251,0.44-1.783-0.2-2.019-1.205c-0.16-0.681-0.56-0.874-1.203-0.827
		c-0.494,0.036-0.995,0.033-1.489-0.006c-1.224-0.099-2.228,0.076-2.524,1.54c-0.195,0.964-0.993,0.493-1.683,0.599
		c0.747-1.696,1.451-3.302,2.161-4.905c0.467-1.055,0.983-2.09,1.399-3.164c0.206-0.533,0.549-0.554,0.994-0.538
		c0.392,0.014,0.678-0.017,0.894,0.504C137.121,43.103,138.316,45.757,139.479,48.417z M135.035,41.578
		c-0.532,1.238-0.974,2.26-1.411,3.285c-0.176,0.413,0.136,0.382,0.375,0.384c0.674,0.007,1.347-0.002,2.021,0.004
		c0.495,0.004,0.574-0.186,0.368-0.624C135.951,43.696,135.552,42.749,135.035,41.578z"/>
	<path fill="#1BCCD4" d="M89.427,44.198c0-1.226,0.015-2.451-0.008-3.676c-0.008-0.432,0.117-0.585,0.566-0.579
		c1.746,0.023,3.493,0.022,5.239,0c0.437-0.005,0.601,0.118,0.575,0.567c-0.022,0.385,0.023,0.712-0.545,0.699
		c-1.047-0.024-2.097,0.048-3.144,0.019c-1.288-0.036-1.287-0.063-1.288,1.158c0,0.276,0.018,0.553-0.003,0.827
		c-0.035,0.451,0.179,0.579,0.599,0.572c1.072-0.018,2.145,0.019,3.217-0.016c0.506-0.017,0.602,0.18,0.61,0.638
		c0.009,0.488-0.145,0.629-0.625,0.613c-1.041-0.034-2.084,0.013-3.124-0.02c-0.512-0.016-0.711,0.136-0.683,0.669
		c0.04,0.764-0.028,1.534,0.021,2.297c0.041,0.642-0.346,0.567-0.754,0.583c-0.429,0.016-0.679-0.045-0.664-0.582
		C89.451,46.711,89.427,45.454,89.427,44.198z"/>
	<path fill="#1BCCD4" d="M83.194,40.059c-0.525,0.817-1.006,1.736-1.647,2.526c-1.227,1.51-1.9,3.145-1.593,5.116
		c0.077,0.496,0.031,0.855-0.678,0.839c-0.629-0.014-0.846-0.232-0.726-0.795c0.457-2.142-0.699-3.722-1.81-5.329
		c-0.534-0.772-1.031-1.569-1.553-2.369c1.033-0.284,1.779-0.154,2.282,0.925c0.454,0.972,1.13,1.841,1.763,2.842
		c0.614-0.959,1.214-1.83,1.744-2.742C81.473,40.217,82.023,39.564,83.194,40.059z"/>
	<path fill="#1BCCD4" d="M69.382,44.224c0-1.226,0.035-2.453-0.015-3.677c-0.025-0.614,0.288-0.597,0.724-0.606
		c0.463-0.01,0.727,0.038,0.717,0.623c-0.034,1.991,0.006,3.984-0.024,5.976c-0.009,0.593,0.156,0.806,0.775,0.778
		c1.07-0.049,2.145,0.017,3.216-0.023c0.511-0.019,0.602,0.176,0.608,0.632c0.006,0.482-0.142,0.632-0.626,0.624
		c-1.593-0.027-3.187-0.027-4.781,0c-0.507,0.009-0.613-0.191-0.603-0.649C69.399,46.676,69.382,45.45,69.382,44.224z"/>
</g>
</svg>
