<?xml version="1.0" encoding="utf-8"?>
<!-- Generator: Adobe Illustrator 22.0.0, SVG Export Plug-In . SVG Version: 6.00 Build 0)  -->
<svg version="1.1" id="Layer_1" xmlns="http://www.w3.org/2000/svg" xmlns:xlink="http://www.w3.org/1999/xlink" x="0px" y="0px"
	 viewBox="0 0 161.3 50" style="enable-background:new 0 0 161.3 50;" xml:space="preserve">
<style type="text/css">
	.st0{fill:#0078C0;}
</style>
<path class="st0" d="M16,32.9L16,32.9L15.8,33c-1.7,1.2-4.2,1.9-6.3,1.9h0c-3-0.1-4.1-1.1-4.2-4.1c0.1-3.4,1.2-4.4,5-4.6l5.2-0.2
	l0.2,0l0.2,0C16,26,16,32.9,16,32.9z M25.5,34.6c-0.1-0.5-0.6-0.9-1.2-0.9c-0.2,0-0.3,0-0.5,0.1c-0.6,0.2-1.2,0.3-1.9,0.3
	c-1.2,0.1-1.4-0.4-1.5-1.7V14.1c0-0.4-0.2-0.8-0.6-1.1l-0.1-0.1c0,0-0.1-0.1-0.1-0.1c-1-0.6-2.6-1-4-1.4l-0.1,0
	c-1.7-0.4-3.5-0.6-5.3-0.6c-1.1,0-2,0.1-2.4,0.1C7,11,4.8,11.4,4.1,11.6c-0.2,0.1-0.9,0.4-0.9,1C3.2,13,3.6,14,3.6,14
	c0.2,0.7,0.5,0.9,1,1c0.4,0,1.2-0.1,1.7-0.2c1.4-0.3,2.3-0.4,3-0.4c0.8,0,1.9,0,3.2,0.2c2.4,0.4,3.3,1.1,3.3,1.1v7.1l-0.2,0
	l-5.1,0.1c-6.8,0.2-9.9,2.9-9.9,8.3c0,2.5,0.8,4.4,2.2,5.7c1.4,1.2,3.4,1.8,5.8,1.8h0c2.8,0,5.1-0.9,7.5-2.7l0.2-0.2l0.1,0.3
	c0.6,1.2,1.5,2,2.8,2.4c0.6,0.2,1.3,0.2,2.1,0.2c0.2,0,0.4,0,0.6,0c0.8-0.1,1.8-0.2,2.9-0.8c0.6-0.3,1.1-0.7,1-1.3
	C25.9,36,25.5,34.6,25.5,34.6z M100.4,38.7H98c-0.4,0-0.7-0.1-0.9-0.3c-0.2-0.2-0.3-0.5-0.3-1V14c0-0.4,0.1-0.8,0.3-1
	c0.2-0.2,0.5-0.3,0.9-0.3h2.2c0.4,0,0.7,0.1,0.9,0.3c0.2,0.2,0.3,0.5,0.3,0.9l0,0.6l0,0.5l0.3-0.4c1-1.1,2.8-2.5,5.4-2.5
	c0.4,0,1,0.1,1.6,0.2c0.5,0.1,0.6,0.6,0.6,0.8c0,0.1,0,0.2,0,0.3l-0.4,2.4c0,0.4-0.4,0.7-0.7,0.7c-0.2,0-0.4,0-0.6-0.1
	c-0.3,0-0.6-0.1-1.1-0.1c-1.7,0-3.6,1.1-4.9,2.9l0,0.1v18.1c0,0.4-0.1,0.7-0.3,0.9C101.1,38.5,100.8,38.7,100.4,38.7 M85.2,22.9
	H73.9c0.2-5.7,2.3-8.1,5.9-8.1c3.5,0,5.5,1.9,5.5,6.4C85.3,21.5,85.3,22.4,85.2,22.9 M79.9,11.2c-6.3,0-11.1,4.4-11.1,14.4
	c0,9.2,4.3,13.7,12.4,13.7c1.3,0,2.8-0.1,4.3-0.4c0.2,0,0.5-0.1,0.7-0.2c0.7-0.2,1.5-0.5,2.2-0.8c0.5-0.2,0.9-0.6,0.9-1.1
	c-0.1-0.7-0.3-1.5-0.5-2.2c-0.2-0.5-0.6-0.8-1.1-0.8c-0.2,0-2.3,0.5-2.5,0.5c-1.3,0.3-2.6,0.5-3.9,0.5c-5.8,0-7.5-2.8-7.5-8.4v-0.4
	h15.1c0.4,0,0.8-0.4,0.9-0.8c0-0.1,0-0.1,0-0.2c0-1,0.1-2,0.1-2.9C89.9,15.2,86.5,11.2,79.9,11.2 M115.7,49.2h-0.2
	c-0.9,0-1.6-0.1-2.3-0.2c-0.4-0.1-0.6-0.7-0.5-1.4c0,0,0.1-0.8,0.2-1.4c0.1-0.6,0.4-0.9,0.7-0.9h0.1l0.2,0c0.1,0,0.4,0,0.5,0.1
	c0.4,0.1,0.8,0.1,1.2,0.1c2.9,0,4.5-1.1,5.7-3.8l1.4-3.3l0.1-0.4l0-0.1l0-0.2l-9.1-24c0-0.1-0.1-0.2-0.1-0.3c0-0.1,0-0.3,0.1-0.4
	c0.1-0.1,0.3-0.2,0.4-0.2h3.4c0.5,0,0.9,0.3,1,0.6l6,17.2l0.4,1.1l0.4-1.1l6.2-17.1c0.1-0.5,0.5-0.8,1-0.8h0l0.1,0h2.9
	c0.2,0,0.4,0,0.5,0.1c0.1,0.1,0.2,0.3,0.2,0.4c0,0.2,0,0.3-0.1,0.4L126,40.9C123.8,46.9,121,49.2,115.7,49.2 M156.6,38.6
	c-0.6,0-1.1-0.3-1.4-0.8l-5.4-8.4l-0.2-0.3l-0.2,0.3l-5.4,8.4c-0.3,0.5-0.8,0.8-1.4,0.8l-0.1,0h-2.9c-0.2,0-0.4,0-0.6-0.2
	c-0.2-0.1-0.2-0.3-0.2-0.5c0-0.2,0.1-0.5,0.2-0.7l7.8-11.9l0.1-0.1l-0.1-0.1l-7.2-11.1c-0.1-0.2-0.2-0.4-0.2-0.5
	c0-0.5,0.4-0.8,0.8-0.8h2.7c0.6,0,1,0.3,1.2,0.7l5.1,7.7l0.2,0.3l0.2-0.3l5.1-7.7c0.2-0.4,0.7-0.7,1.2-0.7h2.8
	c0.4,0,0.8,0.3,0.8,0.8c0,0.2-0.1,0.3-0.2,0.5l-7.2,11.2l-0.1,0.1l0.1,0.1l7.8,11.9c0.2,0.2,0.3,0.5,0.3,0.7c0,0.2-0.1,0.4-0.2,0.5
	c-0.2,0.1-0.4,0.2-0.6,0.2h-2.9L156.6,38.6 M39.1,38.7c-1.3,0-2.5-0.2-3.6-0.6c-1-0.3-1.8-0.8-2.3-1.4c-1.5-1.7-1.7-3.8-1.7-6.6V3.4
	c0-0.2,0.1-0.3,0.2-0.4c0.9-1,2.1-1.8,3.5-2.3c0.1,0,0.1,0,0.2,0c0.1,0,0.4,0,0.7,0.3c0.2,0.2,0.3,0.5,0.3,0.9v28.3
	c0,1.5,0.4,2.6,1,3.4c0.6,0.6,1.4,0.9,2.6,0.9c0.3,0,0.6,0,1-0.1c0.7-0.1,1.4-0.3,2.2-0.5c0.1-0.1,0.3-0.1,0.4-0.1
	c0.5,0,0.8,0.3,1,0.8c0,0,0.4,1.4,0.5,2c0,0.6-0.5,0.9-0.9,1.1C43.5,37.9,41.4,38.7,39.1,38.7 M64,34.6c-0.1-0.5-0.5-0.8-1-0.8
	c-0.1,0-0.3,0-0.4,0.1c-0.8,0.2-1.9,0.6-3,0.6l-0.1,0c-1.2,0-2-0.3-2.6-0.9c-0.5-0.6-0.9-1.5-0.9-3.3v-0.1l0.1-14h5.7
	c0.3,0,0.6,0,0.8-0.2c0.3-0.2,0.3-0.6,0.3-0.8v-1.8c0-0.4-0.1-0.7-0.3-0.8c-0.3-0.2-0.5-0.2-0.8-0.2h-5.8V3.6c0-0.4-0.1-0.7-0.3-0.9
	c-0.2-0.2-0.4-0.3-0.7-0.3c-0.1,0-0.1,0-0.2,0c-0.3,0.1-1.2,0.4-2.2,1.1c-0.3,0.2-0.7,0.6-1,0.9c-0.1,0.1-0.2,0.3-0.2,0.4l-0.1,7.3
	h-3c-0.3,0-0.6,0.1-0.8,0.3c-0.2,0.2-0.3,0.5-0.3,0.9V15c0,0.3,0,0.6,0.3,0.9c0.3,0.3,0.6,0.3,0.9,0.3h2.8l-0.3,13.2l0,0.6
	c0,2.8,0.1,4.9,1.7,6.6c1.2,1.3,3.4,2,5.9,2c2.3,0,4.1-0.6,5-1c0.4-0.2,0.9-0.5,0.9-1.1C64.4,36.1,64,34.6,64,34.6"/>
</svg>
