<?xml version="1.0" encoding="UTF-8"?>
<svg id="Layer_2" data-name="Layer 2" xmlns="http://www.w3.org/2000/svg" viewBox="0 0 173.7 39.36">
  <defs>
    <style>
      .cls-1 {
        fill: #fff;
      }
    </style>
  </defs>
  <g id="Layer_1-2" data-name="Layer 1">
    <path class="cls-1" d="M96.4,13.48c-4.8,0-8,3.4-8,8.1s3.2,8.1,8,8.1,8-3.4,8-8.1-3.2-8.1-8-8.1Zm0,12.3c-2.2,0-3.6-2.2-3.6-4.3s1.3-4.3,3.6-4.3,3.6,2.2,3.6,4.3c.1,2.2-1.3,4.3-3.6,4.3Zm-32.1-12.3c-4.8,0-8,3.4-8,8.1s3.2,8.1,8,8.1,8-3.4,8-8.1-3.3-8.1-8-8.1Zm0,12.3c-2.2,0-3.6-2.2-3.6-4.3s1.3-4.3,3.6-4.3,3.6,2.2,3.6,4.3-1.3,4.3-3.6,4.3Zm24.8-11.8h-2.6v-5.1h-4.3v5.1h-3.5v-5.1h-4.4v5.1h-1.5v3.6h1.5v11.6h4.3v-11.5h3.5v11.6h4.3v-11.6h2.6c.1,0,.1-3.7,.1-3.7Zm33.7-.4c-1.8,0-3.5,.9-4.5,2.4-1-1.6-2.5-2.4-4.4-2.4-1.4,0-2.9,.7-3.7,1.9h-.1v-1.4h-4.3v15.2h4.3v-7.5c0-1.6-.1-4.8,2.3-4.8s2.1,3,2.1,4.5v7.7h4.3v-7.4c0-1.6-.1-4.8,2.3-4.8,2.1,0,2.1,2.7,2.1,4.3v8h4.3v-9.5c.1-3.3-.8-6.2-4.7-6.2h0Zm-71.2,3.1c1.5-.9,2.1-2.9,2.1-4.5,0-4.7-2.7-6.3-7-6.3h-5.7V29.28h7.2c4.3,0,7.5-2,7.5-6.6-.1-2.7-1.4-5.5-4.1-6Zm-6.1-7.2h.6c1.9,0,3.3,.6,3.3,3s-1.1,3.1-3.3,3.1h-.6v-6.1h0Zm.9,16.1h-1v-6.5h.8c2.3,0,4.8,.1,4.8,3.2s-2.1,3.3-4.6,3.3Zm106.1-12c-1.6,0-3.1,.5-4,1.9h-.1v-1.4h-4.3v15.2h4.3v-7.6c0-1.8,.1-4.7,2.6-4.7s2.4,2.3,2.4,4.1v8h4.3v-9.3c.1-3.4-1.1-6.2-5.2-6.2h0Zm-22.4,15.6h4.3V2.88h-4.3V29.18Zm36.4-15.7c-4.9,0-7.4,3.6-7.4,8.2s2.9,7.9,7.6,7.9c3.2,0,5.9-1.7,6.9-4.7l-4-.6c-.6,1.2-1.5,2.1-2.9,2.1-2.3,0-3-2.2-3-4.1h10v-.5c0-4.6-2.2-8.3-7.2-8.3h0Zm-2.7,6.1c.2-1.6,1.2-3.1,2.9-3.1s2.6,1.5,2.9,3.1h-5.8Zm-24.5-14.5c-1.4,0-2.6,1.2-2.6,2.6s1.1,2.6,2.6,2.6c1.4,0,2.6-1.1,2.6-2.6s-1.2-2.6-2.6-2.6Zm-2.2,24.1h4.3V13.98h-4.3v15.2Z"/>
    <path class="cls-1" d="M29.7,9.28v7.5c0,1.3-1.7,2.7-4.5,4.4s-3,1.8-4.6,2.7c-.5,.3-.7,.4-.9,.5-.3,0-.4-.1-.9-.4C15.2,21.98,1.9,14.38,.7,13.58c-.1-.1-.4-.2-.4-.8V7.08s0-.7,.8-1.1C2.2,5.28,9,1.08,9.2,.98c.3-.1,3.1-1.7,7-.6,0,0,2.5,.8,2.7,3.4,.2,2.6,.1,2.1,.1,2.1,1.3-.5,5.1-1.8,8.5-.1-.1,0,2.1,1,2.2,3.5Zm-20.8-1.7l-3.1,1.9,3.2,1.8,7.2-4.2c-4.1-1.6-7.3,.5-7.3,.5Zm16.1,6.6s1.4-.7,2.6-1.9c-4.8-2.5-9.4,.5-9.4,.5l-3.4,2,4.5,2.6,5.7-3.2ZM1.3,16.38l17.8,10.3c.3,.2,.7,.2,1,0l9.2-5.3c.3-.2,.5-.1,.5,.3v5.8c0,.3-.2,.7-.5,.8l-9.1,5.3c-.3,.2-.5,.3-.5,.3,0,0-.3,.1-.5,.3l-8.8,5.1c-.3,.2-.5,0-.5-.3v-5.9c0-.3,.2-.7,.5-.8,0,0,3.1-1.7,3.1-1.8S.5,22.98,.5,22.98c-.3-.2-.5-.5-.5-.8v-5.8c0-.2,.3-.4,.6-.3,.3,0,.4,.1,.7,.3Z"/>
  </g>
</svg>