<?xml version="1.0" encoding="utf-8"?>
<!-- Generator: Adobe Illustrator 22.0.1, SVG Export Plug-In . SVG Version: 6.00 Build 0)  -->
<svg version="1.1" id="Layer_1" xmlns="http://www.w3.org/2000/svg" xmlns:xlink="http://www.w3.org/1999/xlink" x="0px" y="0px"
	 viewBox="0 0 202.9 50" style="enable-background:new 0 0 202.9 50;" xml:space="preserve">
<style type="text/css">
	.st0{fill:#008600;}
</style>
<path class="st0" d="M125.9,18.8c-4.8,0-6.6,1.2-6.6,2.7c0,1.1,0.7,1.8,0.8,1.9c0.6-0.4,2.4-1.4,5.3-1.4c3.6,0,4.9,1.7,4.9,3.4v0.5
	c-8.4,0.9-12.6,2.4-12.6,7.2c0,3.3,2.6,5.8,6.1,5.8c3.6,0,5.7-1.8,6.6-2.6v2.2h3.6V25.3C134,21,130.8,18.8,125.9,18.8z M130.2,33.2
	c-1.7,1.7-3.4,2.5-5.6,2.5c-2.1,0-3.2-1.3-3.2-2.7c0-2,1.6-3.7,8.8-4.3L130.2,33.2L130.2,33.2z M191.4,18.8c-4.8,0-6.6,1.2-6.6,2.7
	c0,1.1,0.7,1.8,0.8,1.9c0.6-0.4,2.4-1.4,5.3-1.4c3.6,0,4.9,1.7,4.9,3.4v0.5c-8.4,0.9-12.6,2.4-12.6,7.2c0,3.3,2.6,5.8,6.1,5.8
	c3.6,0,5.7-1.8,6.6-2.6v2.2h3.6V25.3C199.5,21,196.3,18.8,191.4,18.8z M195.8,33.2c-1.7,1.7-3.4,2.5-5.6,2.5c-2.1,0-3.2-1.3-3.2-2.7
	c0-2,1.6-3.7,8.8-4.3L195.8,33.2L195.8,33.2z M73.7,15.3c-1.3,0-2.4-1-2.4-2.3s1.1-2.3,2.4-2.3c1.3,0,2.4,1,2.4,2.3
	C76,14.2,75,15.3,73.7,15.3z M71.8,38.6V19.2h3.8v19.4H71.8z M34.4,30.4c5.6,0,12.9-0.8,12.9-6.5c0-2.8-2.4-5.2-6.6-5.2
	c-6.9,0-10.3,4.7-10.3,10.4c0,5.5,3.6,9.8,10.1,9.8c3.6,0,6.3-1,6.3-2.9c0-0.9-0.6-1.7-0.8-1.8c-0.4,0.2-2.3,1.5-5.3,1.5
	C36.6,35.7,34.9,33.1,34.4,30.4z M34.4,27.6c0.2-2.9,2.1-5.8,6.2-5.8c1.8,0,3,1,3,2.3C43.6,26.9,38.4,27.6,34.4,27.6z M67.3,38
	c-0.8,0.2-3.2,1-6.7,1c-7.7,0-10.7-4.2-10.7-9.8c0-7.1,4.2-10.5,8.8-10.5c2.6,0,4.3,0.8,4.8,1v-8.7h3.7L67.3,38L67.3,38z M63.6,23.1
	c-0.5-0.3-2.1-1.1-4.2-1.1c-3.4,0-5.8,2.3-5.8,7.1c0,4.3,2.2,6.6,7,6.6c1.1,0,2.1-0.2,3-0.4V23.1z M4.4,28.8c0-4.5,2.4-6.9,6.1-6.9
	c2.8,0,4.6,1,5.2,1.4c0.5-0.4,0.8-1.2,0.8-1.9c0-1.3-1.6-2.7-6.2-2.7c-5.4,0-9.9,3.5-9.9,10.1C0.5,35.3,4.6,39,9.9,39
	c3.2,0,5.8-1,6.5-1.4V34c-0.8,0.6-3.5,1.7-5.9,1.7C7,35.7,4.4,33.4,4.4,28.8z M110.1,28.6c2.4-2.6,4.6-5.8,6.1-9.6l-3.4-1.2
	c-2.2,5.6-5.5,9.4-9.5,12.5V11.1h-3.7v27.4h3.7v-4.1c1.4-1,2.7-2,4.1-3.3l3.4,5.6c0.9,1.4,2,2.1,3.7,2.1c1,0,1.5-0.3,1.7-0.4
	L110.1,28.6z M23.4,21.6c0-1.9-1.1-2.9-2.6-2.9c-0.3,0-0.7,0.1-1.1,0.2v19.6h3.7V27.1c1.1-2.4,3.6-4.7,6.9-4.7v-3.6
	c-3.6,0-5.6,1.7-6.9,4.1V21.6z M142.2,21.6c0-1.9-1.1-2.9-2.6-2.9c-0.3,0-0.7,0.1-1.1,0.2v19.6h3.7V27.1c1.1-2.4,3.6-4.7,6.9-4.7
	v-3.6c-3.6,0-5.6,1.7-6.9,4.1V21.6z M155.3,21.7L155.3,21.7c0-2-1.1-2.9-2.5-2.9c-0.3,0-0.7,0.1-1.1,0.2v19.6h3.7V25.1
	c1.1-1.5,3.4-3.2,5.3-3.2c2.2,0,3.3,1.4,3.3,3.4v13.2h3.7V25.1c1.3-1.7,3.4-3.2,5.3-3.2c2.2,0,3.3,1.4,3.3,3.4v13.2h3.7V25.1
	c0-3.7-1.7-6.4-6.3-6.4c-2.8,0-4.9,1.5-6.6,3.3c-0.6-1.3-1.8-3.3-5.8-3.3C158.7,18.8,156.8,20.1,155.3,21.7z M80.2,14.5v18.8
	c0,3.7,2.4,5.7,5.9,5.7c1.7,0,3.2-0.4,3.5-0.5v-3.1c-0.3,0.1-1.3,0.4-2.7,0.4c-2.1,0-3-1.2-3-2.9V22.2h5.2v-3h-5.2v-2
	c0-1.9-1.2-2.9-2.7-2.9C80.9,14.3,80.5,14.3,80.2,14.5z"/>
<path class="st0" d="M199.5,16.3c0,1-0.8,1.7-1.8,1.7c-1,0-1.7-0.7-1.7-1.7c0-1,0.8-1.7,1.7-1.7C198.7,14.5,199.5,15.2,199.5,16.3z
	 M199.2,16.3c0-0.9-0.7-1.5-1.5-1.5c-0.8,0-1.5,0.6-1.5,1.5c0,0.9,0.7,1.5,1.5,1.5C198.6,17.8,199.2,17.1,199.2,16.3z M198.2,17.1
	c0,0-0.1-0.1-0.1-0.2l-0.1-0.3c-0.1-0.2-0.1-0.2-0.3-0.2h-0.3v0.7h-0.3v-1.8h0.8c0.4,0,0.6,0.2,0.6,0.5c0,0.3-0.2,0.4-0.4,0.4
	c0.2,0,0.3,0.1,0.3,0.3l0.1,0.3c0,0.1,0.1,0.2,0.1,0.2H198.2z M197.8,15.6h-0.4v0.6h0.4c0.2,0,0.3-0.1,0.3-0.3
	C198.1,15.7,198,15.6,197.8,15.6z"/>
</svg>
