<?xml version="1.0" encoding="utf-8"?>
<!-- Generator: Adobe Illustrator 22.0.1, SVG Export Plug-In . SVG Version: 6.00 Build 0)  -->
<svg version="1.1" id="Layer_1" xmlns="http://www.w3.org/2000/svg" xmlns:xlink="http://www.w3.org/1999/xlink" x="0px" y="0px"
	 viewBox="0 0 149.872 50" enable-background="new 0 0 149.872 50" xml:space="preserve">
<g>
	<path fill="#59A201" d="M25.86,48c-0.537-0.259-1.135-0.227-1.701-0.354c-1.892-0.424-3.658-1.121-5.216-2.295
		c-2.386-1.798-3.656-4.201-3.702-7.179c-0.055-3.571-0.057-7.143,0.001-10.714c0.049-2.984,1.364-5.368,3.746-7.157
		c4.262-3.202,10.775-3.508,15.293-0.695c2.981,1.856,4.531,4.551,4.562,8.082c0.016,1.796,0.007,3.592,0.003,5.388
		c-0.003,1.205-0.597,1.804-1.803,1.805c-4.98,0.004-9.959,0.012-14.939-0.012c-0.564-0.003-0.728,0.145-0.692,0.7
		c0.049,0.752,0.024,1.51,0.01,2.264c-0.021,1.071,0.415,1.938,1.169,2.66c2.698,2.584,7.909,2.202,10.195-0.759
		c0.212-0.274,0.347-0.303,0.632-0.139c1.501,0.863,3.008,1.717,4.524,2.554c0.383,0.212,0.417,0.406,0.171,0.761
		c-1.546,2.231-3.73,3.538-6.257,4.347c-0.992,0.318-2.009,0.528-3.048,0.628c-0.098,0.009-0.207-0.008-0.254,0.114
		C27.657,48,26.759,48,25.86,48z M27.076,29.751c1.387,0,2.775,0,4.162,0c1.561,0,1.529-0.001,1.572-1.58
		c0.048-1.756-0.744-2.981-2.284-3.713c-2.462-1.171-4.911-1.023-7.264,0.303c-1.242,0.7-1.925,1.79-1.84,3.278
		c0.023,0.407,0.033,0.819-0.005,1.223c-0.039,0.421,0.135,0.5,0.517,0.496C23.649,29.741,25.363,29.751,27.076,29.751z"/>
	<path fill="#59A201" d="M14.1,1.816c0.428,0.412,0.388,0.827,0.142,1.352c-1.389,2.972-2.69,5.981-3.489,9.179
		c-0.203,0.813-0.362,1.631-0.365,2.474c-0.005,1.575,0.756,2.674,2.238,3.219c0.858,0.316,1.751,0.362,2.653,0.345
		c0.361-0.007,0.722-0.001,1.121-0.001c-0.045,0.316-0.277,0.464-0.462,0.632c-2.444,2.227-3.631,5.016-3.715,8.296
		c-0.026,1-0.017,2-0.018,3c0,0.272-0.016,0.484-0.394,0.428c-3.469-0.513-6.716-1.539-9.309-4.052
		c-1.112-1.078-1.825-2.389-2.119-3.918c-0.019-0.098-0.009-0.206-0.127-0.253c0-0.817,0-1.633,0-2.45
		c0.227-0.28,0.199-0.638,0.288-0.96c0.464-1.688,1.471-3.082,2.471-4.467c2.915-4.039,6.217-7.77,9.342-11.641
		c0.344-0.426,0.657-0.881,1.129-1.185C13.692,1.816,13.896,1.816,14.1,1.816z"/>
	<path fill="#59A201" d="M147.262,22.519c-0.217,0.308-0.195,0.687-0.301,1.028c-0.553,1.787-1.662,3.158-3.152,4.241
		c-2.332,1.695-4.994,2.518-7.808,2.944c-0.441,0.067-0.552-0.065-0.547-0.5c0.016-1.63,0.089-3.267-0.232-4.88
		c-0.485-2.436-1.665-4.487-3.48-6.178c-0.193-0.18-0.375-0.374-0.556-0.567c-0.036-0.039-0.045-0.104-0.068-0.163
		c0.163-0.161,0.353-0.072,0.522-0.075c0.57-0.011,1.143,0.019,1.712-0.014c2.787-0.163,4.165-1.908,3.689-4.643
		c-0.465-2.667-1.436-5.17-2.474-7.65c-0.416-0.995-0.833-1.992-1.32-2.953c-0.264-0.52-0.217-0.907,0.173-1.294
		c0.204,0,0.408,0,0.613,0c0.445,0.301,0.759,0.727,1.089,1.137c3.144,3.904,6.47,7.664,9.412,11.73
		c0.764,1.056,1.47,2.148,2.049,3.324c0.362,0.737,0.404,1.553,0.681,2.307C147.262,21.049,147.262,21.784,147.262,22.519z"/>
	<path fill="#59A201" d="M65.18,32.817c0-1.531,0.029-3.062-0.006-4.592c-0.083-3.573,1.497-6.229,4.446-8.123
		c4.968-3.19,12.043-2.88,16.538,0.731c2.229,1.79,3.404,4.121,3.406,7.006c0.002,3.143-0.048,6.287,0.013,9.429
		c0.083,4.294-1.942,7.27-5.727,9.006c-5.176,2.374-10.244,2.027-14.968-1.225c-2.476-1.704-3.692-4.181-3.7-7.212
		C65.176,36.164,65.18,34.49,65.18,32.817z M83.462,32.605c0-1.489-0.039-2.979,0.011-4.467c0.046-1.374-0.581-2.332-1.666-3.062
		c-0.613-0.413-1.284-0.705-1.995-0.902c-2.328-0.645-4.567-0.427-6.672,0.777c-1.238,0.708-1.901,1.743-1.874,3.25
		c0.055,2.997,0.031,5.997,0.008,8.995c-0.008,1.031,0.371,1.862,1.093,2.559c2.568,2.479,7.446,2.476,10.004-0.004
		c0.721-0.699,1.115-1.526,1.097-2.557C83.442,35.665,83.462,34.135,83.462,32.605z"/>
	<path fill="#59A201" d="M107.786,32.748c0-1.429,0.042-2.859-0.008-4.286c-0.149-4.308,1.923-7.269,5.688-9.025
		c5.378-2.509,10.59-2.112,15.385,1.495c2.211,1.663,3.296,4.014,3.321,6.792c0.031,3.388,0.03,6.777,0.002,10.165
		c-0.025,3.021-1.316,5.418-3.728,7.218c-4.923,3.673-12.737,3.496-17.459-0.424c-2.037-1.691-3.146-3.875-3.186-6.547
		c-0.027-1.796-0.005-3.592-0.005-5.388C107.792,32.748,107.789,32.748,107.786,32.748z M126.071,32.585
		c0-1.489-0.032-2.979,0.01-4.467c0.035-1.238-0.485-2.16-1.438-2.878c-2.498-1.883-6.881-1.869-9.378,0.024
		c-0.92,0.697-1.411,1.595-1.406,2.773c0.014,3.04,0.013,6.079,0,9.119c-0.005,1.119,0.437,2.012,1.254,2.741
		c2.532,2.258,7.017,2.299,9.603,0.089c0.901-0.77,1.399-1.707,1.364-2.933C126.039,35.564,126.071,34.074,126.071,32.585z"/>
	<path fill="#59A202" d="M48.99,35.946c0-3.694-0.007-7.389,0.009-11.083c0.002-0.467-0.076-0.615-0.6-0.573
		c-2.139,0.173-4.253,0.477-6.335,0.996c-0.274,0.068-0.399,0.04-0.455-0.268c-0.312-1.724-0.96-3.274-2.31-4.474
		c-0.395-0.351-0.011-0.472,0.269-0.545c1.754-0.46,3.515-0.895,5.312-1.152c6.541-0.935,13.016-0.673,19.403,1.104
		c0.224,0.062,0.543,0.039,0.6,0.329c0.051,0.258-0.241,0.352-0.401,0.494c-1.204,1.076-1.873,2.457-2.216,3.997
		c-0.116,0.52-0.285,0.577-0.761,0.461c-1.883-0.461-3.793-0.758-5.728-0.922c-0.576-0.049-0.709,0.07-0.708,0.642
		c0.019,7.307,0.013,14.614,0.012,21.921c0,0.968,0.083,0.84-0.856,0.843c-1.531,0.005-3.062-0.018-4.592,0.013
		c-0.498,0.01-0.658-0.118-0.655-0.637C49.001,43.376,48.99,39.661,48.99,35.946z"/>
	<path fill="#59A201" d="M93.334,37.159c0-2.836,0-5.672,0-8.508c0-4.71,2.013-7.743,6.378-9.566
		c2.495-1.042,5.088-1.436,7.779-1.071c0.242,0.033,0.593-0.048,0.693,0.262c0.109,0.336-0.212,0.502-0.425,0.676
		c-1.558,1.275-2.827,2.762-3.462,4.712c-0.077,0.237-0.226,0.291-0.44,0.344c-0.994,0.246-1.937,0.614-2.795,1.188
		c-1.119,0.747-1.669,1.742-1.662,3.13c0.032,6.223,0.006,12.446,0.025,18.669c0.002,0.582-0.091,0.808-0.75,0.784
		c-1.589-0.059-3.182-0.037-4.773-0.008c-0.455,0.008-0.582-0.11-0.58-0.573C93.344,43.852,93.334,40.506,93.334,37.159z"/>
</g>
</svg>
