<?xml version="1.0" encoding="UTF-8"?>
<svg id="Layer_2" data-name="Layer 2" xmlns="http://www.w3.org/2000/svg" viewBox="0 0 157.46 46.18">
  <defs>
    <style>
      .cls-1 {
        fill: #fff;
      }
    </style>
  </defs>
  <g id="Layer_1-2" data-name="Layer 1">
    <g>
      <path class="cls-1" d="M0,19.06s.05-.02,.05-.03q.3-1.07,1.46-1.07c1.86,0,3.71,.01,5.57,0,1.14-.01,2.15,.3,3.04,1,.94,.74,1.88,1.47,2.82,2.22-1.02,.79-2.02,1.59-3.04,2.36-.79,.6-1.7,.86-2.7,.85-2.07,0-4.15-.03-6.22,.01-.62,.01-.88-.17-.86-.78,0-.21,.04-.44-.12-.62,0-1.31,0-2.62,0-3.94Z"/>
      <path class="cls-1" d="M156.61,22.14c.15-.17,.04-.43-.15-.58-.29-.21-.63-.17-.95-.11-.23,.04-.13,.29-.14,.45-.01,.31,0,.61,0,.92,0,.12,.04,.22,.17,.24,.17,.03,.23-.08,.24-.23,0-.1-.04-.22,.11-.32,.28,.16,.24,.71,.76,.5-.14-.29-.32-.55-.04-.88Zm-.56,.05c-.19,0-.27-.05-.28-.18,0-.17,.09-.23,.24-.21,.11,.01,.22,.06,.23,.18,0,.16-.13,.19-.19,.21Zm.56-.05c.15-.17,.04-.43-.15-.58-.29-.21-.63-.17-.95-.11-.23,.04-.13,.29-.14,.45-.01,.31,0,.61,0,.92,0,.12,.04,.22,.17,.24,.17,.03,.23-.08,.24-.23,0-.1-.04-.22,.11-.32,.28,.16,.24,.71,.76,.5-.14-.29-.32-.55-.04-.88Zm-.56,.05c-.19,0-.27-.05-.28-.18,0-.17,.09-.23,.24-.21,.11,.01,.22,.06,.23,.18,0,.16-.13,.19-.19,.21Zm1.1-.86c-.45-.56-1.25-.71-1.89-.38-.65,.34-.95,1.13-.7,1.85,.24,.68,.92,1.08,1.66,.97,.62-.09,.97-.53,1.24-1.03v-.92c-.11-.16-.2-.33-.32-.48Zm-1.15,2.16c-.67,0-1.19-.53-1.18-1.22,0-.67,.5-1.19,1.14-1.19,.65,0,1.21,.56,1.2,1.22,0,.64-.53,1.18-1.16,1.19Zm.46-1.93c-.29-.21-.63-.17-.95-.11-.23,.04-.13,.29-.14,.45-.01,.31,0,.61,0,.92,0,.12,.04,.22,.17,.24,.17,.03,.23-.08,.24-.23,0-.1-.04-.22,.11-.32,.28,.16,.24,.71,.76,.5-.14-.29-.32-.55-.04-.88,.15-.17,.05-.43-.15-.58Zm-.41,.63c-.19,0-.27-.05-.28-.18,0-.17,.09-.23,.24-.21,.11,.01,.22,.06,.23,.18,0,.16-.13,.19-.19,.21Zm.56-.05c.15-.17,.04-.43-.15-.58-.29-.21-.63-.17-.95-.11-.23,.04-.13,.29-.14,.45-.01,.31,0,.61,0,.92,0,.12,.04,.22,.17,.24,.17,.03,.23-.08,.24-.23,0-.1-.04-.22,.11-.32,.28,.16,.24,.71,.76,.5-.14-.29-.32-.55-.04-.88Zm-.56,.05c-.19,0-.27-.05-.28-.18,0-.17,.09-.23,.24-.21,.11,.01,.22,.06,.23,.18,0,.16-.13,.19-.19,.21Zm.56-.05c.15-.17,.04-.43-.15-.58-.29-.21-.63-.17-.95-.11-.23,.04-.13,.29-.14,.45-.01,.31,0,.61,0,.92,0,.12,.04,.22,.17,.24,.17,.03,.23-.08,.24-.23,0-.1-.04-.22,.11-.32,.28,.16,.24,.71,.76,.5-.14-.29-.32-.55-.04-.88Zm-.56,.05c-.19,0-.27-.05-.28-.18,0-.17,.09-.23,.24-.21,.11,.01,.22,.06,.23,.18,0,.16-.13,.19-.19,.21Z"/>
      <path class="cls-1" d="M89.48,6.22v.68c0,5.4,0,10.8,.01,16.2,0,.53-.11,.73-.68,.69-.78-.05-1.58-.05-2.36,0-.54,.03-.64-.16-.64-.66,.02-6.82,.01-13.64,.01-20.46,0-.72,.01-1.44,0-2.16,0-.31,.08-.43,.4-.43,1.51,0,3.02,.02,4.53,0,.4,0,.46,.24,.55,.51,1.32,3.93,2.65,7.86,3.97,11.79,.72,2.13,1.44,4.25,2.22,6.55,.39-1.17,.73-2.19,1.06-3.21,1.62-4.96,3.25-9.92,4.85-14.88,.18-.56,.4-.8,1.04-.77,1.31,.06,2.62,.05,3.93,0,.54-.02,.69,.12,.69,.67-.02,7-.01,13.99-.01,20.99,0,.52-.02,1.05,0,1.57,.02,.38-.11,.49-.48,.48-.9-.02-1.79-.04-2.69,0-.56,.03-.74-.11-.73-.71,.03-3.24,.01-6.47,.01-9.71V6.34s-.13,.04-.13,.07c-.71,3.17-1.94,6.16-3.01,9.21-.89,2.53-1.83,5.05-2.71,7.59-.16,.45-.36,.61-.84,.59-.83-.04-1.66-.03-2.49,0-.33,0-.5-.08-.62-.42-1.74-5.06-3.69-10.04-5.29-15.15-.21-.66-.35-1.34-.53-2.01-.03,0-.06,0-.09,0Z"/>
      <path class="cls-1" d="M65.77,6.64v.64c0,5.25-.01,10.49,.02,15.74,0,.66-.18,.81-.8,.77-.78-.06-1.57-.04-2.36,0-.46,.02-.59-.12-.58-.58,.02-3.5,.01-7,.01-10.49,0-3.98,.01-7.96-.01-11.94,0-.6,.18-.73,.73-.7,.89,.05,1.79,.05,2.69,0,.51-.03,.78,.17,1.05,.57,3.46,5.25,6.94,10.49,10.42,15.73,.11,.17,.17,.4,.45,.51v-.66c0-5.14,.01-10.28-.01-15.41,0-.63,.19-.77,.77-.74,.76,.05,1.53,.05,2.29,0,.55-.04,.68,.15,.68,.69-.02,6.71-.01,13.42-.01,20.14,0,.74-.04,1.49,.01,2.23,.04,.57-.17,.7-.7,.67-.79-.05-1.57-.03-2.36,0-.44,.02-.7-.12-.96-.5-3.64-5.43-7.29-10.84-10.95-16.25-.09-.13-.13-.33-.39-.4Z"/>
      <path class="cls-1" d="M147.62,13.94c1.24-.35,2.35-.8,3.25-1.63,1.74-1.62,2.13-3.71,1.95-5.94-.17-2.15-1.08-3.9-3.01-5-1.44-.82-3.01-1.15-4.65-1.22-3.06-.13-6.12-.02-9.18-.06-.44,0-.54,.14-.54,.56,.02,3.28,0,6.56,0,9.84,0,4.24,0,8.48,0,12.72,0,.45,.11,.61,.58,.59,.92-.03,1.84-.04,2.75,0,.53,.03,.65-.16,.64-.66-.02-2.69,0-5.38-.02-8.07,0-.47,.09-.66,.61-.63,.96,.05,1.93,.04,2.88,0,.51-.02,.77,.14,1.02,.59,1.55,2.78,3.14,5.55,4.72,8.32,.11,.2,.17,.45,.49,.44,1.32-.01,2.64,0,4.06,0-1.88-3.32-3.7-6.55-5.56-9.84Zm-3.73-3c-1.27,0-2.54-.04-3.8,.02-.62,.03-.72-.19-.7-.74,.04-.96,.01-1.92,.01-2.89,0-1.03,.01-2.06,0-3.08,0-.34,.05-.52,.46-.51,1.79,.05,3.59-.07,5.38,.09,.22,.02,.43,.05,.65,.09,2.8,.43,3.37,2.4,2.88,4.61-.26,1.19-1.13,1.82-2.26,2.13-.85,.23-1.72,.29-2.6,.29Z"/>
      <path class="cls-1" d="M32.06,26.04c-2.49,0-4.99,.08-7.48-.02-3.28-.12-6.06,1.04-8.57,3.03-1.3,1.03-2.55,2.13-3.95,3.03-1.3,.84-2.72,1.29-4.27,1.29-1.14,0-2.27,0-3.41,.01-.36,0-.59-.12-.8-.43-1.19-1.8-2.1-3.72-2.74-5.78-.17-.56,0-.61,.49-.61,1.9,.02,3.8-.02,5.71,.02,1.72,.04,3.22-.5,4.55-1.56,.62-.49,1.23-.98,1.85-1.47,1.1-.88,2.33-1.31,3.75-1.31,8.11,.02,16.22,.01,24.33,0,.52,0,.64,.15,.56,.64-.14,.84-.26,1.68-.36,2.53-.06,.46-.23,.64-.74,.64-2.97-.03-5.95-.01-8.92-.01Z"/>
      <path class="cls-1" d="M29.02,20.07c-3.94,0-7.87-.02-11.81,.01-1.41,.01-2.61-.4-3.7-1.25-.74-.58-1.47-1.17-2.22-1.74-1.19-.89-2.52-1.35-4.03-1.34-1.99,.02-3.98,0-5.97,.01-.49,0-.59-.11-.44-.59,.64-2.08,1.55-4.03,2.78-5.83,.12-.17,.2-.4,.47-.39,1.81,.07,3.63-.18,5.43,.21,1.47,.32,2.68,1.13,3.85,2.02,1.47,1.13,2.85,2.39,4.44,3.36,1.91,1.16,3.96,1.77,6.22,1.75,5.64-.04,11.28,0,16.92-.02,.5,0,.7,.16,.76,.62,.11,.87,.23,1.73,.37,2.59,.08,.47-.08,.59-.54,.59-4.18-.02-8.35-.01-12.53-.01Z"/>
      <path class="cls-1" d="M132.5,23.4c-.21-.57-.41-1.15-.62-1.73-2.46-6.98-4.93-13.95-7.36-20.94-.2-.58-.46-.77-1.06-.73-.83,.06-1.66,.05-2.49,0-.52-.03-.75,.13-.93,.64-1.88,5.4-3.79,10.79-5.7,16.18-.8,2.28-1.61,4.57-2.44,6.95,1.14,0,2.19-.02,3.24,.01,.4,.01,.58-.11,.7-.49,.51-1.53,1.07-3.05,1.57-4.58,.14-.42,.3-.58,.77-.58,2.62,.03,5.25,.02,7.87,0,.42,0,.6,.12,.74,.53,.49,1.54,1.03,3.06,1.55,4.59,.09,.27,.13,.53,.54,.52,1.11-.02,2.23-.02,3.35,0,.31,0,.39-.09,.28-.38Zm-7.66-8.77c-1.82-.01-3.63-.02-5.44,0-.46,0-.55-.08-.39-.54,1.05-2.98,2.06-5.98,3.14-9.13,.87,2.58,1.69,4.99,2.5,7.41,.2,.58,.35,1.18,.59,1.73,.21,.49,.01,.53-.4,.52Z"/>
      <path class="cls-1" d="M5.71,6.74c2.42-2.52,5.14-4.28,8.27-5.42,.39-.14,.57,.09,.79,.28,.91,.79,1.64,1.75,2.39,2.69,1.13,1.41,2.19,2.9,3.58,4.09,1.52,1.3,3.22,1.99,5.27,1.96,4.15-.06,8.31,0,12.46-.03,.52,0,.79,.17,1.01,.61,.45,.88,.88,1.76,1.25,2.67,.14,.35,.19,.52-.32,.52-5.69-.02-11.37,0-17.06-.02-2.28-.01-4.15-1.1-5.89-2.44-1.12-.87-2.23-1.77-3.35-2.63-2.03-1.56-4.33-2.33-6.9-2.26-.45,.01-.91,0-1.51,0Z"/>
      <path class="cls-1" d="M5.71,35.6c1.42-.03,2.69,.05,3.94-.19,2.01-.38,3.68-1.43,5.26-2.67,1.49-1.17,2.9-2.46,4.58-3.38,1.37-.75,2.82-1.12,4.39-1.12,5.42,.02,10.84,0,16.26,0h.76c-.44,1.3-1.01,2.44-1.65,3.56-.18,.31-.46,.2-.7,.2-4.24,0-8.48,.05-12.72-.01-2.31-.04-4.07,.97-5.65,2.48-1.32,1.26-2.36,2.75-3.5,4.16-.63,.78-1.27,1.56-2.05,2.21-.18,.15-.33,.29-.63,.18-3.15-1.13-5.88-2.92-8.3-5.43Z"/>
      <path class="cls-1" d="M37.62,8.13h-.77c-3.56,0-7.12-.04-10.69,.02-1.69,.03-3.06-.56-4.25-1.69-.82-.77-1.51-1.63-2.21-2.51-.9-1.13-1.75-2.29-2.83-3.43C20.47-.16,23.93,0,27.34,1.06c4.1,1.28,7.49,3.62,10.29,7.07Z"/>
      <path class="cls-1" d="M16.91,41.79c1.45-1.56,2.61-3.26,3.95-4.81,.54-.63,1.13-1.22,1.8-1.71,.92-.69,1.93-1.04,3.1-1.03,3.69,.03,7.39,.01,11.08,.01h.67c-4.5,6.04-12.93,9.23-20.61,7.55Z"/>
      <path class="cls-1" d="M57.07,11.91c0,3.74,0,7.48,.01,11.22,0,.49-.08,.7-.63,.66-.92-.05-1.84-.05-2.75,0-.55,.03-.69-.13-.69-.68,.02-6.06,.01-12.11,.01-18.17,0-1.4,.02-2.8,0-4.2-.01-.49,.09-.7,.63-.67,.94,.05,1.88,.04,2.82,0,.49-.02,.62,.12,.62,.62-.02,3.74-.01,7.48-.01,11.22Z"/>
      <path class="cls-1" d="M110.13,33.42s.09-.02,.13-.02c.48,.05,.61-.19,.55-.62-.02-.15-.02-.31,0-.46,.04-.39-.14-.44-.47-.36-.55,.14-1.09,.33-1.57,.63-.25,.16-.43,.2-.69,0-.96-.71-2.07-.9-3.23-.8-2.56,.22-4.1,2.24-3.53,4.62,.2,.84,.73,1.45,1.38,1.99-1.48,1.16-1.61,1.99-.44,2.94-.11,.07-.16,.11-.21,.14-.97,.49-1.64,1.18-1.52,2.36,.11,1.13,.92,1.66,1.89,1.93,1.97,.54,3.97,.57,5.94-.04,.53-.16,1-.43,1.39-.83,1.19-1.19,.9-3.03-.6-3.78-.69-.35-1.45-.48-2.21-.55-1.04-.1-2.09-.18-3.13-.31-.38-.05-.82-.17-.75-.72,.05-.42,.56-.69,1.06-.58,.54,.12,1.08,.18,1.63,.14,2.63-.16,4.29-2.24,3.67-4.56-.08-.3-.45-.64-.25-.86,.2-.21,.64-.19,.98-.28Zm-6.41,8.31c1.22,.07,2.44,.11,3.65,.31,.19,.03,.38,.08,.57,.15,.5,.17,.91,.44,.96,1.03,.05,.62-.32,.98-.82,1.22-.82,.4-1.71,.47-2.61,.46-.75,0-1.48-.06-2.2-.26-.89-.25-1.28-.74-1.19-1.47,.08-.7,.93-1.48,1.65-1.44Zm1.65-3.86c-1.57,0-2.56-.9-2.58-2.33-.02-1.47,.99-2.43,2.55-2.44,1.64,0,2.62,.92,2.6,2.44-.02,1.44-1,2.33-2.58,2.33Z"/>
      <path class="cls-1" d="M114.1,37.54c1,.04,2.01,0,3.02,.01,.59,0,1.18,0,1.77,0q2.09,0,1.69-2.11c-.39-2.1-1.71-3.44-3.58-3.64-2.03-.22-3.87,.85-4.69,2.74-.44,1.01-.57,2.07-.47,3.15,.18,2.08,1,3.81,3.12,4.49,1.99,.63,3.8,.23,5.25-1.38,.24-.26,.6-.52,.07-.87-.34-.22-.53-.71-1.04-.07-.92,1.17-2.21,1.47-3.61,1.05-1.32-.4-1.87-1.48-2.1-2.76-.09-.5,.06-.64,.56-.62Zm-.5-1.72c.23-1.35,1.16-2.4,2.35-2.59,1.69-.27,3.07,.91,3.16,2.69,.02,.37-.18,.33-.4,.33-.81,0-1.61,0-2.42,0-.76,0-1.53-.01-2.29,0-.32,0-.46-.03-.39-.43Z"/>
      <path class="cls-1" d="M78.04,37.54c1.71,.02,3.41,0,5.11,0s1.72,0,1.48-1.73c-.34-2.39-1.74-3.89-3.78-4.03-2.3-.16-4.15,1.2-4.81,3.51-.25,.9-.28,1.82-.17,2.73,.23,1.85,1.02,3.38,2.85,4.07,1.8,.68,3.57,.47,5.02-.86,1.21-1.11,1.05-.85-.1-1.79-.19,.21-.38,.42-.58,.62-1,.99-2.2,1.25-3.5,.82-1.31-.43-1.84-1.51-2.03-2.81-.07-.44,.08-.56,.51-.55Zm-.48-1.61c.11-1.51,1.42-2.75,2.91-2.73,1.45,.02,2.63,1.26,2.62,2.73,0,.36-.2,.32-.42,.32h-2.42c-.79,0-1.57,0-2.35,0-.22,0-.36,0-.34-.31Z"/>
      <path class="cls-1" d="M146.31,37.54c1.03,.03,2.05,0,3.08,0s2.1-.02,3.15,0c.41,.01,.53-.13,.51-.52-.03-.68-.07-1.35-.25-2.01-.47-1.73-1.48-2.94-3.32-3.19-1.87-.26-3.4,.42-4.46,2-.93,1.39-1.02,2.96-.77,4.55,.3,1.88,1.27,3.34,3.19,3.86,1.98,.54,3.75,.08,5.18-1.49,.39-.43,.21-.62-.12-.91-.33-.28-.51-.45-.89,.02-.93,1.15-2.2,1.49-3.6,1.08-1.38-.41-1.94-1.51-2.14-2.86-.06-.41,.02-.54,.44-.53Zm2.04-4.32c2.03-.26,2.88,1.19,3.07,2.69,.04,.36-.18,.32-.4,.32h-2.42c-.76,0-1.52,0-2.29,0-.21,0-.42,.06-.41-.31,.04-1.25,1.19-2.55,2.45-2.71Z"/>
      <path class="cls-1" d="M59.58,33.43c.89-.75,1.76-1.35,2.84-1.56,.74-.14,1.48-.14,2.2,.1,1.07,.35,1.74,1.28,1.76,2.58,.04,2.43,.01,4.85,.02,7.28,0,.3-.08,.41-.4,.43-1.29,.08-1.29,.09-1.29-1.19,0-1.92,0-3.85,0-5.77,0-1.68-.91-2.37-2.56-2.01-.95,.21-1.7,.76-2.42,1.38-.24,.21-.19,.47-.19,.73,0,2.06-.02,4.11,0,6.16,0,.53-.12,.78-.68,.69-.11-.02-.22-.02-.33,0-.56,.09-.74-.1-.73-.7,.03-2.97,.03-5.95,0-8.92,0-.49,.1-.69,.64-.67,1.06,.04,1.06,0,1.08,1.07,0,.1,.01,.2,.03,.39Z"/>
      <path class="cls-1" d="M124.83,33.47c1.19-1.08,2.45-1.75,4.01-1.69,1.72,.07,2.78,1.09,2.8,2.81,.03,2.38,0,4.77,.02,7.15,0,.41-.13,.51-.53,.52-1.14,0-1.14,.02-1.14-1.14,0-1.9,0-3.81,0-5.71,0-1.82-.94-2.53-2.72-2.08-.9,.23-1.6,.77-2.29,1.36-.22,.19-.19,.42-.19,.66,0,2.1-.02,4.2,.01,6.3,0,.5-.14,.63-.62,.61-1.1-.03-1.1,0-1.1-1.11,0-2.84,.01-5.69-.01-8.53,0-.51,.13-.67,.65-.66,1.03,.03,1.03,0,1.1,1.5Z"/>
      <path class="cls-1" d="M133.93,36.83c.02-1.69,.57-3.4,2.38-4.46,2.27-1.32,5-.49,6.14,1.81,.18,.37,.15,.55-.25,.66-.15,.04-.29,.1-.42,.18-.42,.27-.62,.13-.82-.3-.49-1.06-1.35-1.57-2.53-1.5-1.14,.06-1.95,.63-2.38,1.67-.61,1.48-.6,2.99,.01,4.47,.42,1,1.18,1.6,2.31,1.67,1.17,.08,2.02-.4,2.61-1.41,.12-.21,.13-.62,.44-.56,.4,.07,.79,.26,1.14,.47,.21,.12-.03,.31-.1,.45-.92,1.83-2.58,2.7-4.58,2.44-1.86-.24-3.32-1.65-3.78-3.62-.13-.56-.17-1.12-.18-1.96Z"/>
      <path class="cls-1" d="M71.65,36.72c0,.83,0,1.66,0,2.49,.01,1.43,.44,1.84,1.86,1.78,.25,0,.63-.21,.71,0,.12,.32,.06,.73,.04,1.1,0,.21-.2,.19-.35,.21-.7,.07-1.39,.11-2.09,0-1.06-.18-1.63-.72-1.79-1.79-.16-1.06-.05-2.14-.07-3.21-.01-1.14-.02-2.27,0-3.41,0-.4-.09-.57-.51-.51-.17,.03-.35-.02-.52,0-.59,.09-.75-.13-.77-.74-.02-.67,.29-.68,.78-.67,1.01,.02,1.01,0,1.01-.98,0-.72,.02-1.44,0-2.16-.01-.38,.12-.48,.49-.48,1.21-.02,1.21-.04,1.21,1.18,0,.61,.04,1.23-.01,1.83-.05,.55,.18,.67,.66,.64,.48-.03,.96,.02,1.44-.03,.48-.04,.63,.15,.57,.59-.05,.35,.22,.89-.53,.82-.48-.05-.96,.03-1.44-.02-.53-.05-.73,.09-.69,.66,.05,.89,.01,1.79,.01,2.69Z"/>
      <path class="cls-1" d="M93.73,35.14c0,2.16-.01,4.33,.01,6.49,0,.48-.1,.65-.61,.63-1.26-.05-1.05,.14-1.06-1.02,0-4.22,0-8.43-.02-12.65,0-.57,.12-.82,.71-.72,.13,.02,.26,.02,.39,0,.47-.07,.58,.14,.58,.58-.02,2.23-.01,4.46,0,6.68Z"/>
      <path class="cls-1" d="M88.88,35.02c0,2.19-.02,4.37,.01,6.56,0,.54-.13,.77-.68,.68-.15-.02-.31-.02-.46,0-.53,.08-.54-.24-.53-.63,0-3.91,0-7.82,0-11.73,0-.5,.02-1.01,0-1.51-.02-.4,.11-.52,.51-.52,1.15,0,1.15-.02,1.15,1.12,0,2.01,0,4.02,0,6.03Z"/>
      <path class="cls-1" d="M54.8,37.14c0,1.51-.01,3.01,0,4.51,0,.44-.09,.61-.57,.61-1.12-.02-1.12,0-1.12-1.09v-8.38q0-.82,.85-.82c.11,0,.22,.01,.33,0,.41-.06,.52,.13,.51,.52-.02,1.55,0,3.1,0,4.65Z"/>
      <path class="cls-1" d="M96.91,37.15c0-1.53,.02-3.06-.01-4.59,0-.44,.09-.6,.57-.59,1.11,.03,1.11,0,1.11,1.12,0,2.82-.02,5.64,.01,8.46,0,.58-.14,.81-.72,.71-.15-.03-.31-.02-.46,0-.4,.05-.52-.1-.51-.51,.03-1.53,.01-3.06,.01-4.59,0,0,0,0,0,0Z"/>
      <path class="cls-1" d="M53.85,29.8c-.59,.15-.88-.04-.82-.78,.08-1.03-.11-.79,1.07-.89,.89-.08,.67,.45,.75,.95,.13,.87-.42,.76-1,.73Z"/>
      <path class="cls-1" d="M97.58,29.81c-.52,.13-.79-.05-.74-.76,.04-.58,0-.98,.8-.91,1.12,.09,1-.12,1,.89,0,.94,.09,.77-1.06,.79Z"/>
      <path class="cls-1" d="M156.61,22.14c.15-.17,.04-.43-.15-.58-.29-.21-.63-.17-.95-.11-.23,.04-.13,.29-.14,.45-.01,.31,0,.61,0,.92,0,.12,.04,.22,.17,.24,.17,.03,.23-.08,.24-.23,0-.1-.04-.22,.11-.32,.28,.16,.24,.71,.76,.5-.14-.29-.32-.55-.04-.88Zm-.56,.05c-.19,0-.27-.05-.28-.18,0-.17,.09-.23,.24-.21,.11,.01,.22,.06,.23,.18,0,.16-.13,.19-.19,.21Z"/>
      <path class="cls-1" d="M156.61,22.14c.15-.17,.04-.43-.15-.58-.29-.21-.63-.17-.95-.11-.23,.04-.13,.29-.14,.45-.01,.31,0,.61,0,.92,0,.12,.04,.22,.17,.24,.17,.03,.23-.08,.24-.23,0-.1-.04-.22,.11-.32,.28,.16,.24,.71,.76,.5-.14-.29-.32-.55-.04-.88Zm-.56,.05c-.19,0-.27-.05-.28-.18,0-.17,.09-.23,.24-.21,.11,.01,.22,.06,.23,.18,0,.16-.13,.19-.19,.21Z"/>
    </g>
  </g>
</svg>