<?xml version="1.0" encoding="UTF-8"?>
<svg id="Layer_2" data-name="Layer 2" xmlns="http://www.w3.org/2000/svg" viewBox="0 0 196.84 38.62">
  <defs>
    <style>
      .cls-1 {
        fill: #fff;
      }
    </style>
  </defs>
  <g id="Layer_1-2" data-name="Layer 1">
    <g>
      <path class="cls-1" d="M36.3,28.55c-.66,.25-.69,.99-1.13,1.43-.41,.41-.68,.96-1.01,1.46-.16,.24-.34,.42-.7,.28,.33-.54,.82-1.01,.81-1.7,.12-.09,.21-.25,.09-.32-.17-.1-.14,.13-.21,.21-2.32,3.43-6.4,6.8-8.48,6.89,1.5-.73,2.82-1.47,3.88-2.59-1.19,.52-2.21,1.37-3.5,1.73,.22-.14,.44-.28,.67-.42,2.16-1.3,4.11-2.83,5.46-5.01,.2-.32,.43-.6,.44-1.02,0-.42,.46-.55,.66-.83,.65-.89,1.01-1.92,1.14-3.02,.01-.1,.04-.37-.2-.37-.25,0-.25,.26-.31,.42-.74,2.07-1.83,3.92-3.27,5.57-1.23,1.4-2.67,2.54-4.32,3.4-.14,.08-.29,.15-.44,.2-.07,.02-.16,0-.38-.03,1.27-.81,2.45-1.56,3.51-2.47,2.9-2.48,4.17-5.83,5.05-9.37,.87-3.53,.42-6.93-1.15-10.2-.05-.1-.1-.19-.15-.29-.03-.04-.07-.08-.1-.12-.17,.15,0,.32-.04,.47-.04,.04-.09,.07-.13,.11-3.51-4.59-7.74-8.01-13.89-7.51-3.4,.28-6.46,1.86-9.02,4.17-2.47,2.23-3.84,5.09-4.2,8.39-.64,5.89,1.62,10.4,6.57,13.6,.45,.29,.92,.57,1.38,.84,.06,.03,.15,0,.42,0-.48-.37-.83-.65-1.28-1,.73-.01,1.15,.4,1.66,.62,.4,.17,.78,.38,1.19,.51,.22,.07,.62,.58,.73-.14,0-.01,.21-.02,.31,0,1.15,.31,2.31,.62,3.36,1.18,1.54,.81,1.82,3.38,.55,4.48-.37,.32-.86,.23-1.21,.52h-2.77c-1.77-.56-3.42-1.38-5.11-2.13-5.51-2.46-9.1-6.55-10.64-12.42-.22-.85-.18-1.75-.55-2.56v-3.59c.05-.05,.14-.1,.14-.16,.14-1.84,.48-3.66,1.17-5.37,.62-1.54,1.08-3.13,2.48-4.31,.9-.75,1.76-1.61,2.6-2.46,.01-.01,.08,.04,.13,.06,.03,.09,.05,.18,.08,.27,.05-.06,.11-.11,.16-.17-.09-.03-.17-.06-.26-.08-.04-.38,.12-.56,.51-.51,.01,.09,.03,.18,.04,.28,.22-.15,.46-.28,.56-.55-.1-.01-.19-.02-.29-.03,.18-.47,.48-.79,1.01-.84,.05,.11-.17,.27,0,.32,.1,.03,.25-.15,.38-.23,.07-.05,.2-.1,.1-.2-.1-.1-.14,.03-.19,.1-.1,0-.2,.02-.3,.03-.12-.35,.23-.37,.38-.48C11.12,1.76,13.88,.74,16.88,.31c.89-.13,1.81,.03,2.68-.31h.16c.51,.34,1.09,.1,1.63,.18,.64,.09,1.31,.07,1.67,.74-.65,.42-1.52,.57-2.18,.42-.72-.16-1.4-.07-2.09-.17-.89-.12-1.72,.24-2.63,.33,8.42-.12,14.78,3.32,18.88,10.81,0-.86-.66-2.09-2.36-4.43,.3-.17,.45,.04,.6,.24,.39,.52,.77,1.05,1.17,1.56,.07,.09,.1,.36,.31,.18,.16-.13,.15-.26,.04-.48-.56-1.14-1.49-2.02-2.11-3.09-.23-.39-.58-.62-.82-.97,.05-.04,.1-.08,.15-.13,3.06,2.61,5.34,5.68,5.99,9.82-.47-.08-.27-.65-.75-.67,.33,1.15,.62,2.28,.79,3.45,.17,1.16,.18,2.32,.17,3.48,0,1.2-.22,2.37-.39,3.55-.15,1.06-1.11,1.69-1.28,2.72-.02-.07-.04-.14-.06-.21-.02,.03-.06,.06-.06,.09,0,.08,.03,.14,.13,.11-.08,.35-.16,.69-.23,1.04h.02ZM7.98,4.56c.06,0,.12,0,.19,0-.01-.04-.02-.08-.04-.12-.05,.05-.09,.09-.14,.14-.05,.04-.09,.09-.13,.13,.02,.01,.06,.04,.07,.03,.09-.03,.1-.09,.05-.17Zm27.94,23.03c.11-.1,.13-.23,.1-.37,.21-.11,.18-.27,.1-.45-.16,.09-.15,.24-.15,.39-.14,.09-.14,.23-.12,.37-.13,.06-.23,.22-.11,.28,.17,.09,.13-.14,.19-.23Zm-.39,.77c-.19,0-.22,.14-.26,.28,.05,.01,.1,.05,.14,.03,.15-.06,.13-.19,.11-.31,.16-.03,.19-.14,.15-.28,0-.02-.05-.04-.06-.04-.13,.08-.13,.19-.08,.32ZM6,6.49c.05-.04,.1-.07,.15-.11-.04,.04-.09,.09-.13,.13-.11,0-.16,.06-.15,.17-.33,.17-.49,.48-.62,.81,.31-.2,.62-.4,.6-.83,.21,.08,.19-.04,.14-.18Zm3.38-2.8c.27-.16,.54-.33,.81-.5,1.38-.76,2.84-1.34,4.29-1.94-1.59,.32-3.08,.86-4.42,1.79-.3,.11-.59,.26-.8,.52-.17,.03-.4,.16-.32,.27,.17,.24,.29-.08,.45-.13ZM3.41,10.74c.62-1.02,1.19-2.07,1.78-3.1-.9,.86-1.34,1.98-1.78,3.1Zm31.43,14.01c.29-.66,.54-1.33,.44-2.18-.29,.77-.4,1.47-.44,2.18Zm-3.39,7.56c-.58,.55-1.16,1.1-1.75,1.66,.05,.05,.1,.1,.16,.15,.65-.48,1.22-1.04,1.59-1.81Zm3.87-10.34c.28-.83,.37-1.67,.13-2.51-.1,.84-.01,1.68-.13,2.51Z"/>
      <path class="cls-1" d="M196.84,26.89c-.28,.47-.24,1.01-.35,1.52-.79,3.68-3.22,5.81-6.99,6.15-2.65,.24-5.18-.15-7.59-1.31-.5-.24-.68-.49-.48-1.06,.3-.87,.51-1.76,.76-2.69,1.95,1.1,3.95,1.76,6.17,1.64,2.9-.15,4.53-1.83,4.54-4.74,0-.4,0-.8,0-1.19-.27-.08-.32,.13-.41,.24-1.9,2.09-5.25,2.86-7.84,1.73-2.11-.92-3.08-2.68-3.29-4.86-.31-3.19-.09-6.4-.13-9.6-.02-1.64,0-1.64,1.64-1.64,.54,0,1.09,.04,1.63-.01,.51-.04,.63,.12,.63,.63-.03,2.58,0,5.16-.01,7.74,0,.85,.08,1.68,.34,2.49,.39,1.19,1.22,1.88,2.47,2.05,3.14,.43,4.93-1.19,4.97-4.53,.03-2.55,.02-5.1,0-7.66,0-.56,.12-.76,.71-.72,1.02,.08,2.06-.07,3.08,.07,0,4.78,0,9.55,0,14.33,0,.31-.13,.66,.16,.92,0,.16,0,.33,0,.49Z"/>
      <path class="cls-1" d="M196.84,26.4c-.28-.27-.16-.61-.16-.92,0-4.78,0-9.55,0-14.33,.05-.02,.11-.04,.16-.06v15.32Z"/>
      <path class="cls-1" d="M52.01,13.5c4.23-3.8,7.56-3.65,10.64,.41,.92-1.06,1.93-1.98,3.24-2.53,4.32-1.83,8.42,.69,8.56,5.36,.1,3.53,.03,7.06,.06,10.59,0,.5-.19,.58-.62,.56-.87-.03-1.74-.05-2.61,0-.58,.04-.67-.2-.66-.7,.02-2.66,.02-5.32,0-7.98,0-.76-.03-1.52-.21-2.26-.41-1.66-1.17-2.33-2.93-2.54-1.57-.19-2.93,.48-3.61,1.8-.48,.94-.62,1.96-.62,3,0,2.66-.02,5.32,.01,7.98,0,.59-.17,.74-.73,.71-.81-.05-1.63-.05-2.44,0-.58,.03-.73-.16-.72-.72,.03-2.69,.02-5.38,0-8.06,0-.7-.03-1.41-.19-2.1-.39-1.7-1.12-2.37-2.87-2.6-1.61-.21-3.01,.47-3.69,1.8-.5,.97-.62,2.02-.62,3.08-.01,2.63-.02,5.27,0,7.9,0,.58-.16,.74-.73,.71-.87-.05-1.74-.03-2.61,0-.43,.01-.56-.13-.55-.56,.01-5.24,.01-10.48,0-15.72,0-.42,.12-.57,.55-.55,.92,.03,1.85,.04,2.77,0,.5-.02,.59,.18,.56,.61-.04,.57-.01,1.14-.01,1.83Z"/>
      <path class="cls-1" d="M126.81,25.76s0,0,0,.02c-.02,.67,.22,1.6-.13,1.96-.45,.46-1.38,.14-2.1,.15-1.48,.02-1.48,0-1.48-1.48,0-7.25,0-14.49-.01-21.74,0-.68,.11-.98,.88-.91,.78,.08,1.57,.05,2.36,0,.52-.03,.63,.15,.63,.64-.02,2.74-.01,5.48-.01,8.22v.57c1.35-1.5,2.89-2.19,4.72-2.31,4.23-.29,7.8,2.37,8.61,6.54,.54,2.8,.2,5.47-1.59,7.8-2.52,3.27-7.75,3.99-10.69,1.52-.39-.33-.78-.65-1.17-.98Zm4.94-1.08c2.92-.04,4.83-2.18,4.79-5.38-.03-2.98-2.13-5-5.14-4.95-2.85,.04-4.64,2.07-4.61,5.25,.03,3.17,1.93,5.13,4.95,5.09Z"/>
      <path class="cls-1" d="M174.68,13.16V4.95q0-1.17,1.21-1.17c.68,0,1.36,.03,2.04,0,.47-.02,.6,.14,.6,.6-.02,1.57,0,3.15,0,4.72,0,5.97-.02,11.94,.02,17.91,0,.77-.22,.97-.95,.91-.73-.06-1.46-.03-2.2,0-.41,.02-.59-.08-.56-.53,.04-.56,0-1.13,0-1.69-.08,0-.15-.02-.16,0-2.47,3.83-9.96,3.4-12.54-1.73-2.11-4.2-.78-9.62,2.99-11.97,2.61-1.63,7.08-1.69,9.55,1.18Zm-4.77,11.52c3.02,.03,4.89-1.9,4.94-5.1,.04-3.15-1.76-5.2-4.61-5.24-3.03-.04-5.1,1.99-5.14,5.05-.04,3.09,1.94,5.26,4.82,5.29Z"/>
      <path class="cls-1" d="M116.21,25.46c-2.64,3.85-9.06,3.46-11.9-.29-2.69-3.56-2.23-9.2,1-12.28,2.49-2.38,7.7-3.09,10.74,.18,.02-.32,.05-.57,.05-.83,0-2.55,.02-5.1-.01-7.66,0-.6,.1-.89,.79-.83,.84,.07,1.68,.04,2.52,0,.44-.02,.54,.14,.54,.56-.01,7.68,0,15.36,0,23.05,0,.35-.04,.55-.47,.53-.92-.03-1.85-.03-2.77,0-.4,0-.51-.15-.5-.53,.03-.56,0-1.12,0-1.92Zm0-5.97c0-1.63-.36-3.14-1.72-4.19-2.23-1.72-5.67-1.15-7.17,1.16-1.63,2.51-.8,6.33,1.65,7.64,3.56,1.9,7.24-.45,7.24-4.61Z"/>
      <path class="cls-1" d="M150.77,28.19c-5.13-.01-8.78-3.63-8.77-8.67,.01-5.06,3.64-8.66,8.77-8.69,4.88-.03,8.88,3.9,8.89,8.71,0,5.06-3.7,8.66-8.89,8.64Zm-4.83-8.73c.04,1.93,.66,3.49,2.2,4.57,2.13,1.49,5.17,.88,6.66-1.32,1.65-2.44,1.01-6.25-1.34-7.77-1.58-1.02-3.28-1.1-4.93-.21-1.89,1.02-2.54,2.78-2.59,4.73Z"/>
      <path class="cls-1" d="M88.78,13.58c2.1-2.5,4.62-3.15,7.52-2.51,2.38,.53,3.99,2.4,4.21,5.07,.3,3.76,.07,7.54,.12,11.31,0,.38-.17,.45-.5,.44-.92-.01-1.85-.04-2.77,0-.54,.03-.62-.18-.61-.65,.02-2.63,.02-5.26,0-7.9,0-.59-.04-1.19-.12-1.78-.29-2.24-1.66-3.34-3.92-3.17-2.44,.18-3.82,1.52-3.9,4.02-.09,2.87-.06,5.75-.03,8.63,0,.66-.13,.91-.83,.86-.84-.06-1.68-.03-2.52,0-.41,.01-.56-.09-.56-.53,.01-5.26,.01-10.53,0-15.8,0-.39,.11-.51,.5-.5,.98,.02,1.95,.02,2.93,0,.35,0,.48,.1,.47,.46-.02,.62,0,1.24,0,2.04Z"/>
      <path class="cls-1" d="M77.59,19.46c0-2.55,.02-5.1-.02-7.65-.01-.63,.18-.78,.77-.75,.86,.05,1.74,.04,2.6,0,.44-.02,.54,.14,.54,.55-.01,5.23-.01,10.47,0,15.7,0,.46-.13,.6-.59,.58-.89-.03-1.79-.04-2.68,0-.5,.02-.64-.13-.64-.64,.02-2.6,.01-5.21,.01-7.81Z"/>
      <path class="cls-1" d="M82.15,6.01c0,1.4-1.16,2.57-2.57,2.6-1.37,.03-2.6-1.18-2.62-2.57-.02-1.38,1.18-2.59,2.59-2.59,1.41,0,2.61,1.17,2.61,2.56Z"/>
      <path class="cls-1" d="M31.81,5.32c-.13-.12-.32-.18-.36-.39,.27-.09,.39,.08,.5,.26-.05,.04-.1,.08-.15,.13Z"/>
      <path class="cls-1" d="M32.62,12.85c.2,.13,.13,.3,.11,.63-.12-.27-.18-.4-.24-.52,.04-.04,.09-.07,.13-.11Z"/>
      <path class="cls-1" d="M36.28,28.56s.05,0,.08,0c0,0,0,0,.01,.01-.02,0-.05-.01-.07-.02,0,0-.02,.01-.02,.01Z"/>
      <path class="cls-1" d="M10.06,3.04c1.34-.92,2.84-1.47,4.42-1.79-1.45,.6-2.91,1.18-4.29,1.94-.05-.05-.09-.1-.14-.15Z"/>
      <path class="cls-1" d="M3.41,10.74c.44-1.12,.88-2.24,1.78-3.1-.59,1.04-1.15,2.09-1.78,3.1Z"/>
      <path class="cls-1" d="M34.84,24.75c.04-.72,.15-1.41,.44-2.18,.1,.85-.15,1.52-.44,2.18Z"/>
      <path class="cls-1" d="M31.44,32.31c-.37,.77-.94,1.33-1.59,1.81-.05-.05-.1-.1-.16-.15,.58-.55,1.16-1.11,1.75-1.66Z"/>
      <path class="cls-1" d="M35.32,21.97c.11-.83,.03-1.67,.13-2.51,.24,.84,.15,1.67-.13,2.51Z"/>
      <path class="cls-1" d="M5.86,6.67c.01,.43-.3,.63-.6,.83,.13-.33,.28-.64,.62-.81v-.02Z"/>
      <path class="cls-1" d="M9.26,3.56c.21-.26,.49-.4,.8-.52,.05,.05,.09,.1,.14,.16-.27,.16-.54,.33-.81,.5-.04-.05-.08-.09-.12-.14Z"/>
      <path class="cls-1" d="M7.32,4.9c.1,.01,.19,.02,.29,.03-.1,.27-.34,.4-.56,.55-.01-.09-.03-.18-.04-.28v.02c.13,.02,.19-.03,.16-.18v.02c.12,.02,.2-.02,.16-.18l-.02,.02Z"/>
      <path class="cls-1" d="M8.71,4.14c-.13,.08-.28,.26-.38,.23-.17-.04,.05-.2,0-.32l-.02,.02c.1,0,.2-.02,.3-.03,.03,.03,.07,.07,.1,.1Z"/>
      <path class="cls-1" d="M9.38,3.69c-.15,.05-.28,.37-.44,.13-.08-.11,.16-.24,.32-.27,.04,.05,.08,.09,.12,.14Z"/>
      <path class="cls-1" d="M6.02,6.51s.09-.09,.13-.13c-.05,.04-.1,.07-.15,.11,0,0,.02,.02,.02,.02Z"/>
      <path class="cls-1" d="M35.52,28.35c.02,.12,.04,.25-.11,.31-.04,.01-.09-.02-.14-.03,.04-.14,.07-.28,.26-.28h0Z"/>
      <path class="cls-1" d="M35.96,27.16c0-.15,0-.3,.15-.39,.09,.18,.12,.34-.1,.45l-.06-.06Z"/>
      <path class="cls-1" d="M6.51,5.71c.09,.03,.17,.06,.26,.08-.05,.06-.11,.11-.16,.17-.03-.09-.05-.18-.08-.27,0,0-.02,.02-.02,.02Z"/>
      <path class="cls-1" d="M36.02,27.22c.02,.14,0,.26-.1,.37-.03-.02-.05-.03-.08-.05-.02-.14-.02-.28,.12-.37l.06,.06Z"/>
      <path class="cls-1" d="M36.52,27.52c-.1,.03-.13-.02-.13-.11,0-.03,.04-.06,.06-.09,.02,.07,.04,.14,.06,.21,0,0,.02-.02,.02-.02Z"/>
      <path class="cls-1" d="M35.92,27.58c-.06,.09-.02,.32-.19,.23-.12-.06-.03-.22,.11-.28,.02,.02,.05,.04,.08,.05Z"/>
      <path class="cls-1" d="M35.53,28.36c-.05-.13-.05-.24,.08-.32,.01,0,.06,.02,.06,.04,.04,.14,0,.24-.15,.28,0,0,0,0,0,0Z"/>
      <path class="cls-1" d="M34.14,29.92c.07-.08,.04-.32,.21-.21,.11,.07,.02,.23-.09,.32-.04-.04-.08-.07-.12-.11Z"/>
      <path class="cls-1" d="M8.61,4.04c.05-.07,.09-.2,.19-.1,.1,.1-.03,.15-.1,.2-.03-.03-.07-.07-.1-.1Z"/>
      <path class="cls-1" d="M7.99,4.56s.09-.09,.14-.14c.01,.04,.02,.08,.04,.12-.06,0-.12,0-.19,0h.01Z"/>
      <path class="cls-1" d="M5.87,6.69c-.01-.11,.04-.16,.15-.17,0,0-.02-.02-.02-.02,.04,.13,.07,.25-.14,.18,0,0,.01,.02,.01,.02Z"/>
      <path class="cls-1" d="M7.98,4.56c.05,.08,.04,.14-.05,.17-.02,0-.05-.02-.07-.03,.05-.04,.09-.09,.13-.13,0,0,0,0,0,0Z"/>
      <path class="cls-1" d="M7.18,5.05c.02,.14-.03,.2-.18,.18,0-.06,0-.12-.01-.19,.06,0,.13,0,.19,0Z"/>
      <path class="cls-1" d="M7.34,4.88c.04,.16-.04,.2-.18,.18,0-.06,0-.12-.01-.19,.06,0,.13,0,.19,0Z"/>
    </g>
  </g>
</svg>