<?xml version="1.0" encoding="UTF-8"?>
<svg id="Layer_2" data-name="Layer 2" xmlns="http://www.w3.org/2000/svg" viewBox="0 0 116.89 46.73">
  <defs>
    <style>
      .cls-1 {
        fill: #fff;
      }
    </style>
  </defs>
  <g id="Layer_1-2" data-name="Layer 1">
    <g>
      <path class="cls-1" d="M17.35,21.31c0-5.45,0-10.9-.01-16.36,0-.49,.15-.58,.59-.57,1.52,.03,3.05,.02,4.57,0,.39,0,.48,.1,.48,.48-.02,2.4,0,4.81-.02,7.21,0,.41,.08,.53,.52,.53,2.83-.01,5.65-.1,8.48,.09,1.69,.11,3.39,.24,4.92,1.05,2.4,1.26,3.67,3.28,3.69,5.98,.04,6.03,0,12.06,.02,18.08,0,.39-.08,.51-.49,.5-1.52-.03-3.05-.03-4.57,0-.38,0-.48-.09-.48-.47,.02-2.81,.03-5.62,.03-8.43,0-2.2-.03-4.4-.07-6.6-.02-1.05-.23-2.09-.54-3.09-.5-1.62-1.7-2.54-3.48-2.61-2.54-.1-5.08-.03-7.62-.03-.32,0-.35,.14-.35,.4,0,1.44,0,2.88,0,4.32,0,5.32,0,10.63,.01,15.95,0,.44-.1,.57-.55,.56-1.54-.03-3.08-.03-4.62,0-.42,0-.53-.1-.53-.53,.02-5.49,.01-10.97,.01-16.46Z"/>
      <path class="cls-1" d="M73.44,32.35c.73-1.64,1.42-3.17,2.1-4.72,2.08-4.72,4.16-9.43,6.23-14.15,.25-.56,.6-.83,1.24-.82,1.61,.03,3.21,.01,4.85,.01-.09,.49-.29,.88-.47,1.27-4.78,10.62-9.57,21.23-14.36,31.85-.36,.8-.61,.95-1.49,.92-1.39-.05-2.77-.03-4.16,0-.16,0-.33,.05-.53-.06,.61-1.35,1.21-2.71,1.84-4.05,.37-.8,.74-1.6,1.18-2.35,.71-1.2,.72-2.39,.15-3.63-.96-2.09-1.9-4.19-2.84-6.28-2.5-5.58-4.99-11.17-7.49-16.76-.38-.86-.38-.88,.56-.88,1.44,0,2.88,.02,4.32,.02,.3,0,.51,.12,.69,.35,.2,.26,.31,.56,.44,.85,2.5,5.95,5,11.91,7.49,17.86,.07,.16,.15,.33,.26,.58Z"/>
      <path class="cls-1" d="M116.76,9.81H29.47s0-.02,0-.02c1.44-.12,2.89-.25,4.33-.37,2.82-.23,5.63-.46,8.45-.69,3.97-.32,7.93-.63,11.89-.95,3.64-.29,7.29-.59,10.93-.88,4.01-.32,8.03-.64,12.05-.96,4.54-.36,9.08-.72,13.61-1.09,.86-.07,1.72-.13,2.58-.21,.62-.05,.92-.36,.93-.98,.01-.88,0-1.76,0-2.64,0-.88,.59-1.26,1.39-.9,6.83,3.09,13.66,6.19,20.49,9.28,.21,.1,.43,.2,.64,.31,0,.03,0,.06,0,.09Z"/>
      <path class="cls-1" d="M103.28,33.04c.56-1.39,1.11-2.74,1.64-4.11,1.97-5.13,3.93-10.26,5.89-15.39,.3-.79,.52-.94,1.35-.94,1.44,0,2.88,.02,4.32-.01,.45,0,.49,.1,.33,.49-2.32,5.65-4.62,11.3-6.93,16.94-.83,2.03-1.68,4.06-2.5,6.1-.59,1.47-1.53,2.65-3.77,2.49-.24-.02-.47,0-.71,0-1.79,.05-2.86-.61-3.57-2.27-.68-1.6-1.33-3.22-2-4.83-2.53-6.12-5.06-12.25-7.6-18.37q-.22-.53,.34-.53c1.4,0,2.81,.04,4.22-.01,.95-.04,1.25,.39,1.5,1.06,1.08,2.83,2.16,5.65,3.24,8.48,1.32,3.44,2.63,6.88,3.95,10.32,.07,.19,.11,.39,.3,.59Z"/>
      <path class="cls-1" d="M.03,17.37C.03,13.25,.04,9.14,.02,5.03c0-.42,.1-.53,.53-.53,1.56,.03,3.11,.02,4.67,0,.36,0,.45,.1,.45,.45-.01,2.4,0,4.81-.02,7.21,0,.47,.13,.55,.57,.55,2.44-.02,4.88,0,7.31-.02,.4,0,.52,.1,.51,.5-.03,1.15-.02,2.3,0,3.45,0,.36-.11,.45-.46,.45-2.47-.01-4.94,0-7.41-.02-.43,0-.53,.11-.53,.53,.02,3.11,0,6.23,.03,9.34,.01,1.15,.12,2.3,.43,3.42,.6,2.12,2.04,3.28,4.36,3.47,1.1,.09,2.19,.14,3.29,.18,.33,.01,.43,.1,.43,.43-.02,1.17,0,2.34,0,3.5,0,.17,.06,.37-.25,.37-2.23-.04-4.47,.16-6.69-.22-1.85-.32-3.56-.95-4.93-2.3-1.23-1.22-1.78-2.75-2.06-4.43C-.03,29.71,.03,28.03,.01,26.36c-.03-3,0-5.99,0-8.99h.03Z"/>
      <path class="cls-1" d="M43.67,29.31c0-2.37-.01-4.74,0-7.11,.01-1.36,.14-2.71,.52-4.01,.79-2.75,2.72-4.31,5.39-5.07,1.66-.47,3.37-.54,5.08-.53,.93,0,1.86,.03,2.79,0,.33,0,.39,.1,.39,.4-.02,1.17-.02,2.34,0,3.5,0,.32-.09,.4-.39,.41-1.06,.04-2.13,.09-3.19,.17-2.74,.2-4.33,1.71-4.71,4.43-.16,1.14-.24,2.29-.24,3.44,0,4.28,0,8.57,.01,12.85,0,.42-.11,.54-.53,.53-1.54-.03-3.08-.03-4.62,0-.44,0-.52-.13-.52-.54,.02-2.83,0-5.65,0-8.48Z"/>
    </g>
  </g>
</svg>