<?xml version="1.0" encoding="UTF-8"?>
<svg id="Layer_2" data-name="Layer 2" xmlns="http://www.w3.org/2000/svg" viewBox="0 0 243.33 40.19">
  <defs>
    <style>
      .cls-1 {
        fill: #fff;
      }
    </style>
  </defs>
  <g id="Layer_1-2" data-name="Layer 1">
    <g>
      <path class="cls-1" d="M114.53,0c.25,.15,.53,.08,.79,.11,1.5,.22,2.93,.66,4.2,1.51,1.46,.98,2.44,2.34,3.12,3.95,.45,1.07,.68,2.19,.89,3.31,.09,.5,.13,1.01,.14,1.52,.16,9.5,.03,19,.08,28.5,0,.32-.08,.38-.39,.38-3.53-.01-7.06-.01-10.6,0-.26,0-.31-.08-.31-.32,0-8.95,.02-17.91,0-26.86,0-1.39-.21-2.77-.8-4.05-.65-1.41-1.75-2.26-3.3-2.55-1.73-.33-3.28,.09-4.75,.99-1.18,.73-2.23,1.62-3.19,2.61-.6,.62-1.25,1.19-1.8,1.85-.12,.15-.16,.28-.15,.46,0,5.11,0,10.22,0,15.33,0,4.07,0,8.15,0,12.22,0,.27-.06,.33-.33,.33-3.54-.01-7.09,0-10.63,0-.27,0-.33-.06-.33-.33,0-10.68,.01-21.37,0-32.05,0-1.07-.35-2.05-1.1-2.87-.76-.84-1.71-1.27-2.78-1.51-.6-.13-1.21-.23-1.83-.19-.24,.01-.33-.06-.32-.31,.02-.38,.01-.76,0-1.13,0-.14,.03-.2,.18-.18,.05,0,.11,0,.16,0,5.54,0,11.08,0,16.62,0,.28,0,.35,.05,.35,.34-.01,2.41,0,4.82,0,7.23v.33c.23-.1,.3-.32,.44-.47,1.08-1.06,2.11-2.16,3.22-3.2,1.39-1.31,2.85-2.53,4.54-3.45,1.2-.65,2.47-1.09,3.82-1.31,.4-.07,.81-.05,1.2-.18,.95,0,1.9,0,2.85,0Z"/>
      <path class="cls-1" d="M191.67,0c.03,.11,.12,.06,.19,.06,.99,.02,1.96,.16,2.93,.32,1.15,.18,2.27,.46,3.36,.85,1.38,.49,2.65,1.17,3.77,2.12,1.18,.99,2.07,2.19,2.7,3.58,.45,1,.74,2.05,.92,3.14,.19,1.18,.26,2.37,.26,3.57,0,5.54,0,11.08,0,16.62,0,1.08,.02,2.15-.02,3.22-.07,1.83,0,3.67-.03,5.5,0,.23-.04,.3-.29,.3-3.67,0-7.35,0-11.02,0-.24,0-.3-.04-.3-.29,.01-1.64,0-3.28,0-4.98-.12,.11-.21,.19-.29,.28-1.24,1.27-2.56,2.46-4.06,3.42-1.51,.97-3.13,1.69-4.9,2.03-.65,.13-1.31,.22-1.97,.27-.45,.04-.9,.06-1.35,.04-2.15-.09-4.23-.47-6.14-1.51-.96-.52-1.84-1.17-2.57-1.99-1.04-1.15-1.76-2.49-2.16-3.98-.3-1.11-.37-2.26-.26-3.4,.18-1.91,.88-3.64,2.06-5.17,1.16-1.51,2.66-2.55,4.4-3.3,2.16-.93,4.41-1.54,6.69-2.11,1.26-.31,2.53-.62,3.81-.9,1.42-.31,2.85-.57,4.28-.85,.76-.15,1.52-.3,2.28-.46,.13-.03,.21-.08,.21-.25,0-2.49,.05-4.97-.02-7.45-.04-1.5-.3-2.98-1.04-4.33-.65-1.19-1.65-1.93-2.95-2.29-1.1-.3-2.22-.3-3.34-.24-1.47,.08-2.94,.26-4.37,.63-.26,.07-.35,.17-.35,.45,.01,3.33,0,6.65,.01,9.98,0,.25-.07,.36-.3,.48-.83,.4-1.7,.6-2.62,.7-1.05,.11-2.07,.04-3.05-.34-.63-.24-1.2-.58-1.71-1.03-.91-.79-1.48-1.77-1.75-2.93-.18-.79-.19-1.58-.05-2.39,.25-1.45,.97-2.61,2.02-3.58,1.04-.96,2.28-1.61,3.59-2.13,1.38-.54,2.8-.88,4.25-1.15,.68-.12,1.37-.22,2.07-.28,.91-.08,1.82-.19,2.74-.19,.02,0,.04-.04,.06-.06,1.45,0,2.89,0,4.34,0Zm2.46,25.02c0-2.16,0-4.32,0-6.48,0-.21,0-.31-.28-.23-.46,.13-.94,.2-1.41,.29-1.28,.24-2.56,.52-3.83,.82-1.01,.24-2.02,.49-3.04,.74-1.03,.25-2.06,.52-3.07,.84-.14,.04-.24,.08-.24,.26,.05,2.76-.07,5.52,.06,8.28,.04,.88,.2,1.73,.53,2.54,.48,1.17,1.24,2.12,2.4,2.7,.6,.3,1.23,.47,1.91,.56,1.16,.15,2.24,0,3.29-.51,.7-.33,1.32-.77,1.9-1.27,.55-.48,1.05-1.03,1.57-1.56,.15-.15,.22-.33,.22-.57,0-2.14,0-4.28,0-6.41Z"/>
      <path class="cls-1" d="M60.09,40.19c-.06-.13-.17-.06-.26-.06-.85-.04-1.68-.19-2.51-.31-1.05-.16-2.06-.45-3.07-.74-.63-.19-1.24-.47-1.86-.72-.99-.41-1.92-.95-2.82-1.54-.68-.46-1.34-.96-1.94-1.52-1.11-1.04-2.11-2.18-2.92-3.48-.86-1.37-1.52-2.82-2-4.36-.33-1.06-.55-2.14-.73-3.24-.27-1.66-.29-3.33-.23-4.99,.04-1,.17-1.99,.36-2.98,.2-1.06,.46-2.1,.8-3.12,.56-1.68,1.35-3.27,2.35-4.74,.5-.74,1.08-1.43,1.68-2.1,1.26-1.43,2.74-2.57,4.36-3.55,1.07-.65,2.21-1.15,3.39-1.58,1-.36,2.03-.64,3.07-.83,.76-.14,1.52-.27,2.3-.27,.06,0,.13,.03,.16-.06h3.18c.03,.11,.12,.06,.19,.06,1.01,.02,2,.19,2.98,.4,1.56,.34,3.07,.86,4.48,1.62,.94,.5,1.81,1.1,2.61,1.79,1.08,.93,2.01,1.98,2.77,3.18,.91,1.44,1.58,3,2.01,4.65,.26,.99,.45,1.98,.56,2.99,.13,1.14,.17,2.29,.14,3.43,0,.15-.1,.28-.07,.44,.02,.09-.04,.11-.12,.11-.09,0-.17,0-.26,0-8.16,0-16.31,0-24.47,0-.32,0-.39,.08-.38,.39,.02,.82-.03,1.64,.02,2.46,.07,1.09,.14,2.18,.3,3.26,.2,1.38,.52,2.73,.99,4.04,.51,1.42,1.22,2.72,2.18,3.88,1.02,1.23,2.24,2.17,3.69,2.82,.95,.43,1.96,.7,2.99,.86,.95,.15,1.91,.23,2.87,.18,1.35-.06,2.66-.3,3.91-.84,1.24-.54,2.35-1.27,3.36-2.18,1.05-.93,1.95-1.98,2.77-3.11,.14-.19,.26-.32,.51-.1,.27,.24,.57,.46,.89,.65,.19,.12,.14,.2,.05,.34-.73,1.03-1.5,2.01-2.35,2.94-1.17,1.29-2.5,2.38-3.97,3.29-.93,.58-1.92,1.03-2.94,1.43-1.14,.44-2.31,.72-3.5,.94-.64,.12-1.3,.21-1.96,.21-.06,0-.13-.03-.16,.06h-3.43Zm6.2-30.58h-.02c0-2.35,0-4.71,0-7.06,0-.17,0-.24-.2-.29-.56-.13-1.12-.21-1.68-.23-.69-.02-1.39-.05-2.09,.04-.58,.08-1.16,.15-1.73,.33-1.37,.44-2.41,1.31-3.3,2.4-.91,1.11-1.54,2.37-2.04,3.71-.63,1.67-1,3.4-1.17,5.19-.1,.99-.19,1.97-.19,2.97,0,.2,.03,.27,.26,.27,3.96,0,7.93,0,11.89,0,.23,0,.28-.1,.28-.28,0-2.35,0-4.7,0-7.04Z"/>
      <path class="cls-1" d="M150.31,0c.05,.12,.15,.06,.22,.06,.98,.03,1.95,.15,2.92,.25,.87,.09,1.74,.21,2.6,.34,1,.16,2,.36,3,.54,.95,.18,1.89,.43,2.83,.68,.24,.06,.36,.15,.36,.44-.01,3.45-.01,6.89,0,10.34,0,.26-.07,.33-.32,.31-.27-.02-.54-.04-.81,0-.4,.06-.53-.13-.64-.47-.62-1.98-1.56-3.79-2.82-5.43-.95-1.23-2.05-2.3-3.35-3.19-.97-.67-2-1.2-3.11-1.58-.74-.26-1.51-.4-2.3-.5-.65-.08-1.29-.09-1.93-.04-1.63,.14-3.14,.6-4.37,1.75-.94,.88-1.51,1.93-1.7,3.19-.15,1.03-.13,2.03,.38,2.97,.46,.86,1.18,1.44,1.99,1.93,1.49,.9,3.14,1.43,4.79,1.93,1.5,.46,3.04,.82,4.55,1.24,1.43,.4,2.85,.85,4.22,1.43,1.22,.52,2.41,1.1,3.5,1.86,1.48,1.03,2.65,2.32,3.39,3.97,.41,.92,.65,1.89,.79,2.89,.16,1.09,.15,2.19,.1,3.27-.05,1.25-.36,2.46-.81,3.63-.46,1.22-1.11,2.33-1.96,3.3-.93,1.06-2,1.99-3.25,2.69-1.09,.61-2.21,1.12-3.4,1.47-.94,.28-1.89,.51-2.87,.64-.63,.08-1.26,.19-1.9,.19-.02,0-.04,.04-.06,.06h-4.15c-.05-.12-.15-.06-.22-.06-.96-.03-1.9-.15-2.85-.25-1.09-.11-2.18-.28-3.25-.48-1.16-.22-2.3-.5-3.45-.79-1.33-.34-2.62-.8-3.91-1.27-.25-.09-.39-.22-.39-.55,.02-3.58,.01-7.15,0-10.73,0-.27,.06-.35,.33-.33,.35,.03,.71,.02,1.07,0,.17,0,.26,.06,.29,.21,.28,1.33,.77,2.59,1.37,3.8,.52,1.06,1.16,2.05,1.9,2.99,.58,.74,1.22,1.42,1.92,2.03,1.78,1.57,3.81,2.68,6.15,3.24,1.34,.32,2.69,.44,4.05,.37,1.33-.08,2.63-.37,3.84-.96,1.24-.6,2.26-1.45,2.85-2.73,.42-.9,.48-1.85,.38-2.85-.07-.66-.2-1.28-.5-1.87-.44-.87-1.15-1.47-1.96-1.97-1.95-1.21-4.12-1.87-6.28-2.57-2.15-.7-4.34-1.25-6.46-2.02-1.76-.63-3.47-1.35-5.03-2.4-1.1-.74-2.07-1.61-2.79-2.74-.63-.99-.99-2.07-1.2-3.23-.2-1.12-.24-2.24-.17-3.35,.12-1.99,.61-3.87,1.69-5.58,.53-.85,1.17-1.59,1.9-2.26,.63-.58,1.34-1.07,2.09-1.5,1.43-.82,2.97-1.34,4.57-1.72,.83-.2,1.67-.33,2.52-.42,.54-.06,1.08-.14,1.62-.13,.02,0,.04-.04,.06-.06,1.32,0,2.64,0,3.95,0Z"/>
      <path class="cls-1" d="M0,38.18c.06-.05,.13-.1,.19-.16,2.16-2.18,4.33-4.33,6.46-6.54,1.21-1.26,2.49-2.45,3.67-3.73,1.2-1.3,2.51-2.49,3.72-3.78,1.17-1.26,2.41-2.43,3.61-3.66,.21-.21,.31-.42,.31-.73-.01-5.63-.01-11.26,0-16.88,0-.3-.08-.36-.37-.36-1.92,.03-3.77,.4-5.55,1.14-1.33,.56-2.55,1.3-3.65,2.22-1.45,1.22-2.61,2.65-3.54,4.3-.84,1.49-1.44,3.07-1.75,4.75-.03,.15-.08,.24-.27,.23-.35-.02-.69-.02-1.04,0-.24,.01-.32-.05-.32-.31,0-3.49,0-6.98,0-10.47,0-1.07,0-2.14,0-3.21,0-.22,.04-.29,.27-.29,11.65,0,23.31,0,34.97,0,.22,0,.27,.04,.29,.27,.05,.53-.11,.9-.51,1.26-.62,.55-1.21,1.15-1.77,1.76-1.2,1.31-2.53,2.5-3.74,3.81-1.19,1.28-2.48,2.46-3.67,3.74-1.2,1.3-2.51,2.49-3.72,3.78-1.19,1.28-2.47,2.47-3.67,3.74-.26,.28-.51,.58-.79,.84-.09,.09-.1,.18-.1,.29,0,5.75,0,11.49,0,17.24,0,.21,.07,.25,.26,.24,1.08-.07,2.16-.16,3.22-.37,1.54-.31,2.98-.84,4.36-1.58,.95-.51,1.83-1.13,2.66-1.83,.41-.35,.78-.73,1.16-1.11,.98-.97,1.79-2.07,2.47-3.27,.66-1.15,1.2-2.35,1.58-3.63,.14-.49,.31-.98,.36-1.49,.02-.21,.15-.27,.29-.26,.39,.03,.78,.01,1.17,0,.09,0,.21-.02,.17,.14-.01,.05,0,.11,0,.16,0,4.84,0,9.68,0,14.52,0,.27-.07,.33-.33,.33-12.14,0-24.28,0-36.42,0,0-.37,0-.74,0-1.1Z"/>
      <path class="cls-1" d="M243.33,11.28c-1.11-.36-2.24-.52-3.4-.6-.8-.05-1.59-.07-2.38-.03-1.03,.06-2.06,.16-3.08,.36-.89,.17-1.76,.38-2.61,.64-1.2,.38-2.32,.93-3.34,1.66-.18,.13-.33,.3-.51,.43-.23,.18-.3,.4-.3,.69,0,8.17,0,16.33,.01,24.5,0,.3-.08,.36-.37,.36-3.64,0-7.28,0-10.92,0-.27,0-.33-.07-.33-.33,0-10.62,0-21.24,0-31.85,0-2.12-1.18-3.74-3.19-4.38-.81-.26-1.64-.41-2.49-.38-.3,.01-.38-.1-.36-.37,.02-.31,.02-.63,0-.94-.01-.24,.04-.33,.31-.32,.72,.02,1.45,0,2.17,0,4.94,0,9.87,0,14.81,0,.31,0,.36,.09,.36,.37,0,3.33,0,6.65,0,9.98v.25s.03,.01,.05,.02c.12-.25,.26-.5,.37-.76,.57-1.3,1.27-2.53,2.04-3.73,.65-1.01,1.38-1.96,2.19-2.85,1.19-1.32,2.55-2.39,4.16-3.14,.8-.38,1.65-.62,2.54-.73,.76-.09,1.53-.07,2.29-.04,.68,.03,1.37,.15,1.99,.5,0,3.57,0,7.13,0,10.7Z"/>
    </g>
  </g>
</svg>