<?xml version="1.0" encoding="UTF-8"?>
<svg id="Layer_2" data-name="Layer 2" xmlns="http://www.w3.org/2000/svg" viewBox="0 0 204.5 43.7">
  <defs>
    <style>
      .cls-1 {
        fill: #00b3e6;
      }

      .cls-2 {
        fill: #fff5f6;
      }
    </style>
  </defs>
  <g id="Layer_1-2" data-name="Layer 1">
    <path class="cls-1" d="M11.7,19.7l11.7,23.9H0L11.7,19.7ZM37.3,0H21.3l21.3,43.7h16L37.3,0Z"/>
    <polygon class="cls-2" points="137.6 15.8 140.5 15.8 140.5 31.1 150.2 31.1 150.2 33.7 137.6 33.7 137.6 15.8"/>
    <rect class="cls-2" x="156.3" y="15.8" width="2.9" height="17.9"/>
    <path class="cls-2" d="M186.5,15.8h6.7c1.5,0,2.9,.1,4.4,.4,4.2,1,6.9,3.7,6.9,8.3s-2.8,7.5-7.2,8.7c-1.7,.4-3.4,.6-5.1,.6h-5.7V15.8Zm5.7,15.3c1.5,0,3-.1,4.5-.5,3-.9,4.8-2.8,4.8-6.2s-1.9-5-4.7-5.7c-1.3-.3-2.6-.4-4-.4h-3.5v12.8h2.9Z"/>
    <polygon class="cls-2" points="80.7 26 83.7 19.7 83.7 19.7 86.9 26 82.2 26 82.2 28.6 88.2 28.6 90.8 33.7 93.9 33.7 84.7 15.7 82.7 15.7 73.8 33.7 77 33.7 80.7 26"/>
    <path class="cls-2" d="M131.9,21.5c0,3.5-2.5,5.2-5.1,5.7-1.1,.2-2.2,.3-3.3,.3h-.2v-2.6h.3c.9,0,1.7,0,2.6-.2,1.5-.4,2.6-1.3,2.6-3.1s-1-2.6-2.3-3c-.8-.2-1.8-.2-2.9-.2h-2.2v15.4h-2.9V15.8h5.3c1.2,0,2.4,.1,3.5,.3,2.4,.6,4.6,2.2,4.6,5.4"/>
    <path class="cls-2" d="M112.8,21.5c0,3.5-2.5,5.2-5.1,5.7-1.1,.2-2.2,.3-3.3,.3h-.2v-2.6h.3c.9,0,1.7,0,2.6-.2,1.5-.4,2.6-1.3,2.6-3.1s-1-2.6-2.3-3c-.8-.2-1.8-.2-2.9-.2h-2.2v15.4h-2.9V15.8h5.3c1.2,0,2.4,.1,3.5,.3,2.5,.6,4.6,2.2,4.6,5.4"/>
    <path class="cls-2" d="M169.7,25.9v5.2h10.1v2.6h-13V15.8h12.9v2.6h-10v7.5Zm1.9,0h7v-2.6h-7v2.6Z"/>
  </g>
</svg>