<?xml version="1.0" encoding="utf-8"?>
<!-- Generator: Adobe Illustrator 22.0.1, SVG Export Plug-In . SVG Version: 6.00 Build 0)  -->
<svg version="1.1" id="Layer_1" xmlns="http://www.w3.org/2000/svg" xmlns:xlink="http://www.w3.org/1999/xlink" x="0px" y="0px"
	 viewBox="0 0 159.273 50" enable-background="new 0 0 159.273 50" xml:space="preserve">
<g>
	<path fill="#022FDE" d="M22.659,48.392C13.271,47.939,6.067,43.88,1.513,35.5c-0.356-0.655-1.134-1.282-0.951-1.98
		c0.16-0.613,0.925-1.066,1.418-1.594c2.521-2.697,5.472-4.794,8.797-6.389c0.663-0.318,0.815-0.112,0.909,0.512
		c0.395,2.622,1.409,4.937,3.347,6.82c3.383,3.287,8.686,4.104,12.82,1.832c1.168-0.642,2.14-0.688,3.312-0.033
		c3.039,1.7,5.514,3.949,7.316,6.944c0.287,0.477,0.221,0.698-0.178,1.037c-3.738,3.182-8.042,5.04-12.918,5.581
		c-0.543,0.06-1.087,0.121-1.632,0.157C23.39,48.411,23.024,48.392,22.659,48.392z"/>
	<path fill="#022FDE" d="M22.744,1.351c5.44,0.219,10.459,1.709,14.75,5.168c1.656,1.335,1.441,0.945,0.404,2.556
		c-1.896,2.945-4.554,5.006-7.707,6.479c-0.73,0.341-1.304,0.042-1.89-0.254c-1.534-0.774-3.126-1.307-4.855-1.425
		c-5.802-0.398-10.512,3.497-11.639,9.256c-0.288,1.47-0.279,1.457-1.61,0.808c-3.178-1.55-5.993-3.586-8.356-6.224
		c-0.439-0.49-1.242-0.84-1.273-1.447c-0.028-0.546,0.516-1.122,0.812-1.683C4.225,9.185,8.414,5.279,14.141,3.071
		C16.761,2.061,20.15,1.381,22.744,1.351z"/>
	<path fill="#022FDE" d="M72.427,41.683c-5.042-0.201-9.612-1.824-12.881-6.123c-5.934-7.806-3.403-20.301,5.855-24.24
		c6.163-2.622,12.18-1.976,17.63,2.161c0.597,0.453,1.063,1.08,1.587,1.63c0.264,0.276,0.258,0.47-0.108,0.698
		c-1.547,0.962-3.087,1.936-4.602,2.947c-0.652,0.435-1.02,0.024-1.405-0.357c-1.317-1.305-2.865-2.169-4.721-2.335
		c-4.938-0.442-10.108,2.51-10.341,9.315c-0.105,3.061,0.691,5.779,3.112,7.835c2.786,2.366,7.519,3.474,11.201,0.705
		c0.716-0.538,1.304-0.533,2.044-0.025c1.301,0.892,2.657,1.708,4.014,2.514c0.555,0.33,0.513,0.546,0.08,0.969
		C80.75,40.451,76.891,41.602,72.427,41.683z"/>
	<path fill="#022FDE" d="M101.778,21.794c0.064-0.155,0.117-0.231,0.126-0.312c0.238-2.037,0.237-2.04,2.239-2.038
		c1.143,0.001,2.287,0.048,3.429,0.005c0.605-0.022,0.768,0.174,0.764,0.764c-0.025,3.377-0.012,6.755-0.012,10.132
		c0,2.982-0.018,5.964,0.014,8.945c0.007,0.644-0.12,0.914-0.834,0.89c-1.604-0.052-3.211-0.036-4.816-0.008
		c-0.551,0.009-0.807-0.09-0.79-0.732c0.014-0.542,0.333-1.35-0.19-1.577c-0.373-0.162-0.743,0.666-1.148,1.018
		c-1.871,1.626-4.074,2.162-6.457,1.779c-5.937-0.953-9.764-6.443-8.76-12.41c0.569-3.382,1.911-6.281,5.037-8.024
		c3.101-1.729,6.222-1.876,9.288,0.136C100.369,20.822,101.056,21.303,101.778,21.794z M101.893,30.017
		c0.059-3.048-2.077-5.501-4.842-5.56c-2.873-0.062-5.157,2.172-5.308,5.014c-0.185,3.465,2.473,5.758,4.91,5.79
		C99.592,35.3,101.834,33.087,101.893,30.017z"/>
	<path fill="#022FDE" d="M147.166,25.269c0.991-1.509,1.793-3.004,2.552-4.518c0.502-1.001,1.262-1.384,2.343-1.366
		c1.872,0.03,3.744,0.008,5.685,0.008c-0.057,0.529-0.31,0.888-0.555,1.247c-1.78,2.609-3.561,5.218-5.346,7.823
		c-0.814,1.188-0.824,1.386,0,2.596c1.845,2.712,3.698,5.419,5.544,8.13c0.199,0.293,0.371,0.604,0.612,0.998
		c-2.353,0-4.593-0.006-6.833,0.004c-0.564,0.002-0.782-0.397-1.01-0.792c-0.896-1.55-1.785-3.104-2.681-4.654
		c-0.089-0.154-0.206-0.293-0.364-0.516c-0.923,1.42-1.747,2.819-2.436,4.285c-0.58,1.236-1.533,1.839-2.822,1.752
		c-1.794-0.121-3.587,0.011-5.419-0.079c-0.057-0.487,0.291-0.786,0.511-1.11c1.778-2.611,3.568-5.215,5.374-7.807
		c0.911-1.308,0.932-1.636,0.042-2.93c-1.808-2.628-3.613-5.257-5.415-7.889c-0.187-0.273-0.343-0.566-0.615-1.018
		c1.715,0,3.303-0.047,4.887,0.011c2.608,0.094,2.259-0.557,3.801,2.197c0.564,1.007,1.131,2.012,1.705,3.014
		C146.829,24.839,146.97,25.001,147.166,25.269z"/>
	<path fill="#022FDE" d="M120.676,25.102c-0.001,4.767-0.013,9.534,0.014,14.302c0.003,0.625-0.133,0.844-0.793,0.822
		c-1.459-0.05-2.921-0.013-4.382-0.017c-1.056-0.003-1.241-0.192-1.242-1.304c-0.004-3.378-0.002-6.756-0.002-10.134
		c0-5.812-0.001-11.625,0.001-17.437c0.001-1.365,0.07-1.429,1.448-1.436c1.364-0.006,2.73,0.04,4.09-0.035
		c0.779-0.043,0.883,0.268,0.88,0.938C120.665,15.568,120.677,20.335,120.676,25.102z"/>
	<path fill="#022FDE" d="M132.948,29.797c0,3.162-0.022,6.324,0.017,9.485c0.009,0.696-0.194,0.837-0.859,0.815
		c-1.562-0.052-3.127-0.01-4.691,0.007c-0.471,0.005-0.74-0.047-0.737-0.67c0.028-6.415,0.026-12.83,0.002-19.245
		c-0.002-0.61,0.226-0.685,0.74-0.676c1.611,0.027,3.223,0.036,4.833-0.004c0.569-0.014,0.712,0.153,0.707,0.712
		C132.934,23.413,132.948,26.605,132.948,29.797z"/>
	<path fill="#FE7600" d="M44.943,16.563c2.094,5.505,2.203,10.904,0.065,16.562c-3.243-3.397-6.817-6.094-11.061-8.27
		C38.359,22.847,41.941,20.143,44.943,16.563z"/>
	<path fill="#022FDE" d="M129.828,16.456c-2.475,0.008-4.224-1.703-4.229-4.136c-0.004-2.251,1.866-4.055,4.176-4.029
		c2.442,0.028,4.188,1.782,4.192,4.211C133.97,14.701,132.14,16.449,129.828,16.456z"/>
</g>
</svg>
