<?xml version="1.0" encoding="UTF-8"?>
<svg id="Layer_2" data-name="Layer 2" xmlns="http://www.w3.org/2000/svg" viewBox="0 0 256.81 40.13">
  <defs>
    <style>
      .cls-1 {
        fill: #fff;
      }
    </style>
  </defs>
  <g id="Layer_1-2" data-name="Layer 1">
    <g>
      <path class="cls-1" d="M21.93,0c.95,.2,1.91,.34,2.84,.59,8.13,2.21,13.08,7.47,15.01,15.64,.13,.57,.02,.94-.51,1.29-3.91,2.53-8.01,2.92-12.16,.84-4.15-2.08-6.32-5.6-6.58-10.26-.02-.33,.06-.76-.42-.77-.48-.01-.44,.41-.45,.75-.15,5.6-4.18,10.16-9.32,11.28-.76,.17-1.53,.28-2.31,.26-.33,0-.68,.04-.69,.44,0,.41,.35,.44,.68,.45,5.41,.02,10.53,4.07,11.49,9.99,.09,.53,.11,1.08,.15,1.62,.02,.32,.02,.69,.45,.68s.41-.38,.42-.7c.07-2.77,1-5.2,2.76-7.34,3.91-4.76,11.13-5.68,16.11-2.06,.4,.29,.48,.59,.41,1.05-1.28,7.97-8.4,14.94-16.4,16.09-.49,.07-1.02,.01-1.48,.29h-4.04c-.24-.3-.61-.22-.92-.27-8.03-1.28-14.45-7.19-16.35-15.1-.24-.99-.41-1.99-.62-2.99v-3.42c.23-.1,.14-.31,.17-.47C1.2,9.1,7.49,2.23,16.13,.42c.59-.12,1.23-.06,1.76-.42,1.35,0,2.7,0,4.05,0Z"/>
      <path class="cls-1" d="M256.81,21c-.13,.56-.49,.64-1.03,.64-4.46-.03-8.91-.02-13.37-.02,.24,2.21,2.06,4.06,4.3,4.36,2.29,.31,4.32-.17,5.85-2.05,.18-.23,.31-.19,.51-.07,.96,.62,1.91,1.24,2.88,1.83,.3,.18,.2,.34,.06,.56-.38,.59-.84,1.12-1.38,1.57-3.29,2.76-10.83,3.73-14.82-1.81-4.02-5.57-1.55-14.14,6.16-15.56,5.21-.96,9.9,2.42,10.7,7.66,.02,.1,.02,.2,.15,.24,0,.88,0,1.76,0,2.65Zm-14.29-3.14h9.6c-.25-2.06-2.17-3.51-4.58-3.59-2.16-.07-4.6,1.15-5.02,3.59Z"/>
      <path class="cls-1" d="M133.79,21.62c.21,2.17,2.03,4.03,4.27,4.35,2.29,.32,4.32-.15,5.87-2.01,.16-.19,.27-.25,.5-.11,.95,.62,1.91,1.24,2.88,1.84,.39,.24,.17,.45,.02,.68-1.05,1.58-2.56,2.54-4.34,3.07-3.88,1.14-7.47,.74-10.59-2.05-2.94-2.63-3.93-7.44-2.31-11.23,1.62-3.79,5.57-6.16,9.66-5.8,5.02,.44,8.39,4.14,8.38,9.22q0,2.04-2.05,2.04h-11.51c-.25,0-.51,0-.77,0Zm9.72-3.75c-.32-2.15-2.21-3.58-4.72-3.58-2.54,0-4.59,1.49-4.9,3.58h9.62Z"/>
      <path class="cls-1" d="M82.05,30.02c-5.53,.01-9.79-4.2-9.8-9.69-.01-5.68,4.14-9.98,9.65-9.99,5.69-.01,9.99,4.26,9.95,9.88-.04,5.57-4.26,9.78-9.8,9.8Zm-.12-4.18c3.06,.06,5.55-2.37,5.63-5.51,.08-3.19-2.36-5.8-5.47-5.84-3-.04-5.49,2.38-5.56,5.41-.08,3.35,2.22,5.88,5.4,5.94Z"/>
      <path class="cls-1" d="M194.56,20.22c-.02-5.57,4.18-9.86,9.68-9.87,5.58-.02,9.91,4.19,9.92,9.65,.01,5.75-4.15,10.02-9.77,10.03-5.59,.01-9.8-4.19-9.83-9.81Zm15.29-.04c0-3.21-2.41-5.68-5.52-5.68-3.07,0-5.56,2.59-5.52,5.72,.04,3.17,2.46,5.63,5.52,5.63,3.13,0,5.53-2.46,5.52-5.67Z"/>
      <path class="cls-1" d="M112.8,13.32c.98-1.15,2.01-2.1,3.4-2.59,4.84-1.7,9.75,1.56,10.09,6.77,.25,3.88,.05,7.77,.1,11.65,0,.46-.22,.49-.57,.49-1.09-.01-2.18-.04-3.26,0-.6,.03-.59-.28-.59-.71,0-3.26,.02-6.53,0-9.79-.01-3.52-3.15-5.62-6.42-4.27-2.12,.88-2.74,2.68-2.75,4.78-.02,3.08-.02,6.17,0,9.25,0,.56-.1,.78-.71,.74-1.01-.06-2.02-.03-3.03,0-.42,0-.59-.09-.59-.55,.01-5.96,.01-11.92,0-17.88,0-.37,.1-.5,.48-.49,1.11,.02,2.23,.03,3.34,0,.43-.01,.52,.15,.5,.53-.03,.69,0,1.37,0,2.06Z"/>
      <path class="cls-1" d="M221.48,13.52c1.03-1.51,2.21-2.51,3.79-2.94,4.66-1.28,9.1,1.72,9.61,6.53,.32,3.02,.07,6.06,.13,9.09,.02,.96-.02,1.92,.01,2.88,.01,.45-.14,.58-.57,.57-1.04-.03-2.07-.05-3.11,0-.63,.04-.7-.22-.7-.76,.02-3.08,0-6.17,.01-9.25,0-.6-.05-1.19-.2-1.77-.58-2.28-2.52-3.62-4.82-3.36-2.51,.29-4.12,2-4.15,4.49-.04,3.29-.03,6.58,0,9.87,0,.62-.16,.8-.77,.77-1.01-.05-2.02-.03-3.03,0-.37,0-.55-.04-.55-.49,.01-5.99,.01-11.97,0-17.96,0-.39,.12-.48,.48-.47,1.11,.02,2.23,.02,3.34,0,.41,0,.54,.11,.52,.52-.03,.68,0,1.37,0,2.27Z"/>
      <path class="cls-1" d="M170.02,30.04c-2.06-.06-4.53-.68-6.77-2.14-.59-.38-.84-.72-.37-1.39,.39-.57,.7-1.21,.99-1.84,.22-.48,.34-.65,.89-.25,1.99,1.43,4.22,2.15,6.71,1.87,.63-.07,1.2-.31,1.67-.75,.84-.79,.76-1.86-.2-2.5-.99-.67-2.16-.82-3.29-1.11-1.08-.27-2.16-.53-3.19-.96-1.86-.78-3.09-2.07-3.25-4.16-.15-2.06,.57-3.76,2.25-5,1.49-1.1,3.22-1.48,5.04-1.48,2.35,0,4.57,.46,6.56,1.8,.46,.31,.6,.58,.28,1.11-.44,.73-.8,1.5-1.16,2.28-.18,.39-.33,.4-.68,.16-1.66-1.15-3.53-1.68-5.55-1.7-.61,0-1.18,.15-1.68,.51-1.03,.74-1.01,2.02,.07,2.69,.89,.56,1.92,.75,2.91,1.02,1.3,.35,2.59,.71,3.81,1.28,4.15,1.92,3.76,7.14,.6,9.19-1.41,.92-3.06,1.4-5.66,1.38Z"/>
      <path class="cls-1" d="M62.39,30.06c-4.99-.03-9.05-3.42-9.79-8.18-.78-4.99,1.87-9.5,6.49-11.04,4.09-1.37,8.73,0,10.91,3.24q.57,.84-.29,1.33c-.81,.46-1.62,.91-2.43,1.37-.23,.13-.42,.28-.63-.07-1.21-2.11-4.47-2.83-6.85-1.63-2.33,1.17-3.5,3.78-2.89,6.5,.57,2.51,2.76,4.25,5.42,4.25,1.96,0,3.59-.7,4.66-2.41,.21-.34,.38-.31,.67-.17,.98,.46,1.96,.92,2.96,1.34,.43,.18,.42,.37,.21,.73-1.47,2.59-3.74,4.01-6.61,4.53-.61,.11-1.23,.14-1.85,.21Z"/>
      <path class="cls-1" d="M183.08,20.71c0-1.74-.02-3.47,0-5.21,0-.48-.09-.69-.62-.65-.77,.05-1.55,0-2.33,.02-.47,.02-.7-.06-.67-.62,.05-.98,.04-1.97,0-2.95-.01-.43,.09-.59,.55-.57,.85,.04,1.71-.01,2.57,.02,.42,.02,.52-.13,.51-.52-.02-1.27,.03-2.54-.03-3.81-.03-.65,.2-.77,.78-.75,.93,.05,1.87,.05,2.8,0,.59-.03,.82,.1,.79,.75-.06,1.27,0,2.54-.03,3.81,0,.41,.11,.52,.52,.52,1.29-.03,2.59,0,3.89-.02,.39,0,.55,.08,.54,.51-.03,1.04-.03,2.07,0,3.11,.01,.42-.15,.53-.54,.52-1.27-.02-2.54,.02-3.81-.02-.49-.01-.6,.15-.6,.61,.02,3.03,.03,6.07,0,9.1,0,.64,.22,.8,.82,.78,1.43-.03,2.85,.01,4.28-.02,.54-.01,.65,.17,.64,.66-.03,1.06-.02,2.12,0,3.19,0,.4-.11,.54-.52,.53-1.89-.02-3.79,.03-5.68-.02-2.32-.05-3.84-1.67-3.84-3.99,0-1.66,0-3.32,0-4.98Z"/>
      <path class="cls-1" d="M151.06,21.74c0-2.25,.05-4.51-.01-6.76-.07-2.83,2.02-4.4,4.22-4.27,2.01,.12,4.04,.05,6.06,.01,.55-.01,.63,.19,.61,.66-.03,.93-.04,1.87,0,2.8,.02,.53-.1,.71-.67,.7-1.66-.04-3.32,.02-4.97-.03-.73-.02-.92,.24-.92,.94,.03,4.38,0,8.75,.03,13.13,0,.57-.11,.77-.71,.73-.98-.06-1.97-.04-2.95,0-.54,.02-.7-.13-.69-.69,.03-2.41,.01-4.82,.01-7.23Z"/>
      <path class="cls-1" d="M94.8,21.62c0-2.31,0-4.61,0-6.92,0-2.43,1.56-3.97,3.99-3.97,2.07,0,4.15,.02,6.22-.01,.49,0,.67,.1,.65,.63-.04,.98-.04,1.97,0,2.95,.01,.45-.14,.57-.57,.56-1.68-.02-3.37,.02-5.05-.02-.71-.02-.94,.2-.93,.92,.03,4.38,0,8.76,.03,13.14,0,.56-.1,.78-.71,.74-.96-.06-1.92-.06-2.87,0-.67,.04-.75-.23-.75-.8,.03-2.41,.01-4.82,.01-7.23Z"/>
    </g>
  </g>
</svg>