<?xml version="1.0" encoding="UTF-8"?>
<svg id="Layer_2" data-name="Layer 2" xmlns="http://www.w3.org/2000/svg" viewBox="0 0 191.6 22.82">
  <defs>
    <style>
      .cls-1 {
        fill: #fff;
        fill-rule: evenodd;
      }
    </style>
  </defs>
  <g id="Layer_2-2" data-name="Layer 2">
    <path class="cls-1" d="M111.02,.45l-.46,.08-.46,.15-.46,.23-.3,.31-.31,.31-.23,.46-.15,.45-.08,.53,.08,.46,.15,.45,.23,.46,.31,.38,.3,.31,.46,.23,.46,.15,.46,.08,.53-.08,.46-.15,.46-.23,.38-.31,.3-.38,.23-.46,.15-.45v-.99l-.15-.45-.23-.46-.3-.31-.38-.31-.46-.23-.46-.15-.53-.08h0ZM30.6,10.34l.68,.08,.61,.15,.6,.31,.46,.38,.53,.38,.3,.53,.31,.61,.23,.61h-7.52l.23-.61,.3-.61,.38-.53,.53-.46,.46-.3,.61-.31,.61-.15,.68-.07h0Zm116.72-1.83l2.96,6.24h-5.77l2.81-6.24h0Zm-64.1,2.05l.84,.08,.76,.23,.76,.38,.61,.53,.53,.61,.38,.76,.23,.84,.08,.99-.08,.91-.23,.84-.38,.76-.53,.61-.61,.53-.76,.38-.76,.23-.84,.08-.84-.08-.84-.23-.68-.38-.61-.53-.53-.61-.38-.76-.23-.84-.07-.91,.07-.99,.23-.84,.38-.76,.53-.61,.61-.53,.68-.38,.84-.23,.84-.08h0ZM0,1.22V22.51H15.42v-3.65H4.25v-5.25H13.29v-3.65H4.25V4.94H15.42V1.22H0ZM21.04,0l-3.87,1.22V22.51h3.87V0h0ZM60.37,2.89l-3.8,1.22v14.45l.08,.84,.23,.76,.38,.68,.53,.61,.61,.46,.76,.31,.91,.23,.99,.08h3.72v-3.42h-2.66l-.38-.08-.38-.08-.31-.08-.23-.15-.15-.23-.15-.31-.08-.3-.08-.38v-6.85h4.41v-3.35h-4.4V2.89h0Zm13.82,4.11l-.76,.15-.68,.23-.68,.31-.61,.45-.46,.61-.45,.61-.38,.68v-2.74h-3.87v15.21h3.87V14.45l.07-.76,.23-.76,.38-.68,.3-.31,.31-.3,.31-.23,.38-.23,.38-.23,.46-.15,.45-.08,.53-.08h.53l.53,.08v-3.65l-.84-.07h0Zm26.43,0l-.68,.15-.61,.15-.61,.31-.61,.31-.46,.38-.46,.45-.38,.46v-1.9h-3.87v15.21h3.87V13.31l.08-.61,.15-.61,.3-.53,.38-.45,.46-.38,.53-.31,.61-.23h1.29l.61,.23,.53,.31,.53,.38,.3,.45,.31,.53,.15,.68,.07,.68v9.05h3.87V12.55l-.08-.69-.15-.61-.15-.53-.23-.53-.23-.53-.3-.46-.31-.46-.38-.38-.45-.38-.46-.31-.53-.23-.53-.23-.61-.08-.61-.15h-1.37Zm8.51,.3v15.21h3.87V7.3h-3.87ZM147.48,.31l-10.93,22.21h4.33l2.13-4.56h8.81l2.2,4.56h4.4L147.48,.31h0Zm19.82,6.69l-.83,.15-.68,.23-.68,.31-.53,.45-.53,.61-.46,.61-.38,.68v-2.74h-3.87v15.21h3.87V14.45l.08-.76,.23-.76,.46-.68,.53-.61,.38-.23,.3-.23,.45-.23,.46-.15,.46-.08,.47-.08h.51l.61,.08v-3.65l-.83-.07h0Zm5.92-4.11l-3.8,1.22v14.45l.07,.84,.24,.76,.37,.68,.54,.61,.61,.46,.76,.31,.93,.23,.98,.08h3.73v-3.42h-2.66l-.39-.08-.37-.08-.32-.08-.22-.15-.24-.23-.07-.31-.07-.3-.07-.38v-6.85h4.41v-3.35h-4.41V2.89h0ZM29.77,7l-.76,.15-.76,.15-.68,.31-.76,.31-.61,.38-.61,.45-.53,.46-.53,.61-.45,.61-.38,.61-.38,.68-.23,.76-.23,.76-.08,.84-.08,.84,.08,.84,.08,.84,.23,.76,.3,.76,.31,.69,.46,.61,.45,.61,.53,.53,.61,.53,.61,.46,.68,.38,.76,.31,.76,.31,.76,.15,.84,.08,.83,.07,1.22-.07,1.21-.31,1.07-.38,.99-.53,.84-.76,.84-.76,.61-.99,.53-1.07h-4.33l-.23,.38-.31,.23-.3,.31-.38,.15-.38,.15-.45,.15-.84,.08-.76-.08-.68-.15-.68-.31-.61-.38-.53-.46-.46-.53-.3-.61-.31-.68h11.69l.08-.61-.08-1.07-.15-.99-.15-.91-.3-.84-.38-.76-.46-.68-.46-.68-.61-.53-.53-.53-.61-.38-.68-.38-.69-.3-.68-.23-.68-.15-.76-.15h-1.51Zm17.92,0l-.76,.07-.84,.08-.76,.23-.68,.23-.68,.31-.69,.38-.61,.45-.53,.53-.53,.53-.46,.61-.38,.61-.38,.76-.23,.68-.23,.84-.08,.76-.08,.84,.08,.84,.08,.84,.23,.76,.23,.76,.38,.69,.38,.69,.46,.53,.53,.61,.53,.46,.61,.46,.69,.38,.68,.31,.68,.31,.76,.15,.84,.08,.76,.07h.76l.68-.07,.61-.15,.68-.23,.61-.23,.61-.31,.53-.31,.53-.38,.45-.46,.46-.46,.46-.53,.31-.53,.38-.53,.23-.61,.23-.68,.15-.68h-3.87l-.31,.61-.31,.53-.45,.46-.46,.38-.46,.3-.61,.23-.53,.15h-.68l-.84-.08-.76-.23-.68-.38-.61-.53-.45-.61-.38-.76-.31-.84-.08-.91,.08-.91,.31-.84,.38-.76,.45-.68,.61-.46,.68-.38,.76-.23,.84-.08h.68l.53,.15,.61,.23,.46,.31,.46,.38,.45,.45,.31,.53,.31,.61h3.87l-.15-.68-.23-.69-.23-.61-.38-.61-.31-.53-.46-.53-.46-.46-.45-.46-.53-.38-.53-.31-.61-.31-.61-.31-.68-.15-.61-.15-.68-.08-.76-.07h0Zm35.54,0l-.84,.07-.76,.08-.84,.23-.68,.23-.76,.31-.61,.38-.61,.45-.61,.53-.53,.53-.46,.61-.38,.61-.31,.76-.3,.68-.23,.84-.07,.76-.08,.84,.07,.84,.07,.84,.23,.76,.3,.76,.31,.69,.38,.68,.46,.53,.53,.61,.61,.46,.61,.46,.61,.38,.76,.31,.68,.31,.84,.15,.76,.08,.84,.07,.84-.07,.76-.08,.76-.15,.76-.31,.68-.31,.68-.38,.61-.46,.61-.46,.45-.61,.46-.53,.46-.68,.31-.69,.3-.76,.15-.76,.15-.84v-1.67l-.15-.76-.15-.84-.3-.68-.3-.76-.46-.61-.46-.61-.45-.53-.61-.53-.61-.45-.68-.38-.68-.31-.76-.23-.76-.23-.76-.08-.84-.07h0Zm39.41,0l-.83,.07-.76,.08-.76,.23-.76,.23-.68,.31-.61,.38-.61,.45-.61,.53-.53,.53-.46,.61-.38,.61-.3,.76-.3,.68-.15,.84-.15,.76v1.67l.15,.84,.15,.76,.3,.76,.3,.69,.38,.69,.46,.53,.53,.61,.61,.46,.61,.46,.61,.38,.68,.31,.76,.31,.76,.15,.76,.08,.83,.07h.68l.68-.07,.68-.15,.61-.23,.61-.23,.61-.31,.53-.31,.53-.38,.53-.46,.46-.46,.38-.53,.38-.53,.3-.53,.3-.61,.23-.68,.15-.68h-3.95l-.23,.61-.38,.53-.38,.46-.46,.38-.53,.3-.53,.23-.61,.15h-.61l-.83-.08-.76-.23-.68-.38-.61-.53-.53-.61-.38-.76-.23-.84-.07-.91,.07-.91,.23-.84,.38-.76,.53-.68,.61-.46,.68-.38,.76-.23,.83-.08h.61l.61,.15,.53,.23,.53,.31,.46,.38,.38,.45,.38,.53,.23,.61h3.95l-.15-.68-.23-.68-.3-.61-.3-.61-.38-.53-.38-.53-.46-.46-.53-.46-.53-.38-.53-.31-.61-.31-.61-.31-.61-.15-.68-.15-.68-.08-.68-.08h0Zm61.81,0l-1.15,.07-1.12,.23-1,.38-.46,.23-.44,.31-.32,.3-.37,.38-.32,.38-.22,.38-.15,.46-.15,.53-.1,.46-.07,.53,.07,.61,.1,.53,.15,.46,.22,.46,.32,.38,.29,.38,.39,.31,.37,.23,.83,.53,1,.3,.98,.38,1,.23,1.29,.38,.61,.15,.54,.23,.37,.23,.39,.3,.15,.31,.07,.38v.31l-.15,.31-.24,.23-.29,.23-.29,.15-.46,.15-.46,.08-.44,.08-.71-.08-.68-.15-.51-.23-.54-.31-.39-.38-.37-.46-.24-.53-.15-.53h-3.49l.07,.61,.15,.53,.24,.53,.22,.53,.29,.53,.39,.45,.37,.38,.46,.38,.46,.38,.54,.31,.51,.31,.61,.23,.68,.15,.61,.15,.68,.07h.78l1.2-.07,1.22-.23,.54-.23,.54-.23,.46-.23,.44-.31,.39-.31,.37-.38,.32-.38,.22-.45,.24-.46,.15-.45,.07-.53,.07-.53-.07-.53-.07-.53-.15-.45-.24-.46-.29-.38-.32-.31-.37-.31-.39-.3-.9-.46-.93-.38-.98-.3-1-.23-1.37-.38-.61-.23-.44-.23-.46-.23-.32-.3-.22-.31-.07-.38v-.3l.15-.31,.24-.23,.22-.23,.29-.15,.39-.08,.29-.08,.46-.08,.61,.08,.61,.15,.54,.23,.44,.31,.46,.38,.32,.46,.22,.46,.15,.61h3.51l-.1-.61-.15-.61-.15-.53-.32-.53-.22-.46-.37-.45-.39-.46-.46-.38-.44-.3-.54-.31-.54-.31-.54-.23-.61-.15-.68-.15-.61-.07h-.75Z"/>
  </g>
</svg>