<?xml version="1.0" encoding="UTF-8"?>
<svg id="Layer_2" data-name="Layer 2" xmlns="http://www.w3.org/2000/svg" viewBox="0 0 286.2 42.7">
  <defs>
    <style>
      .cls-1 {
        fill: #5eb236;
      }

      .cls-2 {
        fill: #a5cb68;
      }

      .cls-3 {
        fill: #fcfcfc;
      }
    </style>
  </defs>
  <g id="Layer_1-2" data-name="Layer 1">
    <polygon id="Fill-1" class="cls-3" points="59.9 41.9 59.9 .8 68.9 .8 86.1 27 86.3 27 86.3 .8 94.6 .8 94.6 41.9 86.3 41.9 68.3 15.4 68.2 15.4 68.2 41.9 59.9 41.9"/>
    <polygon id="Fill-2" class="cls-3" points="113.9 42.1 99.8 .8 109 .8 118.3 30.1 118.4 30.1 128.2 .8 136.7 .8 122.5 42.1 113.9 42.1"/>
    <polygon id="Fill-3" class="cls-3" points="141.8 41.9 141.8 .8 169.8 .8 169.8 8.3 150.9 8.3 150.9 17.1 169.3 17.1 169.3 24.3 150.9 24.3 150.9 34.6 170.9 34.6 170.9 41.9 141.8 41.9"/>
    <path id="Fill-4" class="cls-3" d="M185.9,19.4h6.2c1.3,0,2.5-.1,3.4-.3,1-.2,1.8-.5,2.4-1,.6-.5,1.1-1,1.4-1.8,.3-.7,.5-1.6,.5-2.6,0-2-.6-3.4-1.9-4.3-1.3-.8-3.2-1.3-5.8-1.3h-6.2v11.3h0Zm-8.9,22.5V.8h15.5c2.5,0,4.8,.2,6.8,.7s3.7,1.2,5.1,2.2c1.4,1,2.5,2.3,3.2,4s1.1,3.6,1.1,5.8c0,1.6-.2,3.1-.6,4.3-.4,1.3-.9,2.4-1.6,3.4-.7,1-1.6,1.8-2.7,2.5-1,.7-2.2,1.2-3.7,1.6l9.1,16.7h-9.6l-8.5-15.5h-5.2v15.5l-8.9-.1h0Z"/>
    <path id="Fill-6" class="cls-3" d="M223.6,41.4c-2.1-.7-3.8-1.9-5.2-3.3-1.3-1.4-2.4-3.1-3.1-5.2-.7-2-1-4.3-1-6.8V.8h9V26c0,1.5,.1,2.8,.5,4,.3,1.1,.7,2.2,1.3,2.9,.6,.8,1.4,1.4,2.4,1.8,1,.4,2.2,.6,3.5,.6,2.7,0,4.6-.8,5.8-2.4,1.2-1.6,1.8-3.9,1.8-6.9V.8h8.9V26.1c0,2.5-.3,4.8-1,6.9-.7,2-1.6,3.7-3,5.2-1.3,1.4-3.1,2.5-5.2,3.3-2.1,.7-4.6,1.1-7.4,1.1-2.8-.1-5.2-.4-7.3-1.2Z"/>
    <path id="Fill-8" class="cls-3" d="M270,42.7c-2.2,0-4.3-.2-6-.7-1.8-.5-3.4-1.2-4.9-2.1-1.4-.9-2.7-1.9-3.8-3.2-1.1-1.3-2-2.6-2.8-4l6.9-4c.6,1.1,1.3,2.1,2,3,.8,.9,1.6,1.6,2.6,2.2,1,.6,1.9,1,3.1,1.3,1.1,.3,2.2,.5,3.4,.5,1,0,2-.1,2.9-.3s1.6-.5,2.2-.9,1.1-.9,1.5-1.5,.5-1.3,.5-2.1c0-.7-.1-1.4-.5-2s-.9-1-1.6-1.6c-.7-.5-1.6-.9-2.6-1.3s-2.2-.7-3.6-1.1c-1.2-.4-2.5-.7-3.7-1-1.2-.4-2.4-.7-3.5-1.2s-2.2-1-3.1-1.6c-1-.6-1.8-1.3-2.5-2.1-.7-.8-1.3-1.8-1.6-2.8-.4-1-.6-2.3-.6-3.8,0-1.9,.4-3.7,1-5.2,.7-1.5,1.7-2.8,3.1-3.9,1.3-1,2.8-1.9,4.7-2.5,1.8-.6,3.8-.8,6-.8s4,.2,5.7,.7,3.2,1.1,4.6,1.9,2.5,1.6,3.5,2.7c1,1,1.9,2.1,2.6,3.2l-6.3,4.8c-.5-.9-1.2-1.6-1.9-2.4-.7-.7-1.6-1.3-2.5-1.9-.9-.5-1.8-.9-2.8-1.2s-1.9-.5-3-.5c-1.9,0-3.4,.4-4.4,1.1-1,.7-1.6,1.7-1.6,3,0,.8,.1,1.5,.5,2.1s.9,1.1,1.6,1.6,1.6,.8,2.7,1.2c1,.4,2.2,.7,3.6,1.1,1.2,.3,2.4,.7,3.6,1,1.2,.4,2.4,.7,3.4,1.3,1.1,.5,2.2,1,3.1,1.6,1,.6,1.8,1.3,2.5,2.2,.7,.8,1.3,1.8,1.6,2.9,.4,1.1,.6,2.3,.6,3.7,0,1.6-.3,3.2-1,4.8-.7,1.5-1.6,2.8-3,4-1.3,1.2-3.1,2.1-5.1,2.8-1.8,.6-4.3,1-7.1,1"/>
    <path id="Fill-11" class="cls-3" d="M51.8,24.5v-7.2h-18.3V8.5h19V.9H24.5V34.7h9v-10.2h18.3Zm-18.3,17.5h19.9v-7.3h-19.9v7.3Z"/>
    <polygon id="Fill-13" class="cls-2" points="10.8 42 24.5 42 24.5 34.7 10.8 34.7 10.8 42"/>
    <polygon id="Fill-15" class="cls-2" points="0 24.5 9.1 24.5 9.1 17.2 0 17.2 0 24.5"/>
    <polygon id="Fill-16" class="cls-1" points="15.4 24.5 51.8 24.5 51.8 17.2 15.4 17.2 15.4 24.5"/>
  </g>
</svg>