<?xml version="1.0" encoding="utf-8"?>
<!-- Generator: Adobe Illustrator 22.0.1, SVG Export Plug-In . SVG Version: 6.00 Build 0)  -->
<svg version="1.1" id="Layer_1" xmlns="http://www.w3.org/2000/svg" xmlns:xlink="http://www.w3.org/1999/xlink" x="0px" y="0px"
	 viewBox="0 0 113.213 50" enable-background="new 0 0 113.213 50" xml:space="preserve">
<g>
	<path fill="#44CE32" d="M110,39.552c-0.115,0.483-0.21,0.971-0.348,1.447c-1.021,3.503-4.099,6.045-7.731,6.414
		c-0.516,0.052-1.03,0.075-1.547,0.075c-9.092,0-18.185-0.002-27.277,0.002c-1.024,0-1.845-0.356-2.344-1.281
		c-0.879-1.628,0.282-3.55,2.15-3.552c5.504-0.007,11.008-0.003,16.512-0.003c3.725,0,7.45,0.002,11.175-0.001
		c2.053-0.001,3.685-1.387,4.084-3.459c0.358-1.859-0.782-3.891-2.58-4.603c-0.474-0.188-0.964-0.245-1.472-0.245
		c-7.329,0.004-14.657,0-21.986,0.004c-2.657,0.002-4.983-0.832-6.884-2.72c-4.645-4.613-2.724-12.734,3.489-14.792
		c1.034-0.342,2.091-0.527,3.176-0.528c9.244-0.004,18.489-0.003,27.733-0.002c1.067,0,1.9,0.425,2.349,1.417
		c0.428,0.944,0.271,1.846-0.389,2.639c-0.486,0.583-1.134,0.842-1.891,0.842c-1.977-0.001-3.953,0-5.93,0
		c-7.192,0-14.384,0.036-21.575-0.019c-2.48-0.019-4.097,1.991-4.252,3.854c-0.193,2.322,1.696,4.468,4.028,4.47
		c7.465,0.007,14.931-0.009,22.396,0.011c2.596,0.007,4.837,0.945,6.655,2.812c1.321,1.356,2.111,2.989,2.374,4.869
		c0.012,0.088,0.003,0.185,0.084,0.25C110,38.153,110,38.852,110,39.552z"/>
	<path fill="#44CE32" d="M0.514,30.245c0.22-0.63,0.211-1.301,0.342-1.949c1.252-6.18,5.567-10.457,11.762-11.635
		c1.258-0.239,2.528-0.351,3.807-0.352c7.907-0.005,15.814-0.004,23.72-0.001c1.561,0,2.649,1.064,2.612,2.534
		c-0.031,1.206-1.028,2.229-2.233,2.287c-0.228,0.011-0.456,0.007-0.684,0.007c-7.709,0-15.418,0.001-23.127-0.001
		c-1.653,0-3.276,0.175-4.825,0.793c-3.254,1.298-5.081,3.767-5.809,7.125c-0.223,1.029-0.283,2.074-0.282,3.126
		C5.804,36.3,5.8,40.421,5.8,44.542c0,1.874-0.457,2.548-2.183,3.222c-0.304,0-0.608,0-0.912,0c-1.166-0.087-2.103-1.024-2.19-2.19
		C0.514,40.464,0.514,35.355,0.514,30.245z"/>
	<path fill="#44CE32" d="M55.531,47.763c-0.473-0.16-0.946-0.319-1.324-0.671c-0.615-0.573-0.881-1.276-0.879-2.115
		c0.009-4.194,0.004-8.389,0.004-12.583c0-4.529-0.004-9.057,0.003-13.586c0.002-1.454,1.138-2.652,2.536-2.705
		c1.477-0.056,2.669,1.064,2.74,2.578c0.009,0.197,0.004,0.395,0.004,0.593c0,8.404,0,16.808,0,25.211
		c0,1.927-0.425,2.568-2.172,3.278C56.139,47.763,55.835,47.763,55.531,47.763z"/>
	<path fill="#B3EBAB" d="M22.868,2.053c0.763,0.22,1.456,0.531,2.026,1.129c1.487,1.559,1.195,4.187-0.65,5.335
		c-1.201,0.748-2.461,0.839-3.709,0.12c-1.194-0.688-1.773-1.769-1.763-3.132c0.012-1.669,1.198-3.043,2.845-3.372
		c0.055-0.011,0.104-0.053,0.156-0.081C22.138,2.053,22.503,2.053,22.868,2.053z"/>
	<path fill="#8EE183" d="M33.999,2.053c0.987,0.235,1.851,0.673,2.421,1.548c0.727,1.116,0.834,2.304,0.245,3.5
		c-0.585,1.188-1.567,1.863-2.899,1.989c-1.889,0.178-3.456-1.115-3.765-2.898c-0.324-1.87,0.818-3.554,2.703-4.051
		c0.069-0.018,0.133-0.059,0.199-0.089C33.269,2.053,33.634,2.053,33.999,2.053z"/>
	<path fill="#44CE32" d="M56.535,2.053c0.714,0.213,1.393,0.482,1.934,1.03c1.12,1.135,1.359,2.874,0.567,4.234
		c-0.827,1.418-2.513,2.11-4.068,1.669C53.423,8.549,52.39,7.11,52.43,5.453c0.038-1.562,1.171-2.942,2.714-3.304
		c0.101-0.024,0.215-0.006,0.295-0.096C55.805,2.053,56.17,2.053,56.535,2.053z"/>
	<path fill="#69D859" d="M45.312,2.053c0.671,0.23,1.336,0.457,1.863,0.975c1.172,1.152,1.432,2.909,0.615,4.301
		c-0.83,1.414-2.509,2.095-4.075,1.655c-1.565-0.44-2.573-1.9-2.51-3.635c0.056-1.537,1.232-2.884,2.805-3.216
		c0.071-0.015,0.138-0.052,0.207-0.079C44.582,2.053,44.947,2.053,45.312,2.053z"/>
	<path fill="#D9F4D4" d="M11.645,2.053c0.774,0.228,1.472,0.556,2.049,1.165c1.191,1.257,1.164,3.423-0.007,4.711
		c-1.058,1.164-2.797,1.417-3.986,0.915c-1.414-0.597-2.33-2.108-2.159-3.6c0.185-1.608,1.294-2.815,2.854-3.108
		c0.055-0.01,0.103-0.055,0.154-0.083C10.916,2.053,11.281,2.053,11.645,2.053z"/>
	<path fill="#44CE32" d="M23.009,29.515c4.045,0,8.089-0.007,12.134,0.005c0.981,0.003,1.723,0.466,2.149,1.356
		c0.433,0.904,0.32,1.778-0.29,2.568c-0.465,0.602-1.111,0.884-1.864,0.898c-0.836,0.015-1.672,0.006-2.509,0.006
		c-7.131,0-14.262-0.002-21.394,0.003c-0.606,0-1.181-0.077-1.693-0.427c-0.874-0.598-1.254-1.685-0.944-2.69
		c0.312-1.01,1.225-1.715,2.277-1.717C14.92,29.511,18.965,29.515,23.009,29.515z"/>
</g>
</svg>
