<?xml version="1.0" encoding="UTF-8"?>
<svg id="Layer_2" data-name="Layer 2" xmlns="http://www.w3.org/2000/svg" viewBox="0 0 227.4 31.21">
  <defs>
    <style>
      .cls-1 {
        fill: #fff;
      }

      .cls-2 {
        fill: none;
      }
    </style>
  </defs>
  <g id="Layer_1-2" data-name="Layer 1">
    <rect class="cls-2" x=".1" y="0" width="216.1" height="31.2"/>
    <g id="Group_4656" data-name="Group 4656">
      <path id="Path_1127" data-name="Path 1127" class="cls-1" d="M.1,2.31V28.11c0,1.6,.9,2.3,2.7,2.3H27.2c1.7,0,2.7-.7,2.7-2.3,0-1.5-1-2.3-2.7-2.3H6.2c-.8,0-1.2-.4-1.2-1.2V2.31C5,1.01,4,0,2.7,0h-.2C1.2-.09,.1,.91,0,2.11c.1,.1,.1,.2,.1,.2"/>
      <path id="Path_1128" data-name="Path 1128" class="cls-1" d="M42.1,19.11V2.31c-.1-1.4-1.3-2.4-2.7-2.3-1.2,.1-2.2,1.1-2.3,2.3V19.51c0,10.5,6.5,11.7,17.7,11.7s17.7-1.2,17.7-11.7V2.31c-.1-1.4-1.3-2.4-2.7-2.3-1.2,.1-2.2,1.1-2.3,2.3V19.11c0,8.5-4.5,7.4-12.8,7.4s-12.6,1-12.6-7.4"/>
      <path id="Path_1129" data-name="Path 1129" class="cls-1" d="M120.8,7.61V28.51c0,1.3,1,2.3,2.3,2.3h.2c1.2,.1,2.3-.8,2.5-2V3.41c.1-1.8-1.2-3.3-3-3.4h-.1c-1.7,0-2.4,1-4.1,2.5l-12.6,12.4h-.2l-12.6-12.4C91.6,.81,90.4,0,88.9,0c-1.8,.2-3.1,1.6-3.2,3.4V28.51c0,1.3,1,2.3,2.3,2.3h.2c1.2,.1,2.3-.8,2.5-2V7.51h.3l12,11.4c1.1,1.1,1.9,1.9,2.8,1.9,1.1,0,1.7-.9,2.9-1.9l12-11.3h.1Z"/>
      <path id="Path_1130" data-name="Path 1130" class="cls-1" d="M169,2.81c0-1.5-.9-2.3-2.7-2.3h-24.7c-1.8,0-2.7,.9-2.7,2.3v2.3l27.4-.1c1.8,0,2.7-.8,2.7-2.2"/>
      <path id="Path_1131" data-name="Path 1131" class="cls-1" d="M139,13.31v14.9c0,1.6,.9,2.3,2.7,2.3h24.9c1.7,0,2.6-.7,2.6-2.3,0-1.5-.9-2.3-2.6-2.3h-21.5c-.8,0-1.2-.4-1.2-1.2v-6.8h16.2c1.8,0,2.7-.8,2.7-2.3,0-1.4-.9-2.3-2.7-2.3h-21.1Z"/>
      <path id="Path_1132" data-name="Path 1132" class="cls-1" d="M216.2,27.91V2.31c0-1.3-1.1-2.3-2.3-2.3h-.1c-1.3-.1-2.4,.8-2.5,2.1V23.01L186.8,2.51C185.1,1.11,184.2,0,182.6,0c-1.8,0-2.9,1.2-2.9,3.4V28.51c0,1.3,1.1,2.3,2.3,2.3h.1c1.3,.1,2.4-.8,2.5-2.1V7.41l24.2,20.8c1.6,1.4,2.7,2.7,4.4,2.7,1.6,.1,2.9-1.2,3-2.8v-.2"/>
    </g>
    <g id="Group_4658" data-name="Group 4658">
      <path id="Path_1133" data-name="Path 1133" class="cls-1" d="M219.6,4.21h0c0-2.2,1.7-4,3.8-4s3.9,1.7,4,3.8v.1h0c0,2.2-1.7,3.9-3.8,4-2.2,0-3.9-1.7-4-3.8v-.1Zm7.4,0h0c0-1.9-1.5-3.5-3.4-3.5s-3.5,1.5-3.5,3.4v.1h0c0,1.9,1.5,3.5,3.4,3.5s3.5-1.5,3.5-3.4v-.1Zm-5-2.1h1.8c.9,0,1.5,.4,1.5,1.3,0,.6-.4,1.1-.9,1.2l1.1,1.5h-.9l-.9-1.4h-.9v1.4h-.8V2.11Zm1.7,2c.5,0,.8-.3,.8-.7s-.3-.7-.8-.7h-1v1.4h1Z"/>
    </g>
  </g>
</svg>