<?xml version="1.0" encoding="utf-8"?>
<!-- Generator: Adobe Illustrator 22.0.1, SVG Export Plug-In . SVG Version: 6.00 Build 0)  -->
<svg version="1.1" id="Layer_1" xmlns="http://www.w3.org/2000/svg" xmlns:xlink="http://www.w3.org/1999/xlink" x="0px" y="0px"
	 viewBox="0 0 258.9 50" style="enable-background:new 0 0 258.9 50;" xml:space="preserve">
<style type="text/css">
	.st0{fill:#044872;}
	.st1{fill:#84BD00;}
</style>
<title>logo-netsmart-color</title>
<path class="st0" d="M243.7,23.7h-3.5v3.7h3.5v8.4c0,3,0.5,5,5.7,5c1.3,0,3.3-0.2,4.3-0.3v-3.6c-0.9,0-1.7,0.1-2.7,0.1
	c-1.4,0-1.8-0.4-1.8-1.7v-7.9h4.4v-3.7h-4.4v-5.2h-5.5L243.7,23.7L243.7,23.7z M225,40.5h5.5v-7.2c0-3.2,1.8-5.1,5.5-5.1
	c1,0,2.1,0.2,3,0.5v-5.1c-0.7-0.1-1.3-0.2-2-0.2c-3.1,0-4.7,1.1-6.7,3.7v-3.3h-5.3L225,40.5L225,40.5z M206.7,28.8
	c0.8-2.3,2-2.5,4.3-2.5c3.2,0,4.3,0.7,4.3,2c0,1.3-0.6,1.6-2.2,1.8l-5.8,0.4c-3.4,0.2-6.9,1.1-6.9,5.2s3.1,5.4,7.4,5.4
	c2.5,0,6-0.5,7.9-2.4c0.1,0.6,0.2,1.2,0.4,1.8h5.5c-0.4-1.1-0.6-2.2-0.6-3.4v-8.3c0-3.1-1.7-5.7-9.6-5.7c-4.5,0-9.2,0.6-10,5.7
	L206.7,28.8z M215.5,33.7c0,2.8-3.1,4.2-5.9,4.2c-2.1,0-3.5-0.8-3.5-2.3s1-2,2.8-2.2l3.2-0.3c1.1,0,2.2-0.3,3.2-0.7v1.4L215.5,33.7z
	 M191.5,40.5h5.4V29.2c0-4.4-3.3-5.8-6.7-5.8c-2.7-0.1-5.2,1.1-6.9,3.2c-0.8-1.9-2.5-3.2-5.7-3.2c-2.6-0.1-5.1,0.9-6.8,2.8v-2.5
	h-5.3v16.8h5.5v-9.1c-0.1-2.1,1.6-3.8,3.6-3.9c0.2,0,0.4,0,0.6,0c1.5,0,3.3,0.6,3.3,2.9v10h5.5v-8.9c-0.1-2.1,1.5-3.8,3.6-3.9
	c0.2,0,0.4,0,0.6,0c1.6,0,3.4,0.6,3.4,2.8v10L191.5,40.5z M141.9,35.3c0.3,4,3.5,5.8,9.8,5.8c4.8,0,10.3-0.7,10.3-5.7
	c0-2.9-1.8-4.6-7.4-5.2l-3.8-0.4c-2.4-0.3-2.8-0.8-2.8-1.6c0-1.6,2.2-1.8,3.6-1.8c1.4,0,3.4,0.5,3.7,2.2h6c-0.4-3.1-2.2-5.7-9.9-5.7
	c-4.6,0-9.2,1.1-9.2,5.6c0,3.2,2,4.3,5.5,4.7l5.1,0.7c2.7,0.4,3.1,0.7,3.1,1.7c0,1.3-1.4,1.8-4,1.8c-2.8,0-3.8-0.9-4.1-2.4
	L141.9,35.3z M130.1,23.7h-3.5v3.7h3.5v8.4c0,3,0.5,5,5.7,5c1.3,0,3.3-0.2,4.3-0.3v-3.7c-0.9,0-1.7,0.1-2.7,0.1
	c-1.4,0-1.8-0.4-1.8-1.7v-7.9h4.4v-3.7h-4.4v-5.2h-5.5L130.1,23.7z M108.7,30.3c0-0.4,0.9-3.7,5.3-3.7c4,0,5.2,2.8,5.2,3.7
	L108.7,30.3L108.7,30.3z M118.7,35.5c-1,1.5-2.7,2.3-4.5,2.2c-3.8,0-5.4-2.4-5.4-4h16v-0.6c0-6.3-3.5-10-10.7-10
	c-6.6,0-11.1,2.7-11.1,9s4.5,9,11.1,9c5.1,0,8.9-1.6,10.4-5.6L118.7,35.5z M93.5,33.7L81.8,18.2h-7v22.3h5.9V24.9l12.2,15.5h6.6
	V18.2h-5.9L93.5,33.7z M243.7,23.7h-3.5v3.7h3.5v8.4c0,3,0.5,5,5.7,5c1.3,0,3.3-0.2,4.3-0.3v-3.6c-0.9,0-1.7,0.1-2.7,0.1
	c-1.4,0-1.8-0.4-1.8-1.7v-7.9h4.4v-3.7h-4.4v-5.2h-5.5L243.7,23.7L243.7,23.7z M225.1,40.5h5.5v-7.2c0-3.2,1.8-5.1,5.5-5.1
	c1,0,2.1,0.2,3,0.5v-5.1c-0.7-0.1-1.3-0.2-2-0.2c-3.1,0-4.7,1.1-6.7,3.7v-3.3h-5.3L225.1,40.5L225.1,40.5z M191.4,40.5h5.4V29.2
	c0-4.4-3.3-5.8-6.7-5.8c-2.7-0.1-5.2,1.1-6.9,3.2c-0.8-1.9-2.5-3.2-5.7-3.2c-2.6-0.1-5.1,0.9-6.8,2.8v-2.5h-5.3v16.8h5.5v-9.1
	c-0.1-2.1,1.6-3.8,3.6-3.9c0.2,0,0.4,0,0.6,0c1.5,0,3.3,0.6,3.3,2.9v10h5.5v-8.9c-0.1-2.1,1.5-3.8,3.6-3.9c0.2,0,0.4,0,0.6,0
	c1.6,0,3.4,0.6,3.4,2.8v10L191.4,40.5z M141.8,35.3c0.3,4,3.5,5.8,9.9,5.8c4.8,0,10.3-0.7,10.3-5.7c0-2.9-1.8-4.6-7.4-5.2l-3.8-0.4
	c-2.4-0.3-2.9-0.8-2.9-1.6c0-1.6,2.2-1.8,3.6-1.8s3.4,0.5,3.7,2.2h6c-0.4-3.1-2.2-5.7-9.9-5.7c-4.6,0-9.1,1.1-9.1,5.6
	c0,3.2,2,4.3,5.5,4.7l5.1,0.7c2.7,0.4,3.1,0.7,3.1,1.7c0,1.3-1.4,1.8-4,1.8c-2.8,0-3.8-0.9-4.1-2.4L141.8,35.3z M130.1,23.7h-3.5
	v3.7h3.5v8.4c0,3,0.5,5,5.7,5c1.3,0,3.3-0.2,4.3-0.3v-3.6c-0.9,0-1.7,0.1-2.7,0.1c-1.4,0-1.8-0.4-1.8-1.7v-7.9h4.4v-3.7h-4.4v-5.2
	h-5.5L130.1,23.7z M93.5,33.7L93.5,33.7L81.8,18.2h-7v22.3h5.9V24.9h0.1l12.2,15.6h6.6V18.2h-5.9C93.5,18.2,93.5,33.7,93.5,33.7z
	 M67.4,20.3c-14.1-3.5-24.6,11.9-33.5,24.5V34.4C41.2,24.2,56.6,13,67.4,20.3L67.4,20.3z M0.4,20.2c14.1-3.5,24.6,11.9,33.5,24.6
	V34.4C26.5,24.2,11.1,12.9,0.4,20.2z"/>
<circle class="st0" cx="16.5" cy="12.3" r="3.3"/>
<circle class="st0" cx="51.6" cy="12.3" r="3.3"/>
<path class="st1" d="M58.9,27.3c-0.7-1.8-3.6-7.2-14.5-9c-7-1.5-14.1-1.4-21.1,0.1c-10.1,1.9-13.5,6.9-14.4,8.7
	c1.9-1,7.6-3.3,19.4-3.6h1.3l4.3,21.2l4.3-21.2h1.3C51.5,23.9,57.2,26.3,58.9,27.3z"/>
<circle class="st1" cx="33.8" cy="9.8" r="4.5"/>
</svg>
