<?xml version="1.0" encoding="utf-8"?>
<!-- Generator: Adobe Illustrator 22.0.1, SVG Export Plug-In . SVG Version: 6.00 Build 0)  -->
<svg version="1.1" id="Layer_1" xmlns="http://www.w3.org/2000/svg" xmlns:xlink="http://www.w3.org/1999/xlink" x="0px" y="0px"
	 viewBox="0 0 219.387 50" enable-background="new 0 0 219.387 50" xml:space="preserve">
<g>
	<path fill="#EC1614" d="M13.711,39c-0.712-0.144-1.427-0.27-2.134-0.434C6.341,37.353,2.012,32.74,1.23,27.419
		C0.343,21.381,2.493,16.624,7.545,13.23c2.062-1.385,4.402-2.118,6.899-2.133c5.751-0.036,11.504-0.075,17.254,0.005
		c6.38,0.089,11.99,5.014,13.172,11.296c1.227,6.524-2.17,12.784-8.121,15.423c-1.379,0.612-2.83,0.986-4.341,1.1
		c-0.08,0.006-0.178-0.026-0.225,0.079C26.025,39,19.868,39,13.711,39z M23.094,16.018c0-0.004,0-0.008,0-0.012
		c-2.5,0-5-0.003-7.5,0.002c-0.505,0.001-1.008,0.011-1.512,0.081c-5.145,0.709-8.653,5.622-7.626,10.697
		c0.854,4.222,4.421,7.219,8.775,7.258c5.216,0.046,10.433,0.014,15.65,0.01c1.137-0.001,2.232-0.228,3.292-0.646
		c3.728-1.47,6.182-5.427,5.578-9.662c-0.603-4.23-4.281-7.64-8.55-7.719C28.5,15.977,25.797,16.018,23.094,16.018z"/>
	<path fill="#EC1614" d="M196.689,39c-0.663-0.232-1.368-0.261-2.048-0.418c-5.169-1.191-9.478-5.749-10.362-10.998
		c-0.849-5.045,0.591-9.354,4.306-12.84c2.478-2.324,5.487-3.604,8.896-3.639c6.546-0.069,13.092-0.025,19.639-0.027
		c0.028,0,0.055,0.009,0.087,0.014c0.042,0.151-0.084,0.236-0.148,0.337c-0.913,1.42-1.841,2.831-2.742,4.259
		c-0.165,0.261-0.345,0.324-0.628,0.323c-5.246-0.004-10.492-0.022-15.737,0.012c-3.528,0.023-7.031,2.663-8.112,6.026
		c-0.166,0.515-0.166,0.516,0.365,0.516c8.338,0,16.676,0,25.015,0c0.155,0,0.311,0,0.467,0c0.036,0.18-0.083,0.264-0.148,0.366
		c-0.878,1.374-1.771,2.739-2.632,4.123c-0.198,0.318-0.402,0.439-0.786,0.438c-7.298-0.014-14.595-0.009-21.893-0.011
		c-0.655,0-0.57,0.012-0.376,0.522c1.293,3.394,3.739,5.384,7.326,5.973c0.474,0.078,0.949,0.081,1.425,0.081
		c6.185,0.001,12.37,0.001,18.555,0.001c0.158,0,0.317,0,0.546,0c-1.067,1.674-2.108,3.309-3.149,4.943
		C208.599,39,202.644,39,196.689,39z"/>
	<path fill="#EC1614" d="M47.965,39c0.006-0.143,0.017-0.287,0.017-0.43c0.001-9.003,0.004-18.007-0.008-27.01
		c-0.001-0.398,0.102-0.493,0.495-0.493c7.616,0.012,15.232,0.005,22.848,0.011c4.642,0.004,8.379,3.009,9.371,7.517
		c1.12,5.093-2.278,10.228-7.405,11.184c-1.202,0.224-2.419,0.153-3.631,0.165c-0.164,0.002-0.338-0.048-0.541,0.069
		c0.812,0.682,1.603,1.346,2.394,2.01c2.656,2.229,5.312,4.457,7.967,6.687c0.11,0.093,0.213,0.194,0.319,0.292
		c-2.602,0-5.203,0-7.805,0c-0.078-0.081-0.151-0.169-0.236-0.243c-5.15-4.49-10.3-8.979-15.448-13.472
		c-0.073-0.064-0.219-0.092-0.185-0.254c2.446,0,4.887,0,7.328,0c2.601,0.001,5.202,0.029,7.802-0.005
		c2.486-0.033,4.528-2.245,4.36-4.654c-0.181-2.599-2.056-4.363-4.664-4.365c-5.722-0.005-11.443,0.002-17.165-0.011
		c-0.381-0.001-0.438,0.123-0.436,0.464c0.015,2.427,0.009,4.855,0.008,7.282C53.348,28.828,53.345,33.914,53.342,39
		C51.55,39,49.757,39,47.965,39z"/>
	<path fill="#EC1614" d="M81.179,39c-0.063-0.17,0.075-0.267,0.148-0.382c5.514-8.635,11.03-17.268,16.546-25.902
		c0.63-0.987,1.512-1.607,2.668-1.828c0.053-0.01,0.1-0.048,0.15-0.072c0.405,0,0.809,0,1.214,0c0.123,0.128,0.298,0.089,0.447,0.13
		c1.04,0.286,1.812,0.909,2.388,1.81c5.51,8.611,11.024,17.219,16.536,25.829c0.085,0.132,0.152,0.276,0.227,0.415
		c-2.11,0-4.22,0-6.331,0c0.011-0.145-0.099-0.234-0.163-0.341c-0.848-1.408-1.709-2.81-2.545-4.225
		c-0.167-0.283-0.345-0.386-0.68-0.385c-4.552,0.013-9.103,0.006-13.655,0.015c-0.291,0.001-0.465-0.08-0.624-0.333
		c-0.884-1.404-1.788-2.795-2.681-4.194c-0.073-0.114-0.198-0.212-0.174-0.408c4.719,0,9.434,0,14.163,0
		c-0.19-0.466-7.276-11.824-7.536-12.082c-0.073,0.108-0.148,0.212-0.216,0.32c-3.042,4.819-6.086,9.637-9.126,14.457
		c-1.507,2.39-3.009,4.785-4.513,7.177C85.341,39,83.26,39,81.179,39z"/>
	<path fill="#EC1614" d="M131.476,39c-0.712-0.144-1.427-0.271-2.134-0.434c-5.212-1.203-9.515-5.833-10.361-11.099
		c-0.658-4.098,0.209-7.818,2.795-11.07c2.633-3.311,6.112-5.196,10.34-5.277c6.559-0.126,13.122-0.04,19.683-0.042
		c0.039,0,0.078,0.014,0.167,0.031c-0.116,0.188-0.216,0.356-0.321,0.521c-0.846,1.326-1.7,2.647-2.533,3.981
		c-0.178,0.286-0.367,0.404-0.719,0.403c-5.246-0.009-10.492-0.039-15.738,0.017c-4.038,0.043-7.758,3.297-8.458,7.272
		c-0.857,4.871,2.025,9.314,6.828,10.518c0.761,0.191,1.539,0.236,2.321,0.236c6.185-0.002,12.371-0.001,18.556-0.001
		c0.152,0,0.305,0,0.536,0c-0.53,0.827-1.016,1.587-1.504,2.347c-0.475,0.741-0.955,1.479-1.424,2.224
		c-0.071,0.113-0.214,0.203-0.169,0.373C143.386,39,137.431,39,131.476,39z"/>
	<path fill="#EC1614" d="M157.058,39c-0.153-0.167-0.383-0.17-0.571-0.263c-1.011-0.499-1.59-1.294-1.592-2.428
		c-0.009-8.296-0.003-16.592-0.012-24.888c0-0.294,0.091-0.352,0.363-0.35c1.517,0.012,3.035,0.02,4.552-0.004
		c0.377-0.006,0.473,0.082,0.473,0.468c-0.013,7.328-0.005,14.655-0.021,21.983c-0.001,0.462,0.127,0.55,0.564,0.549
		c7.964-0.014,15.927-0.01,23.891-0.01c0.159,0,0.318,0,0.544,0c-1.059,1.673-2.094,3.308-3.129,4.943
		C173.766,39,165.412,39,157.058,39z"/>
</g>
</svg>
