<?xml version="1.0" encoding="UTF-8"?>
<svg id="Layer_2" data-name="Layer 2" xmlns="http://www.w3.org/2000/svg" viewBox="0 0 157.4 46.7">
  <defs>
    <style>
      .cls-1 {
        fill: #fff;
      }
    </style>
  </defs>
  <g id="Layer_1-2" data-name="Layer 1">
    <g>
      <path class="cls-1" d="M55.1,10h-6.2v-3.2h16v3.2h-6.2V27h-3.6V10h0Z"/>
      <path class="cls-1" d="M77.7,20.3v.4c0,.2,0,.3-.1,.4h-10.4c.1,.5,.2,.9,.4,1.4,.2,.4,.5,.8,.9,1,.4,.3,.8,.5,1.2,.7,.4,.2,.9,.3,1.4,.3,.9,0,1.6-.2,2.1-.5,.6-.3,1.1-.8,1.4-1.3l2.3,1.8c-1.4,1.8-3.3,2.7-5.9,2.7-1,0-2-.2-3-.5s-1.6-.8-2.3-1.4-1.2-1.4-1.5-2.3c-.4-.9-.5-1.9-.5-3s.2-2.1,.5-3c.4-.9,.9-1.7,1.5-2.3,.7-.7,1.4-1.2,2.3-1.5s1.9-.5,2.9-.5c.9,0,1.8,.2,2.6,.5,.8,.3,1.5,.8,2.1,1.4s1,1.4,1.4,2.3c.6,1.1,.7,2.2,.7,3.4Zm-3.4-1.5c0-.4-.1-.9-.2-1.3s-.3-.8-.6-1c-.3-.3-.6-.5-1-.7s-.9-.3-1.4-.3c-1,0-1.9,.3-2.6,.9s-1.1,1.4-1.2,2.4h7Z"/>
      <path class="cls-1" d="M81.6,5.5h3.4V27h-3.4V5.5Z"/>
      <path class="cls-1" d="M102.9,20.3v.8h-10.4c.1,.5,.2,.9,.4,1.4,.2,.4,.5,.8,.9,1,.4,.3,.8,.5,1.2,.7s.9,.3,1.4,.3c.9,0,1.6-.2,2.2-.5s1.1-.8,1.4-1.3l2.3,1.8c-1.4,1.8-3.3,2.7-5.9,2.7-1,0-2-.2-3-.5-.9-.3-1.6-.8-2.3-1.4-.7-.6-1.2-1.4-1.5-2.3-.4-.9-.5-1.9-.5-3s.2-2.1,.5-3c.4-.9,.9-1.7,1.5-2.3,.7-.7,1.4-1.2,2.3-1.5s1.9-.5,2.9-.5c.9,0,1.8,.2,2.6,.5,.8,.3,1.5,.8,2.1,1.4s1,1.4,1.4,2.3c.3,1.1,.5,2.2,.5,3.4Zm-3.4-1.5c0-.4-.1-.9-.2-1.3s-.3-.8-.6-1c-.3-.3-.6-.5-1-.7s-.9-.3-1.4-.3c-1,0-1.9,.3-2.6,.9s-1.1,1.4-1.2,2.4h7Z"/>
      <path class="cls-1" d="M105.4,16.1v-2.7h2.4v-4h3.4v4h3.4v2.7h-3.4v6.4c0,.6,.1,1.1,.3,1.5,.2,.4,.7,.6,1.5,.6,.2,0,.5,0,.8-.1s.5-.1,.7-.2l.1,2.7c-.3,.1-.7,.2-1.1,.3-.4,.1-.8,.1-1.2,.1-.9,0-1.6-.1-2.3-.4-.5-.3-1-.6-1.4-1-.3-.4-.5-1-.7-1.5s-.2-1.2-.2-1.9v-6.5h-2.3Z"/>
      <path class="cls-1" d="M118.2,13.3h3.3v2.3h.1c.4-.8,.9-1.4,1.6-1.9s1.5-.7,2.4-.7h.4c.1,0,.3,.1,.4,.1v3.1c-.2-.1-.4-.1-.6-.1s-.3-.1-.5-.1c-.8,0-1.4,.2-1.9,.4-.5,.3-.8,.6-1.1,1-.3,.4-.4,.8-.5,1.2-.1,.4-.2,.8-.2,1v7.4h-3.4V13.3h0Z"/>
      <path class="cls-1" d="M137.9,25.3h-.1c-.3,.6-.9,1.1-1.6,1.5-.8,.4-1.6,.6-2.6,.6-.5,0-1.2-.1-1.7-.2-.5-.2-1.2-.4-1.6-.7s-.9-.8-1.3-1.3-.5-1.2-.5-2c0-1,.3-1.9,.9-2.5,.6-.6,1.3-1.1,2.3-1.4,.9-.3,1.9-.5,3-.7s2.2-.2,3.3-.2v-.4c0-.9-.3-1.5-.9-1.9-.6-.4-1.4-.6-2.2-.6-.7,0-1.4,.2-2.1,.4-.7,.3-1.2,.7-1.6,1.1l-1.8-2.1c.8-.7,1.7-1.3,2.7-1.6,1-.4,2-.5,3.1-.5,1.2,0,2.2,.2,3,.5s1.4,.8,1.9,1.3,.8,1.2,.9,1.9c.2,.7,.3,1.4,.3,2v8.3h-3.2l-.2-1.5h0Zm0-4.5h-.8c-.5,0-1.2,0-1.8,.1s-1.2,.2-1.7,.3c-.5,.2-.9,.4-1.3,.7-.3,.3-.5,.7-.5,1.2,0,.3,.1,.6,.2,.8s.3,.4,.5,.5,.5,.2,.8,.3c.3,.1,.5,.1,.9,.1,1.2,0,2.1-.3,2.7-.9,.6-.6,.9-1.5,.9-2.6l.1-.5h0Z"/>
      <path class="cls-1" d="M154.8,17.1c-.3-.4-.7-.7-1.2-.9-.5-.2-1.1-.4-1.6-.4-.6,0-1.2,.1-1.6,.4-.5,.3-.9,.6-1.2,1s-.5,.9-.7,1.4-.2,1-.2,1.6,.1,1,.2,1.6c.2,.5,.4,1,.7,1.4s.7,.8,1.2,1,1,.4,1.7,.4c.5,0,1-.1,1.6-.3,.5-.2,1-.5,1.3-.9l2.1,2.1c-.5,.6-1.3,1.1-2.2,1.4s-1.9,.5-2.9,.5-2-.2-2.9-.5-1.7-.8-2.4-1.4-1.2-1.4-1.6-2.3c-.4-.9-.6-1.9-.6-3.1,0-1.1,.2-2.1,.6-3,.4-.9,.9-1.6,1.6-2.3,.7-.6,1.4-1.1,2.3-1.5,.9-.4,1.8-.5,2.9-.5,1,0,2,.2,2.9,.5,.9,.4,1.7,.9,2.3,1.6l-2.3,2.2Z"/>
    </g>
    <g>
      <path class="cls-1" d="M97.3,34.1h1.4l7.4,10.5h.1v-10.5h1.1v12h-1.4l-7.4-10.5h-.1v10.5h-1.1v-12h0Z"/>
      <path class="cls-1" d="M116.4,42.9v1.9c0,.3,0,.5,.1,.7s.1,.4,.1,.7h-.9c-.1-.4-.1-.8-.1-1.3h-.1c-.3,.5-.7,.9-1.1,1.1-.4,.2-1,.3-1.6,.3-.3,0-.7-.1-1-.1s-.6-.2-.9-.4-.5-.4-.7-.7-.3-.7-.3-1c0-.6,.2-1.1,.4-1.4,.3-.3,.7-.6,1.2-.8s.9-.3,1.4-.3c.5-.1,.9-.1,1.3-.1h1.2v-.5c0-.7-.2-1.2-.6-1.5s-.9-.4-1.6-.4c-.9,0-1.7,.3-2.4,.9l-.6-.7c.4-.4,.8-.7,1.4-.8,.5-.2,1.1-.3,1.6-.3,.9,0,1.7,.2,2.3,.7s.8,1.2,.8,2.1l.1,1.9h0Zm-2-.6c-.4,0-.8,.1-1.3,.1-.4,.1-.8,.2-1.1,.3-.3,.1-.6,.3-.8,.5-.2,.2-.3,.5-.3,.9,0,.2,.1,.4,.2,.7,.1,.2,.3,.3,.4,.4,.2,.1,.3,.2,.5,.3s.4,.1,.7,.1c.5,0,1-.1,1.4-.2,.4-.2,.6-.4,.8-.6,.2-.2,.3-.5,.4-.9,.1-.3,.1-.7,.1-1v-.5l-1-.1h0Z"/>
      <path class="cls-1" d="M118,38.3h1.2l2.6,6.8,2.5-6.8h1l-3.1,7.9h-1l-3.2-7.9Z"/>
      <path class="cls-1" d="M127.3,40.6v-2.2h1v.9c0,.3,0,.4,.1,.5h.1c.2-.4,.5-.8,1-1.1s1-.4,1.6-.4c.5,0,1,.1,1.4,.4,.4,.3,.8,.7,.9,1.3,.3-.6,.6-1,1.1-1.3s1-.4,1.5-.4c.6,0,1.1,.1,1.5,.3s.7,.4,.9,.8c.2,.3,.4,.7,.4,1.1,.1,.4,.1,.8,.1,1.3v4.7h-1v-4.6c0-.3,0-.6-.1-.9s-.2-.5-.3-.8-.3-.4-.6-.5-.6-.2-1-.2c-.5,0-.9,.1-1.2,.3s-.5,.4-.7,.7-.3,.5-.4,.9-.1,.6-.1,.9v4.4h-1v-4.7c0-.7-.1-1.3-.4-1.8-.3-.4-.7-.7-1.2-.7-.4,0-.7,.1-1,.2-.3,.1-.6,.3-.9,.6-.2,.3-.4,.6-.5,1-.2,.4-.2,.9-.2,1.4v4h-1.2v-6.1h.2Z"/>
      <path class="cls-1" d="M147.9,42.9v1.9c0,.3,0,.5,.1,.7s.1,.4,.1,.7h-.9c-.1-.4-.1-.8-.1-1.3h-.1c-.3,.5-.7,.9-1.1,1.1-.4,.2-1,.3-1.6,.3-.3,0-.7-.1-1-.1-.3-.1-.6-.2-.9-.4-.3-.2-.5-.4-.7-.7s-.3-.7-.3-1c0-.6,.2-1.1,.4-1.4,.3-.3,.7-.6,1.2-.8s.9-.3,1.4-.3c.5-.1,.9-.1,1.3-.1h1.2v-.5c0-.7-.2-1.2-.6-1.5-.4-.3-.9-.4-1.6-.4-.9,0-1.7,.3-2.4,.9l-.6-.7c.4-.4,.8-.7,1.4-.8,.5-.2,1.1-.3,1.6-.3,.9,0,1.7,.2,2.3,.7,.5,.4,.8,1.2,.8,2.1v1.9h.1Zm-2-.6c-.4,0-.8,.1-1.3,.1-.4,.1-.8,.2-1.1,.3s-.6,.3-.8,.5-.3,.5-.3,.9c0,.2,.1,.4,.2,.7,.1,.2,.3,.3,.4,.4,.2,.1,.3,.2,.5,.3s.4,.1,.7,.1c.5,0,1-.1,1.4-.2,.4-.2,.6-.4,.8-.6,.2-.2,.3-.5,.4-.9,.1-.3,.1-.7,.1-1v-.5l-1-.1h0Z"/>
      <path class="cls-1" d="M150.7,40.6v-2.2h1v.9c0,.3,0,.4,.1,.5h.1c.2-.4,.5-.8,1-1.1s1-.4,1.6-.4,1.1,.1,1.5,.3,.7,.4,.9,.8c.2,.3,.4,.7,.4,1.1,.1,.4,.1,.8,.1,1.3v4.7h-1v-4.6c0-.3,0-.6-.1-.9-.1-.3-.2-.5-.3-.8s-.3-.4-.6-.5-.6-.2-1-.2-.7,.1-1,.2c-.3,.1-.6,.3-.9,.6-.2,.3-.4,.6-.5,1-.2,.4-.2,.9-.2,1.4v4h-1l-.1-6.1h0Z"/>
    </g>
    <g>
      <g>
        <path class="cls-1" d="M20.2,15.6c1.8,3,4.4,5.3,7.3,6.8,.7-1.3,1.2-2.8,1.3-4.4-1.7-1-3.4-2.5-4.6-4.6-1.2-2-1.7-4.2-1.7-6.2-1.4-.7-2.9-1-4.5-1.2-.3,3.3,.4,6.7,2.2,9.6Z"/>
        <path class="cls-1" d="M17.3,20.5c-3.5,0-6.9,1-9.6,2.9,.8,1.3,1.9,2.4,3.2,3.2,1.8-.9,4-1.6,6.4-1.6s4.6,.7,6.4,1.6c1.3-.8,2.4-1.9,3.2-3.2-2.7-1.8-6.1-2.9-9.6-2.9Z"/>
        <path class="cls-1" d="M14.5,15.7c1.8-3,2.5-6.4,2.3-9.6-1.5,.1-3.1,.4-4.5,1.2-.1,2-.5,4.2-1.7,6.2s-2.9,3.6-4.6,4.6c.1,1.5,.5,3,1.3,4.4,2.8-1.5,5.4-3.9,7.2-6.8Z"/>
      </g>
      <path class="cls-1" d="M17.4,0C7.8,0,0,7.8,0,17.4s7.7,17.4,17.4,17.4c8.2,0,15.1-5.7,16.9-13.4L38.7,.1c-.1-.1-21.3-.1-21.3-.1Zm9.6,26.2c-4.9,5.3-13.1,5.7-18.5,.8-5.3-4.9-5.6-13.1-.7-18.5,4.9-5.4,13.1-5.6,18.4-.7,5.3,4.9,5.7,13.1,.8,18.4Z"/>
    </g>
  </g>
</svg>