<?xml version="1.0" encoding="utf-8"?>
<!-- Generator: Adobe Illustrator 22.0.1, SVG Export Plug-In . SVG Version: 6.00 Build 0)  -->
<svg version="1.1" id="Layer_1" xmlns="http://www.w3.org/2000/svg" xmlns:xlink="http://www.w3.org/1999/xlink" x="0px" y="0px"
	 viewBox="0 0 164.731 50" enable-background="new 0 0 164.731 50" xml:space="preserve">
<g>
	<path fill="#F42B41" d="M26.388,0.621c0.3,0.121,0.621,0.08,0.93,0.109c3.963,0.377,7.635,1.618,10.954,3.811
		c5.834,3.855,9.533,9.221,10.727,16.109c1.471,8.49-0.909,15.885-7.035,21.969c-3.627,3.603-8.051,5.742-13.105,6.559
		c-0.743,0.12-1.489,0.208-2.24,0.251c-0.059,0.003-0.13-0.016-0.166,0.058c-0.997,0-1.994,0-2.991,0
		c-0.045-0.086-0.129-0.057-0.198-0.062c-1.249-0.086-2.487-0.254-3.704-0.545c-6.591-1.574-11.717-5.22-15.339-10.943
		c-1.925-3.042-3.063-6.377-3.492-9.954c-0.059-0.489-0.045-0.986-0.174-1.466c0-0.997,0-1.994,0-2.991
		c0.085-0.046,0.056-0.129,0.061-0.198c0.118-1.696,0.387-3.367,0.876-4.995c2.161-7.186,6.65-12.373,13.44-15.554
		c2.258-1.058,4.647-1.691,7.126-1.983c0.51-0.06,1.028-0.054,1.53-0.176C24.521,0.621,25.455,0.621,26.388,0.621z M7.065,25.046
		c-0.007,9.917,7.961,17.9,17.898,17.933c9.91,0.032,17.94-7.984,17.947-17.916c0.008-9.927-8.008-17.943-17.931-17.931
		C15.053,7.143,7.072,15.124,7.065,25.046z"/>
	<path fill="#FEFDFD" d="M162.949,28.046c0.017,0,0.034,0,0.051,0c0,0.382,0,0.764,0,1.145l-0.025,0l-0.025,0
		C162.95,28.809,162.95,28.427,162.949,28.046z"/>
	<path fill="#F42B41" d="M82.851,26.597c0.226-0.747,0.453-1.494,0.677-2.242c0.638-2.139,1.272-4.279,1.913-6.418
		c0.096-0.319,0.355-0.382,0.655-0.382c1.951,0.003,3.903,0.002,5.854,0.002c0.75,0,0.837,0.065,1.052,0.777
		c0.807,2.674,1.614,5.349,2.421,8.023c0.024,0.081,0.052,0.16,0.093,0.289c0.193-0.441,0.273-0.87,0.382-1.288
		c0.636-2.448,1.269-4.896,1.9-7.345c0.077-0.3,0.264-0.446,0.567-0.455c0.074-0.002,0.148-0.001,0.223-0.001
		c5.334,0,10.668,0,16.002,0c0.504,0,0.633,0.127,0.633,0.642c0.001,7.126,0.001,14.253,0,21.379c0,0.453-0.177,0.621-0.643,0.622
		c-2.641,0.001-5.281,0.001-7.922,0c-0.559,0-0.719-0.159-0.72-0.715c0-4.295,0-8.59,0-12.885c0-2.269,0-4.539,0-6.808
		c0-0.116,0-0.232,0-0.372c-0.116,0.064-0.112,0.165-0.135,0.244c-1.997,6.614-3.992,13.229-5.986,19.845
		c-0.206,0.684-0.214,0.692-0.917,0.692c-2.079,0-4.157,0-6.236,0c-0.436,0-0.625-0.144-0.751-0.57
		c-0.852-2.893-1.723-5.78-2.63-8.656c-0.031-0.099-0.037-0.211-0.139-0.309c-0.369,1.144-0.736,2.276-1.098,3.408
		c-0.613,1.915-1.223,3.83-1.834,5.745c-0.092,0.287-0.301,0.384-0.585,0.383c-1.039-0.003-2.078-0.001-3.118-0.001
		c-1.113,0-2.227,0-3.34,0c-0.461,0-0.653-0.139-0.784-0.575c-1.191-3.951-2.381-7.902-3.572-11.853
		c-0.809-2.685-1.617-5.37-2.429-8.054c-0.032-0.107-0.037-0.23-0.165-0.355c0,0.132,0,0.229,0,0.325c0,1.506,0.001,3.012,0,4.518
		c0,0.527-0.153,0.681-0.68,0.682c-1.41,0.002-2.821,0.002-4.231-0.001c-0.167,0-0.305-0.016-0.303,0.235
		c0.014,1.845-0.013,3.691,0.031,5.535c0.033,1.368,0.741,2.008,2.111,2.045c0.809,0.022,1.577-0.157,2.324-0.445
		c0.412-0.159,0.592-0.04,0.594,0.412c0.004,0.827,0.001,1.654,0.001,2.481c0,1.188-0.01,2.376,0.007,3.563
		c0.004,0.277-0.09,0.41-0.334,0.524c-1.113,0.525-2.285,0.838-3.499,0.992c-1.834,0.233-3.661,0.213-5.455-0.289
		c-2.669-0.746-4.205-2.526-4.709-5.228c-0.142-0.763-0.191-1.534-0.191-2.309c0.002-2.396-0.004-4.793,0.007-7.189
		c0.001-0.264-0.067-0.342-0.333-0.332c-0.551,0.022-1.103,0.01-1.654,0.005c-0.437-0.004-0.624-0.186-0.625-0.616
		c-0.003-1.983-0.003-3.966,0-5.949c0.001-0.408,0.193-0.59,0.613-0.592c0.573-0.003,1.146-0.012,1.718,0.004
		c0.228,0.006,0.281-0.067,0.279-0.285c-0.01-1.283-0.005-2.566-0.005-3.849c0-0.625,0.003-0.615,0.601-0.799
		c0.92-0.283,1.836-0.581,2.753-0.875c1.743-0.559,3.485-1.121,5.227-1.681c0.438-0.141,0.705,0.051,0.706,0.508
		c0.001,2.142,0.007,4.284-0.007,6.426c-0.002,0.298,0.057,0.386,0.373,0.385c4.125-0.012,8.25-0.008,12.376-0.008
		c0.509,0,0.695,0.151,0.816,0.652c0.631,2.624,1.262,5.248,1.896,7.871c0.042,0.174,0.101,0.344,0.152,0.516
		C82.804,26.597,82.828,26.597,82.851,26.597z"/>
	<path fill="#F42B41" d="M162.949,28.046c0.001,0.382,0.001,0.764,0.002,1.145c-0.218,3.132-1.499,5.751-3.837,7.836
		c-1.972,1.759-4.305,2.737-6.919,3.059c-2.709,0.334-5.316-0.02-7.744-1.29c-3.52-1.84-5.743-4.7-6.295-8.667
		c-0.528-3.798,0.713-7.062,3.506-9.67c2.902-2.711,6.423-3.663,10.322-3.302c2.985,0.276,5.575,1.462,7.69,3.603
		C161.665,22.776,162.746,25.218,162.949,28.046z M146.996,28.642c0.002,0.891,0.19,1.608,0.584,2.27
		c1.242,2.083,3.931,2.43,5.529,0.682c1.022-1.118,1.275-2.474,0.904-3.912c-0.706-2.733-3.213-3.432-5.185-2.302
		C147.546,26.113,147.055,27.338,146.996,28.642z"/>
	<path fill="#F42B41" d="M126.3,25.091c0,4.717,0,9.435,0,14.152c0,0.679-0.121,0.803-0.789,0.803c-2.565,0-5.131,0-7.696,0
		c-0.664,0-0.799-0.136-0.799-0.804c0-9.403,0-18.806,0-28.209c0-0.671,0.13-0.802,0.794-0.802c2.608,0,5.216,0,7.824,0
		c0.604,0,0.666,0.064,0.666,0.675C126.3,15.635,126.3,20.363,126.3,25.091z"/>
	<path fill="#F42B41" d="M127.938,28.709c0-3.478,0-6.955,0-10.433c0-0.561,0.156-0.718,0.715-0.718c2.619,0,5.238,0,7.857,0
		c0.55,0,0.715,0.167,0.715,0.724c0,6.955,0,13.911,0,20.866c0,0.574-0.158,0.73-0.738,0.73c-2.619,0-5.238,0-7.857,0
		c-0.535,0-0.692-0.16-0.692-0.705C127.937,35.685,127.938,32.197,127.938,28.709z"/>
	<path fill="#F42B41" d="M132.611,10.232c1.389,0,2.777-0.001,4.166,0c0.506,0,0.6,0.093,0.6,0.583c0,1.59,0.001,3.18,0,4.77
		c0,0.515-0.166,0.677-0.69,0.677c-2.746,0.001-5.491,0.001-8.237,0c-0.509,0-0.683-0.175-0.683-0.693
		c-0.002-1.558-0.002-3.117,0-4.675c0.001-0.487,0.183-0.663,0.678-0.663C129.834,10.231,131.222,10.232,132.611,10.232z"/>
	<path fill="#F42B41" d="M110.728,10.232c1.378,0,2.757,0,4.135,0c0.504,0,0.686,0.181,0.686,0.68c0,1.548,0.001,3.096,0,4.644
		c0,0.546-0.157,0.707-0.692,0.707c-2.746,0.001-5.493,0.001-8.239,0c-0.492,0-0.678-0.18-0.678-0.667
		c-0.002-1.569-0.002-3.139,0-4.708c0.001-0.47,0.187-0.655,0.654-0.656C107.971,10.231,109.35,10.232,110.728,10.232z"/>
	<path fill="#F42B41" d="M36.061,31.085c0,2.777-2.281,5.047-5.066,5.044c-2.752-0.003-5.034-2.293-5.034-5.051
		c-0.001-2.749,2.29-5.044,5.041-5.05C33.771,26.021,36.062,28.311,36.061,31.085z"/>
	<path fill="#F42B41" d="M13.915,31.039c0.012-2.749,2.32-5.028,5.073-5.011c2.755,0.018,5.036,2.316,5.027,5.065
		c-0.009,2.77-2.305,5.046-5.081,5.036C16.16,36.118,13.903,33.829,13.915,31.039z"/>
	<path fill="#F42B41" d="M13.915,19.033c-0.002-2.781,2.274-5.055,5.056-5.052c2.757,0.003,5.039,2.283,5.044,5.04
		c0.005,2.762-2.307,5.072-5.064,5.06C16.19,24.071,13.917,21.792,13.915,19.033z"/>
	<path fill="#F42B41" d="M31.03,13.982c2.775,0.004,5.04,2.289,5.031,5.077c-0.008,2.75-2.309,5.034-5.062,5.024
		c-2.752-0.01-5.042-2.307-5.039-5.054C25.964,16.256,28.253,13.977,31.03,13.982z"/>
</g>
</svg>
