<?xml version="1.0" encoding="utf-8"?>
<!-- Generator: Adobe Illustrator 22.0.1, SVG Export Plug-In . SVG Version: 6.00 Build 0)  -->
<svg version="1.1" id="Layer_1" xmlns="http://www.w3.org/2000/svg" xmlns:xlink="http://www.w3.org/1999/xlink" x="0px" y="0px"
	 viewBox="0 0 149.069 50" enable-background="new 0 0 149.069 50" xml:space="preserve">
<g>
	<path fill="#D00125" d="M32.975,3.103c0.28,0.127,0.138,0.376,0.138,0.561c0.008,9.142,0.007,18.283,0.007,27.425
		c0,0.988,0.027,1.974,0.268,2.938c0.706,2.832,2.647,4.258,5.579,4.142c1.932-0.077,3.525-0.737,4.505-2.501
		c0.511-0.919,0.742-1.928,0.822-2.967c0.053-0.688,0.072-1.379,0.072-2.069c0.005-8.977,0.008-17.954-0.01-26.931
		c-0.001-0.532,0.156-0.63,0.649-0.626c3.173,0.022,6.346,0.016,9.52,0.004c0.329-0.001,0.444,0.06,0.444,0.421
		c-0.013,9.553,0.006,19.105-0.028,28.658c-0.01,2.867-0.545,5.653-1.835,8.247c-1.902,3.825-5.021,6.103-9.13,7.093
		c-0.846,0.204-1.706,0.341-2.576,0.411c-0.091,0.007-0.203-0.028-0.254,0.093c-0.888,0-1.776,0-2.664,0
		c-0.061-0.147-0.194-0.09-0.298-0.098c-1.665-0.12-3.268-0.496-4.803-1.155c-2.165-0.929-3.924-2.364-5.273-4.291
		c-0.231-0.329-0.341-0.34-0.566-0.002c-0.271,0.408-0.585,0.793-0.913,1.159c-2.217,2.467-5.036,3.748-8.281,4.206
		c-0.426,0.06-0.875-0.027-1.279,0.181c-0.921,0-1.842,0-2.763,0c-0.046-0.124-0.158-0.091-0.25-0.101
		c-0.817-0.087-1.63-0.208-2.428-0.401c-4.092-0.987-7.201-3.255-9.097-7.063c-1.299-2.609-1.823-5.412-1.832-8.299
		C0.669,22.598,0.687,13.06,0.672,3.522C0.671,3.127,0.801,3.077,1.145,3.078c3.19,0.012,6.381,0.018,9.571-0.005
		c0.465-0.003,0.552,0.136,0.551,0.569c-0.012,8.979-0.008,17.958-0.011,26.937c0,0.79,0.002,1.579,0.095,2.364
		c0.147,1.239,0.462,2.423,1.255,3.422c1.057,1.332,2.514,1.761,4.142,1.807c2.623,0.075,4.53-1.181,5.311-3.537
		c0.377-1.136,0.45-2.313,0.45-3.503c-0.005-9.16-0.004-18.32,0.005-27.479c0-0.18-0.156-0.433,0.139-0.55
		C26.095,3.103,29.535,3.103,32.975,3.103z"/>
	<path fill="#D00125" d="M80.123,48c-0.557-0.194-1.149-0.158-1.72-0.266c-9.403-1.781-15.606-7.23-18.284-16.4
		c-2.698-9.238,1.214-19.291,9.294-24.558c4.717-3.075,9.882-4.24,15.462-3.503c9.435,1.248,17.166,8.588,18.951,17.962
		c0.468,2.458,0.576,4.922,0.214,7.405c-0.052,0.358-0.187,0.403-0.496,0.403c-4.506,0.002-9.011,0.011-13.517,0.028
		c-6.512,0.023-13.023,0.057-19.535,0.074c-0.376,0.001-0.473,0.045-0.34,0.444c1.771,5.3,7.361,8.828,12.923,8.2
		c2.585-0.292,4.83-1.285,6.796-2.957c0.144-0.122,0.281-0.203,0.479-0.203c3.978,0.004,7.956,0.003,11.972,0.003
		c-0.535,1.271-1.224,2.474-2.027,3.612c-3.633,5.149-8.561,8.281-14.752,9.425c-0.677,0.125-1.371,0.155-2.056,0.237
		c-0.136,0.016-0.3-0.067-0.403,0.094C82.096,48,81.109,48,80.123,48z M70.564,20.486c1.861,0,3.652,0.003,5.443,0
		c5.493-0.01,10.985-0.021,16.478-0.032c0.558-0.001,0.558-0.001,0.302-0.516c-3.297-6.618-11.891-8.795-17.961-4.557
		C72.952,16.689,71.532,18.365,70.564,20.486z"/>
	<path fill="#D00125" d="M100.253,48c0.142-0.428,0.453-0.751,0.7-1.113c4.647-6.81,9.298-13.617,13.947-20.426
		c0.619-0.906,0.623-0.91-0.012-1.844c-4.202-6.179-8.407-12.357-12.61-18.536c-0.655-0.963-1.304-1.928-1.95-2.883
		c0.073-0.172,0.206-0.111,0.307-0.111c4.325-0.003,8.65,0.002,12.975-0.012c0.323-0.001,0.47,0.152,0.622,0.376
		c2.806,4.13,5.613,8.259,8.421,12.387c0.357,0.525,0.72,1.047,1.102,1.601c1.403-2.05,2.775-4.052,4.144-6.057
		c1.806-2.645,3.611-5.29,5.413-7.937c0.153-0.225,0.305-0.37,0.623-0.369c4.325,0.013,8.65,0.009,12.975,0.01
		c0.094,0,0.188,0.009,0.36,0.018c-0.35,0.518-0.666,0.988-0.985,1.456c-4.384,6.413-8.769,12.825-13.154,19.237
		c-0.315,0.461-0.612,0.935-0.949,1.379c-0.184,0.242-0.16,0.401,0.006,0.645c3.258,4.775,6.507,9.557,9.756,14.339
		c1.717,2.527,3.431,5.055,5.145,7.583c0.054,0.079,0.09,0.171,0.134,0.256c-4.572,0-9.144,0-13.716,0
		c-0.039-0.22-0.203-0.367-0.32-0.539c-1.326-1.961-2.658-3.919-3.988-5.878c0.104-0.148,0.062-0.318,0.062-0.478
		c0.002-5.024,0.002-10.047-0.002-15.071c0-0.117,0.064-0.257-0.085-0.375c-0.333,0.473-0.666,0.934-0.985,1.404
		c-1.38,2.031-2.758,4.063-4.131,6.098c-0.106,0.158-0.263,0.304-0.226,0.528c-0.233,0.065-0.3,0.287-0.416,0.456
		c-2.011,2.935-4.021,5.871-6.026,8.811c-1.145,1.679-2.282,3.363-3.422,5.045C109.397,48,104.825,48,100.253,48z M104.633,45.632
		c2.567,0,5.032-0.012,7.496,0.011c0.415,0.004,0.64-0.133,0.868-0.466c4.385-6.432,8.781-12.857,13.187-19.275
		c0.201-0.293,0.183-0.481-0.008-0.762c-4.411-6.474-8.815-12.953-13.212-19.437c-0.164-0.242-0.333-0.341-0.634-0.339
		c-2.417,0.014-4.835,0.007-7.252,0.01c-0.104,0-0.225-0.048-0.334,0.071c0.098,0.15,0.194,0.3,0.294,0.446
		c4.358,6.411,8.713,12.824,13.081,19.228c0.206,0.301,0.223,0.49,0.008,0.803c-3.517,5.116-7.017,10.242-10.522,15.367
		C106.634,42.708,105.662,44.128,104.633,45.632z"/>
	<path fill="#9F132B" d="M22.655,3.103c-0.027-0.075-0.08-0.109-0.159-0.1c3.552,0,7.105,0,10.657,0
		c-0.085-0.014-0.144,0.019-0.177,0.099C29.535,3.103,26.095,3.103,22.655,3.103z"/>
	<path fill="#9F132B" d="M129.2,41.583c-1.789-2.632-3.578-5.263-5.367-7.895c-0.036-0.223,0.12-0.37,0.226-0.528
		c1.373-2.035,2.751-4.068,4.131-6.098c0.319-0.47,0.653-0.931,0.985-1.404c0.149,0.118,0.085,0.259,0.085,0.375
		c0.004,5.024,0.004,10.047,0.002,15.071C129.262,41.265,129.304,41.435,129.2,41.583z"/>
	<path fill="#D00125" d="M109.126,7.752c0.819-0.002,1.642-0.208,2.275,0.051c0.636,0.261,0.901,1.118,1.314,1.723
		c3.539,5.18,7.063,10.369,10.606,15.546c0.232,0.338,0.226,0.56-0.006,0.897c-3.873,5.647-7.734,11.302-11.587,16.962
		c-0.18,0.265-0.36,0.369-0.676,0.356c-0.621-0.026-1.245-0.008-1.952-0.008c0.314-0.472,0.586-0.892,0.868-1.305
		c3.64-5.329,7.275-10.661,10.932-15.978c0.262-0.381,0.23-0.617-0.014-0.974c-3.793-5.543-7.572-11.096-11.353-16.646
		C109.406,8.19,109.286,7.999,109.126,7.752z"/>
</g>
</svg>
