<?xml version="1.0" encoding="UTF-8"?>
<svg id="Layer_2" data-name="Layer 2" xmlns="http://www.w3.org/2000/svg" viewBox="0 0 207.07 46.35">
  <defs>
    <style>
      .cls-1 {
        fill: #fff;
      }
    </style>
  </defs>
  <g id="Layer_1-2" data-name="Layer 1">
    <g>
      <path class="cls-1" d="M0,33.33c.54-1.33,.97-2.7,1.45-4.05,2.28-6.49,4.54-12.98,6.81-19.48,.03-.1,.07-.19,.14-.36,2.8,8.02,5.59,15.98,8.38,23.97-1.49,0-2.93,0-4.37,0-.19,0-.24-.1-.3-.25-.3-.82-.62-1.63-.92-2.45-.09-.25-.19-.36-.48-.35-1.55,.02-3.1,.01-4.65,0-.26,0-.38,.08-.47,.32-.29,.82-.61,1.63-.9,2.46-.08,.21-.18,.28-.4,.28-1.43-.01-2.86,0-4.29-.01v-.08Zm7.02-7.34h2.36c.23,0,.13-.13,.1-.24-.18-.59-.35-1.18-.53-1.77-.21-.69-.43-1.38-.66-2.16-.44,1.43-.84,2.78-1.27,4.17Z"/>
      <path class="cls-1" d="M119.47,0c.21,.16,.18,.39,.18,.62,0,7.61,0,15.23,0,22.84s0,14.88,0,22.32c0,.21,.05,.44-.18,.58h-.49c-.12-.1-.2-.21-.18-.38,.01-.07,0-.13,0-.2V.62c0-.22-.04-.45,.17-.62,.16,0,.32,0,.49,0Z"/>
      <path class="cls-1" d="M207.07,7.2c-.13,.03-.11,.16-.15,.25-.37,.79-1.19,1.22-2.03,1.03-.81-.18-1.39-.93-1.38-1.76,0-.82,.61-1.55,1.4-1.71,.87-.17,1.65,.24,2.02,1.04,.04,.09,0,.22,.14,.26,0,.3,0,.59,0,.89Zm-.39-.44c0-.77-.6-1.39-1.37-1.41-.77-.01-1.41,.62-1.41,1.4,0,.77,.62,1.39,1.38,1.39,.76,0,1.39-.62,1.39-1.38Z"/>
      <path class="cls-1" d="M49.54,24.12c.14-.1,.15-.24,.2-.36,1.54-4.03,3.09-8.05,4.62-12.08,.12-.32,.28-.41,.61-.4,6.81,.01,13.61,.01,20.42,0,.31,0,.48,.08,.63,.36,.69,1.31,1.41,2.6,2.15,3.96h-.47c-6.5,0-13,0-19.49-.01-.42,0-.56,.14-.7,.5-2.58,6.89-5.18,13.78-7.78,20.67-.04,.11-.1,.22-.17,.38-.62-1.65-1.23-3.25-1.83-4.85-2.06-5.45-4.11-10.91-6.16-16.37-.1-.26-.23-.33-.5-.33-1.99,.01-3.99,.01-5.99,0-.36,0-.47,.07-.47,.45,.01,5.64,0,11.27,0,16.9,0,.33-.05,.46-.43,.45-1.21-.03-2.43-.02-3.64,0-.33,0-.39-.1-.39-.41,.01-5.65,0-11.3,.02-16.94,0-.37-.1-.45-.46-.45-2.97,.01-5.93,0-8.9,0h-.42c-.04-.16,.05-.24,.1-.33,.65-1.24,1.32-2.47,1.96-3.7,.11-.21,.23-.28,.46-.28,7.12,0,14.23,0,21.35,0,.27,0,.36,.1,.45,.33,1.55,4.07,3.11,8.13,4.67,12.19,.04,.1,.09,.21,.13,.32Z"/>
      <path class="cls-1" d="M86.5,33.62c-4.61,.02-8.42-3.74-8.45-8.36-.03-4.68,3.72-8.48,8.38-8.51,4.67-.03,8.46,3.72,8.5,8.4,.04,4.63-3.76,8.45-8.43,8.48Zm-.03-12.62c-2.32,.01-4.2,1.9-4.18,4.2,.02,2.32,1.9,4.17,4.21,4.16,2.31-.01,4.18-1.89,4.17-4.2,0-2.31-1.89-4.17-4.21-4.16Z"/>
      <path class="cls-1" d="M100.03,26.5c-.1,.15-.06,.29-.06,.42,0,2.02,0,4.04,0,6.06,0,.29-.06,.39-.37,.38-1.21-.03-2.43-.02-3.64-.02-.23,0-.33-.03-.33-.3,0-5.44,0-10.89,0-16.33,0-.02,.01-.05,.04-.14,2.58,2.22,5.13,4.41,7.68,6.61,.12-.12,.07-.25,.07-.36,0-1.81,0-3.61,0-5.42,0-.27,.05-.37,.35-.36,1.21,.02,2.43,.01,3.64,0,.2,0,.32,.01,.32,.27,0,5.52,0,11.05,0,16.57,0,0-.01,.02-.05,.09-2.55-2.5-5.09-4.98-7.64-7.48Z"/>
      <path class="cls-1" d="M23.89,33.6c-4.71,0-8.5-3.85-8.42-8.55,.08-4.87,4.29-8.66,9.14-8.24,1.68,.15,3.18,.75,4.52,1.77,.22,.17,.25,.27,.05,.48-.8,.88-1.58,1.77-2.35,2.67-.15,.17-.23,.22-.45,.06-1.47-1.05-3.3-1.08-4.77-.13-1.44,.93-2.18,2.69-1.83,4.35,.35,1.7,1.66,3,3.4,3.31,1.18,.21,2.28-.04,3.24-.77,.2-.16,.29-.12,.44,.05,.77,.9,1.56,1.79,2.35,2.67,.19,.21,.19,.32-.04,.49-1.55,1.2-3.31,1.83-5.27,1.83Z"/>
      <path class="cls-1" d="M66.29,33.35c-1.01,0-1.84-.01-2.68,0-.26,0-.31-.08-.31-.32,.01-1,.01-1.99,0-2.99,0-.26,.07-.31,.32-.31,.85,.01,1.7,0,2.55,0,.36,0,.73-.02,1.07-.15,.58-.22,.8-.73,.57-1.31-.18-.47-.51-.85-.83-1.23-.78-.93-1.63-1.8-2.31-2.81-.95-1.42-1.46-2.93-1.03-4.65,.38-1.51,1.64-2.56,3.21-2.6,1.5-.04,2.99,0,4.49-.02,.19,0,.25,.04,.25,.24-.01,1.02-.01,2.05,0,3.07,0,.24-.11,.25-.29,.25-.81,0-1.62-.01-2.43,0-.41,0-.87-.02-1.11,.41-.27,.47-.05,.89,.2,1.28,.44,.68,1.02,1.25,1.55,1.86,.99,1.12,1.94,2.27,2.43,3.72,.28,.82,.4,1.66,.26,2.51-.25,1.49-1.42,2.6-3.02,2.92-1.01,.21-2.04,.07-2.89,.11Z"/>
      <path class="cls-1" d="M41.38,25.15c0,2.59,0,5.17,0,7.76,0,.33-.05,.47-.43,.46-1.19-.03-2.37-.02-3.56,0-.26,0-.34-.07-.34-.34,0-5.24,0-10.48,0-15.73,0-.29,.1-.32,.35-.32,1.2,.01,2.4,.01,3.6,0,.3,0,.38,.06,.38,.37-.01,2.6,0,5.2,0,7.8Z"/>
      <path class="cls-1" d="M57.76,25.16c0-2.6,0-5.2,0-7.8,0-.29,.05-.39,.37-.38,1.2,.02,2.4,.02,3.6,0,.29,0,.35,.08,.35,.36,0,5.22,0,10.43,0,15.65,0,.28-.04,.39-.36,.39-1.2-.02-2.4-.02-3.6,0-.29,0-.35-.08-.35-.36,0-2.61,0-5.23,0-7.84Z"/>
      <path class="cls-1" d="M77.25,25.18c0,2.6,0,5.2,0,7.8,0,.29-.06,.39-.37,.38-1.2-.02-2.4-.02-3.6,0-.3,0-.34-.09-.34-.36,0-5.23,0-10.46,0-15.69,0-.25,.05-.34,.32-.34,1.21,.02,2.43,.02,3.64,0,.29,0,.35,.09,.35,.36-.01,2.61,0,5.23,0,7.84Z"/>
      <path class="cls-1" d="M113.25,32.76c0,.99-.77,1.78-1.75,1.78-.99,0-1.81-.8-1.8-1.78,0-.97,.82-1.77,1.78-1.77,.98,0,1.77,.79,1.78,1.77Zm-1.79-1.38c-.77,0-1.38,.62-1.38,1.39,0,.77,.61,1.38,1.38,1.38,.79,0,1.41-.62,1.39-1.41-.01-.77-.63-1.37-1.4-1.36Z"/>
      <path class="cls-1" d="M126.64,40.65s.04-.06,.06-.07c.91-.19,1.17-.86,1.35-1.67,.45-2.05,.49-4.12,.27-6.18-.28-2.67-.17-5.33-.14-7.99,0-.1-.03-.23,.13-.25,.32-.04,.32-.27,.3-.51-.03-.51-.14-1.01-.2-1.5-.11-.85-.2-1.74,.15-2.58,.21-.5,.24-1.02-.07-1.5-.11-.17-.14-.34-.14-.53,0-2.21,0-4.42,0-6.63,0-.19,.02-.35,.19-.5,.21-.19,.1-.49,.07-.72-.04-.24-.26-.06-.39-.08-.23-.05-.4-.13-.53-.42-.15-.32-.49-.57-.78-.8-.49-.39-.49-.86-.3-1.38,.07-.18,.16-.41,.4-.38,1,.12,1.94-.22,2.91-.32,1.21-.13,2.42,.04,3.63-.06,.91-.08,1.83-.17,2.74-.01,.19,.03,.29,.08,.39,.27,.18,.37,.47,.64,.94,.65,.41,.01,.74,.24,1.01,.53,.59,.64,.94,1.41,1.07,2.27,.12,.81,.17,1.63,.24,2.45,.04,.44-.06,.84-.32,1.22-.28,.41-.49,.86-.71,1.31-.46,.94-1.07,1.78-1.77,2.54-.21,.23-.12,.32,.08,.44,.25,.14,.51,.23,.79,.28,.57,.11,.72,.38,.52,.92-.05,.14-.14,.26-.19,.4-.07,.17-.18,.37,.18,.33,.06,0,.12,.08,.19,.13,.31,.23,.41,.62,.72,.85,.11,.08,.02,.25,0,.38-.15,.8-.26,1.6-.13,2.41,.05,.32,.12,.63,.4,.85,.28,.24,.32,.55,.3,.93-.07,1.14,.08,2.29,.14,3.43,.03,.66-.03,1.29-.43,1.85-.12,.16-.09,.34-.05,.51,.37,1.43,.03,2.71-.76,3.91-.51,.78-.69,1.66-.79,2.56-.02,.22-.1,.32-.3,.41-.78,.36-1.52,.8-2.2,1.34-.28,.22-.57,.41-.72,.74-.07,.16-.21,.13-.34,.16-.62,.14-1.29,.11-1.85,.49-.18,.12-.34,0-.46-.14-.23-.26-.45-.25-.67,.01-.29,.35-.71,.33-1.08,.32-1.06-.03-2.12-.16-3.18-.15-.28,0-.43-.33-.65-.49Zm5.28-2.94c.43-.07,.87-.07,1.21-.43,.13-.15,.3-.26,.47-.38,.93-.63,1.81-1.32,1.79-2.61,0-.6,.1-1.17,.29-1.74,.4-1.24,.58-2.49,.08-3.76-.11-.27-.12-.58,.07-.85,.25-.36,.27-.81,0-1.13-.28-.33-.33-.7-.22-1.06,.24-.77,.26-1.51,0-2.29-.06-.19-.21-.49-.13-.69,.21-.54-.15-.81-.47-1.03-.61-.43-1.15-.92-1.67-1.46-.09-.09-.15-.23-.29-.23,0,.72,0,1.43,0,2.14,0,.27,.02,.56-.07,.8-.16,.44-.2,.87-.09,1.31,.18,.7,.09,1.39-.17,2.01-.16,.39-.41,.67,0,1.02,.03,.03,0,.13,0,.2v4.73c0,.12,.01,.24-.09,.33-.25,.24-.3,.56-.29,.89,0,.62-.03,1.24,.02,1.86,.07,.82,.07,1.6-.45,2.3,0,0,0,.03,0,.08Zm4.43-26.49c-.26-.18-.49-.18-.71-.2-.25-.02-.46-.12-.56-.34-.12-.27-.32-.28-.56-.24-.21,.04-.43,.06-.64,.09-.07,.01-.14,.04-.2-.06-.17-.3-.26-.09-.34,.07-.07,.15,.04,.37-.1,.46-.3,.2-.23,.48-.23,.75,0,.71,0,1.43,0,2.14v2.9c.19-.02,.35-.12,.5-.05,.32,.15,.47-.05,.61-.27,.08-.13,.14-.26,.2-.4,.24-.55,.62-.91,1.23-.97,.19-.02,.23-.12,.23-.3,.01-.73-.11-1.48,.26-2.18,.03-.05-.03-.15-.05-.23-.18-.48-.4-.97,.37-1.19Z"/>
      <path class="cls-1" d="M189.53,19.8c1.08-.39,1.46,.54,2.08,1.02,.05,.04,.08,.11,.09,.18,.03,.39,.15,.72,.58,.83,.09,.02,.1,.14,.13,.24,.24,1.05,.49,2.09,.47,3.18-.01,.51,.04,1.02,.21,1.51,.05,.16-.02,.44,.34,.34,.14-.04,.16,.17,.18,.27,.17,1.03,.35,2.07,.48,3.11,.04,.29-.1,.6-.14,.91-.02,.1-.06,.2,.06,.29,.53,.38,.72,.88,.53,1.51-.02,.06-.02,.14,0,.2,.16,.69,.08,1.37-.03,2.05,0,.05-.05,.12-.03,.16,.41,1.01-.23,1.91-.31,2.87-.05,.65-.26,1.29-.35,1.94-.04,.31-.14,.3-.39,.22-.62-.2-1.2-.46-1.65-.96-.21-.24-.49-.42-.74-.63-.41-.34-.88-.5-1.42-.48-.56,.02-.6-.04-.44-.6,.13-.48,.28-.95,.46-1.42,.39-1.03,.54-2.09,.59-3.19,.09-2.01-.27-3.94-.88-5.83-.12-.37-.2-.8-.64-.97-.14-.05-.06-.16-.05-.24,.03-.21,.05-.43,.1-.64,.25-.88,.12-1.68-.45-2.42-.31-.41-.53-.9-.96-1.31,0,.56-.2,1-.43,1.43-.24,.45-.18,.92-.13,1.38,.21,2.05,.43,4.1,.65,6.15,0,.07,.05,.16,.02,.2-.34,.45,.03,.85,.07,1.27,.07,.86,.07,1.71-.16,2.56-.12,.43,.06,.88,.09,1.32,.03,.46,.1,.91,.13,1.37,.02,.31,.1,.65-.21,.9-.04,.03-.03,.15-.02,.23,.07,.91-.16,1.77-.37,2.69-.18-.2-.21-.42-.28-.61-.61-1.59-1.66-2.81-3.07-3.75-1.12-.75-.92-.63-.59-1.71,.33-1.06,.64-2.13,1.15-3.13,.19-.37,.19-.87-.18-1.23-.12-.12-.1-.24-.1-.37,0-2.49,.04-4.99-.02-7.48-.02-.81-.11-1.66-.47-2.43-.03-.06-.07-.12-.07-.19,.04-.66-.13-1.3-.2-1.95-.06-.56-.3-1.08-.3-1.66,0-.39-.09-.78-.06-1.17,.05-.56-.19-1-.51-1.41-.09-.12-.1-.25-.11-.38-.04-.71-.04-1.43,0-2.14,0-.23,.1-.39,.29-.53,.69-.52,1.41-1,1.98-1.65,.11-.13,.4-.29,.24-.42-.17-.14-.48-.28-.74-.11-.13,.08-.25,.14-.41,.14-.29,0-.51-.02-.54-.39-.01-.18-.14-.35-.27-.49-.72-.74-1.41-1.53-2.52-1.69-.12-.02-.27-.01-.25-.23,.02-.24,.17-.2,.31-.2,1.02-.03,2.05-.06,3.07-.08,.43,0,.86-.02,1.27-.16,.22-.08,.46-.09,.62,.14,.06,.09,.15,.12,.25,.1,1.16-.16,2.18,.36,3.24,.67,.17,.05,.33,.12,.51,.1,.65-.05,1.15,.26,1.66,.62,.64,.46,1.13,1.01,1.39,1.76,.12,.33,.27,.65,.45,.94,.5,.81,.6,1.68,.51,2.6,0,.08,.01,.18-.03,.24-.34,.58-.2,1.23-.31,1.84-.23,1.36-.75,2.61-1.9,3.49-.3,.23-.65,.39-1.03,.43-.29,.03-.42,.15-.37,.45,.02,.1-.02,.21-.05,.41Zm-2.9-5.63v3.96c0,.17-.05,.34,.23,.37,.61,.06,1.64-.26,1.91-1.06,.26-.76,.65-1.48,.64-2.31,0-.11,.05-.2,.09-.3,.31-.84,.36-1.7-.12-2.48-.48-.78-1.08-1.48-1.76-2.1-.16-.15-.33-.28-.54-.35-.36-.11-.45-.03-.45,.34v3.92Z"/>
      <path class="cls-1" d="M192.13,5.49h1.35c.25,0,.49-.03,.68,.23,.13,.18,.41,.05,.62,.07,.18,.02,.35-.04,.47,.19,.06,.12,.26,.17,.41,.23,.49,.19,.98,.38,1.38,.73,.2,.17,.47,.06,.7,.08,.15,.02,.34-.05,.43,.14,.15,.31,.41,.33,.71,.32,.24-.01,.49-.06,.63,.22,.05,.1,.16,.06,.25,.08,.43,.06,.88-.15,1.27,.28,.14,.15,.57,.04,.86,.03,.26-.01,.47,.03,.6,.29,.05,.1,.14,.21,.24,.27,1.02,.69,1.34,1.83,1.85,2.86,.32,.66,.35,1.28,.31,1.95-.06,.91,.07,1.79,.28,2.69,.25,1.05,.15,2.17,.14,3.26,0,.51-.11,.99-.4,1.41-.1,.14-.13,.29-.12,.46,.02,.36,.01,.73,.03,1.09,.03,.64-.19,1.2-.6,1.67-.2,.23-.28,.47-.31,.75-.06,.59-.15,1.17-.29,1.75-.07,.26,0,.51,0,.76,.07,1.6,.29,3.21,.02,4.8-.15,.91-.11,1.83-.26,2.72-.25,1.47-.35,3.01-1.34,4.26-.3,.38-.64,.67-1.11,.81-.81,.25-1.64,.42-2.43,.74-.26,.1-.51-.08-.76-.17-.16-.05-.26-.05-.43,.03-.62,.29-1.29,.36-1.97,.33-.12,0-.24-.06-.33-.17,.22-.25,.44-.49,.62-.78,.54-.91,.49-1.85,.12-2.79-.09-.23-.07-.37,.19-.43,.13-.03,.25-.1,.37-.16,.56-.25,.55-.25,.33-.74-.27-.63-.52-1.27-.79-1.9-.12-.29-.04-.59-.01-.88,.14-1.42,.29-2.84,.44-4.26,.01-.14,0-.25-.09-.38-.55-.81-.87-1.72-1.13-2.66-.04-.14-.04-.29-.04-.44,.02-.35-.01-.7-.19-1.01-.11-.2-.11-.42-.12-.63-.02-.62-.02-1.24-.02-1.86,0-.07,.04-.16,.01-.2-.51-.71-.07-1.47-.14-2.21,0-.09,0-.18-.03-.27-.22-.66-.24-1.34-.23-2.03,.01-1.43,0-2.86,0-4.29,0-.17-.04-.36,.19-.44,.17-.06,.1-.2,.1-.31,0-.58,0-1.16,0-1.74,0-.16-.02-.33,.16-.42,.1-.05,.12-.13,.12-.23,0-.03,0-.05,0-.08,.14-.89-.11-1.58-.86-2.16-.67-.52-1.28-1.14-1.9-1.86Zm6.38,30.18c.81-.86,1.44-1.81,1.55-2.97,.06-.62,.25-1.18,.51-1.72,.22-.46,.3-.93,.31-1.44,.02-1.71-.02-3.42,.12-5.13,.04-.51-.07-1.1,.29-1.52,.32-.38,.39-.8,.5-1.24,.1-.39,.18-.79,.44-1.11,.06-.07,.07-.14,.07-.22-.09-1.13,.17-2.27-.29-3.41-.29-.72-.51-1.4-1.1-1.99-.35-.35-.69-.72-1.07-1.05-.1-.09-.19-.19-.34-.2-.52-.02-1.05-.03-1.57-.05-.12,0-.24,0-.24,.19-.02,.35-.11,.7-.08,1.04,.13,1.27,.15,2.56,.15,3.83,0,1,.34,1.9,.54,2.85,.02,.1,.07,.21,.13,.29,.14,.17,.15,.36,.15,.57-.02,4.28-.04,8.57-.05,12.85,0,.14,0,.29,0,.43Z"/>
      <path class="cls-1" d="M182.22,21.3c-.06,1.09,.08,2.02,.25,2.95,.27,1.46,.18,2.93,.21,4.39,.01,.67-.02,1.35-.03,2.02-.01,.61-.07,1.19-.36,1.78-.42,.86-.53,1.86-1.11,2.67-.04,.05-.05,.13-.04,.19,.14,.94-.17,1.79-.5,2.64-.21,.55-.46,1.09-.35,1.7,0,.04,0,.1-.01,.12-.44,.33-.24,.81-.27,1.23-.03,.4-.28,.72-.66,.68-.18-.02-.37,.21-.47,.05-.09-.14-.04-.37-.02-.56,.15-1.26-.38-2.37-.71-3.53-.09-.3-.17-.6-.13-.91,.05-.46-.13-.8-.45-1.11-.42-.4-.82-.82-.94-1.42-.05-.25,0-.43,.15-.63,.86-1.07,1.41-2.27,1.62-3.64,.07-.46-.05-.75-.43-.97-.46-.27-.93-.55-1.39-.82-.45-.27-.91-.52-1.35-.81-.15-.1-.32-.15-.45-.08-.16,.08,0,.25,.03,.35,.15,.42,.07,.86,.07,1.28,0,.3,.05,.5,.33,.69,.76,.51,.74,.54,.3,1.33-.09,.16-.18,.25-.37,.22-1.52-.26-2.93,.17-4.31,.74-.3,.12-.64,.36-.9,.29-.27-.07-.24-.56-.42-.81-.17-.25-.11-.43,.09-.62,.1-.09,.17-.21,.27-.3,.36-.34,.62-.72,.63-1.25,0-.53,.44-.77,.81-1.03,.16-.11,.28-.18,.05-.33-.11-.07-.1-.17-.08-.29,.04-.29,.06-.59,.12-.88,.08-.42,.13-.83,.02-1.27-.08-.33-.03-.68,.28-.92,.11-.08,.12-.19,.14-.32,.06-.43-.19-.92,.26-1.27,.05-.04,.03-.12-.04-.17-.26-.17-.25-.42-.22-.68,.02-.16,.02-.32,.01-.49-.04-.7,.11-1.34,.52-1.94,.28-.42,.33-.93,.36-1.43,0-.16,.02-.3,.18-.42,.21-.17,.26-.43,.28-.69,.08-.92,.14-1.86,.63-2.69,.08-.14,.13-.3,.24-.42,.24-.28,.32-.57,.19-.93-.06-.16-.03-.36,.09-.45,.36-.27,.4-.68,.54-1.05,.2-.5,.39-1.01,.76-1.41,.2-.22,.17-.49,.13-.73-.11-.65,.23-1.06,.7-1.37,.23-.15,.29-.32,.3-.56,0-.23,.02-.46,.02-.69,0-.4,.26-.56,.6-.63,.32-.06,.54,.09,.71,.35,.13,.21,.23,.44,.24,.68,.07,.78,.44,1.43,.87,2.06,.14,.2,.29,.4,.27,.66-.07,.9,.18,1.74,.49,2.56,.59,1.54,.96,3.13,1.37,4.72,.04,.17,.07,.35,.24,.45,.12,.07,.13,.19,.13,.32,.02,.49,.01,.94,.23,1.43,.29,.64,.48,1.37,.28,1.96Zm-7.12,3.59c1.16-.23,2.18,.05,3.1,.74,.15,.11,.32,.18,.52,.2,.18,.01,.26-.04,.27-.24,.02-1.95,.12-3.9-.31-5.82-.1-.46-.33-.76-.8-.84-.47-.08-.76-.36-.95-.78-.11-.26-.21-.52-.33-.8-.03,.05-.04,.06-.04,.07,0,.05-.01,.11-.02,.16-.05,.94,.04,1.93-.89,2.57-.02,.02-.03,.08-.03,.11,.02,1.09-.45,2.14-.26,3.24,.03,.18,.02,.38,.02,.57,0,.3,.05,.61-.29,.82Z"/>
      <path class="cls-1" d="M139.62,6.77c.13-.18,.25-.3,.32-.47,.13-.35,.53-.43,.77-.14,.11,.13,.23,.16,.38,.16,.57,0,1.13,0,1.7,0,.22,0,.38,.04,.49,.25,.14,.26,.35,.43,.69,.39,.22-.03,.37,.09,.51,.26,.3,.38,.61,.76,.99,1.07,.12,.1,.14,.21,.14,.35,0,.82,0,1.64,0,2.47,0,.1,.04,.22-.07,.3-.35,.23-.22,.49,.04,.64,.4,.23,.35,.57,.32,.91-.03,.31,.16,.69-.2,.93-.13,.09-.09,.22-.09,.33,0,1.81,0,3.61,0,5.42,0,.17,.04,.3,.18,.42,.31,.25,.46,.56,.49,.97,.14,1.86,0,3.72-.1,5.57-.47,.63-.22,1.36-.29,2.04-.02,.18-.01,.35,.18,.46,.13,.07,.12,.21,.12,.32,0,.38,0,.76,0,1.13,0,.24,.06,.47-.29,.59-.19,.06-.3,.38-.18,.63,.18,.41,.31,.77-.04,1.19-.14,.16-.04,.52-.05,.78,0,.26,.07,.54-.22,.72-.1,.06-.05,.2-.05,.31,0,.42,0,.84,0,1.25,0,.11,.03,.25-.03,.31-.38,.39-.07,.78-.02,1.18,.02,.18,.12,.17,.25,.18,.35,.01,.7,.04,1.05,.05,.54,.01,1.04-.04,1.4-.53,.18-.25,.46-.28,.77-.21,.61,.15,1.21,.37,1.85,.39,.54,.02,1.04-.09,1.49-.39,.47-.31,1.03-.29,1.56-.33,2.77-.19,5.55-.06,8.33-.01,.23,0,.26,.11,.26,.3,0,.77,.02,1.54-.02,2.3-.04,.72,.08,1.38,.49,1.99,.24,.37,.22,.39-.21,.39-1.1,0-2.21,0-3.32,0-.2,0-.4,.04-.49-.23-.05-.16-.24-.07-.36-.08-.3-.03-.57-.06-.87-.22-.34-.18-.73-.46-1.21-.42-.71,.06-1.43,.01-2.14,.01-.26,0-.52-.04-.68-.27-.14-.2-.34-.15-.51-.15-2.13-.01-4.26-.02-6.39-.03-.21,0-.39-.03-.58-.19-.47-.4-1.49-.4-2-.05-.5,.35-1.06,.66-1.39,1.21-.08,.14-.18,.09-.27,.08-.83-.09-1.65-.27-2.48,0-.23,.07-.32-.24-.47-.38-.15-.13,.05-.2,.08-.29,.13-.47,.54-.62,.9-.84,.36-.22,.68-.53,1.02-.79,.12-.09,.09-.21,.09-.33,0-.31-.09-.66,.03-.92,.14-.32,.08-.53,.02-.85-.13-.7-.04-1.45-.04-2.18,0-.03,0-.07,.02-.08,.43-.26,.24-.68,.28-1.05,0-.09,0-.18,.06-.27,.29-.38,.29-.63-.06-.9-.25-.19-.3-.4-.3-.68,.01-1.04,0-2.08,0-3.11,0-.2-.02-.41,.19-.54,.13-.08,.09-.21,.08-.33-.05-.47-.05-.94-.02-1.41,.01-.23,0-.49,.26-.64,.13-.07,.06-.22,.06-.33,0-.81,0-1.62,0-2.43,0-.2,.02-.37,.17-.55,.29-.35,.28-.63-.03-.97-.13-.14-.14-.27-.14-.44,0-1.23,0-2.45,0-3.68,0-.18,0-.35-.17-.46-.15-.09-.1-.24-.1-.37,0-.59,0-1.19,0-1.78,0-.24,.04-.42,.25-.55,.28-.18,.36-.43,.35-.76,0-.35,.03-.7,.05-1.05,.02-.26-.01-.48-.26-.63-.15-.08-.14-.18-.05-.32,.5-.82,.52-1.65,.11-2.54-.15-.33-.35-.45-.68-.43-.14,.01-.26,.03-.33-.13-.32-.68-.91-1.12-1.51-1.55Z"/>
      <path class="cls-1" d="M167,35.82c.18-.32,.41-.27,.72-.19,.36,.09,.74-.06,1.12-.09,.19-.02,.19-.17,.2-.3,.05-.58,.39-.94,.92-1.1,.85-.24,1.6-.7,2.39-1.06,.41-.19,.68-.52,.91-.89,.09-.15,.17-.26,.3-.06,.15,.24,.38,.26,.63,.25,.16-.01,.33,.03,.48,0,.5-.1,.74,.2,.95,.56,.13,.21,.15,.42,0,.64-.19,.28-.21,.58-.1,.88,.4,1.05,.16,2.13,.2,3.2,0,.24-.34,.38-.36,.67,0,.01-.28,.02-.42,.02-1.19,0-2.37,0-3.56,0-.19,0-.38,.03-.46-.21-.03-.11-.14-.11-.23-.12-.17-.02-.35-.04-.52-.06-.4-.05-.77-.08-1.11,.26-.28,.29-.68,.42-1.11,.39-.23-.01-.46,.02-.69,.02-.74-.01-1.46,.07-2.15,.39-.9,.42-1.15-.03-1.12-.89,0-.28,.03-.56,.03-.85,0-.31-.03-.6,.28-.83,.19-.14,.12-.4,.06-.61-.07-.23-.09-.41,.17-.57,.35-.21,.47-.56,.39-.97-.04-.17-.08-.36,.1-.48,.27-.17,.26-.44,.19-.68-.07-.23,0-.42,.07-.62,.4-1,.34-1.99-.08-2.98-.18-.42-.25-.88-.28-1.34-.15-1.94,.19-3.8,.99-5.58,.32-.71,.56-1.45,.84-2.18,.07-.18,.1-.33-.05-.51-.2-.24-.21-.52,0-.77,.23-.28,.34-.6,.31-.97-.03-.33,.16-.59,.31-.86,.35-.62,.61-1.26,.53-1.99-.03-.26,.09-.5,.19-.73,.47-1.09,.96-2.16,1.71-3.09,.18-.23,.06-.49,.09-.74,.02-.18-.07-.38,.15-.51,.07-.04,.13-.11,.09-.2-.04-.09-.13-.09-.21-.09-.35,0-.7,0-1.05,0-.21,0-.37-.05-.47-.24-.06-.11-.15-.19-.27-.22-.51-.16-1.33,.2-1.55,.69-.36,.79-.45,1.65-.64,2.49-.06,.27-.14,.55-.23,.81-.11,.34-.33,.55-.71,.54-.1,0-.18,.01-.26,.08-.12,.09-.18,.36-.4,.15-.2-.18-.54-.3-.33-.69,.16-.3,.07-.61-.02-.91-.09-.3-.03-.54,.18-.74,.17-.17,.2-.36,.2-.58,0-1.55,0-3.1-.01-4.65,0-.27,.08-.33,.34-.33,3.07,0,6.15,0,9.22,0,.18,0,.35,0,.44,.19,.02,.04,.07,.1,.11,.1,.62,.03,.34,.41,.23,.66-.27,.65-.51,1.34-1.01,1.87-.1,.11-.06,.23-.05,.35,.06,.69-.13,1.28-.68,1.73-.15,.12-.2,.25-.17,.45,.07,.44-.03,.83-.4,1.11-.14,.11-.19,.25-.21,.42-.16,.98-.28,1.97-.7,2.89-.09,.19-.1,.41-.08,.64,.02,.28-.04,.57,0,.85,.15,1.36-.35,2.6-.74,3.85-.04,.11-.07,.24-.14,.33-.31,.38-.37,.82-.33,1.28,.02,.38-.25,.61-.46,.86-.25,.31-.41,.62-.38,1.03,.01,.15,0,.3,0,.44,.13,1.58-.1,3.1-.76,4.55-.15,.32-.1,.67-.08,1,.05,.79-.13,1.54-.53,2.2-.45,.75-.58,1.61-.95,2.38-.03,.06-.04,.13,.03,.22Z"/>
      <path class="cls-1" d="M158.27,6.72c1.35,0,2.7,0,4.04,0,.25,0,.35,.05,.35,.33-.01,.67-.09,1.35,.24,1.98,.05,.1,.02,.24,.02,.36,0,1.51,0,3.02,0,4.53,0,.2-.03,.37-.17,.55-.31,.41-.23,.9-.15,1.36,.04,.2,.01,.31-.14,.44-.35,.33-.53,.77-.72,1.2-.3,.68-.5,1.39-.84,2.05-.17,.33-.05,.74-.05,1.12,0,.23-.05,.37-.28,.46-.21,.09-.4,.22-.59,.34-.55,.34-.74,.84-.62,1.46,.06,.31,.09,.54-.25,.73-.26,.14-.4,.43-.55,.69-.67,1.14-1.16,2.36-1.56,3.62-.02,.05-.03,.1-.03,.16-.14,1.71-1,3.18-1.56,4.75-.04,.11-.21,.22-.05,.35,.12,.1,.25,.04,.38,0,.15-.06,.31-.11,.45-.18,.49-.26,.96-.51,1.54-.53,.47-.02,.81-.29,1.04-.72,.27-.5,.6-.96,1.01-1.35,.3-.29,.73-.38,1.02-.61,.26-.21,.22-.73,.48-1.03,.11-.13,.23-.4,.43-.06,.09,.15,.18,.03,.27-.02,.36-.21,.4-.62,.57-.95,.15-.29,.72-.5,1.01-.35,.13,.07,.08,.19,.08,.29,0,.51,0,1.02,.16,1.52,.02,.07,.07,.14-.04,.19-.53,.27-.67,.77-.69,1.3-.05,1.19-.01,2.37,.07,3.56,.01,.22,.02,.38-.28,.4-.25,.02-.52,.13-.68,.32-.22,.25-.47,.26-.76,.26-.84,0-1.67,0-2.51,0-.14,0-.28,.02-.4-.12-.23-.27-.69-.28-.89,.01-.38,.55-.71,.5-1.29,.17-.28-.16-.55-.23-.87-.22-.47,.02-.94-.01-1.41,0-.33,.02-.43-.21-.55-.43-.12-.22-.04-.39,.13-.53,.19-.15,.23-.34,.22-.57-.02-.38,0-.76,0-1.13,0-.2-.03-.4,.2-.52,.13-.07,.09-.22,.05-.33-.06-.16-.13-.33-.22-.48-.2-.32-.44-.61-.15-1.01,.04-.05,.03-.17,0-.23-.4-.86-.1-1.72,0-2.58,.1-.95,.48-1.83,.71-2.75,.12-.47,.5-.83,.8-1.2,.12-.15,.22-.3,.25-.5,.1-.69,.43-1.27,.89-1.78,.18-.2,.27-.42,.33-.67,.21-.97,.43-1.94,.8-2.87,.1-.24,.21-.47,.45-.6,.35-.19,.5-.54,.71-.85,.5-.76,.68-1.21,.75-2.06,.04-.44,.19-.8,.51-1.14,.56-.6,.93-1.35,1.54-1.92,.07-.07,.08-.16,.08-.26,0-.46-.01-.92,0-1.38,0-.22-.08-.27-.28-.27-.86,0-1.73-.02-2.59-.01-.8,.01-1.77,1-1.8,1.84,0,.25-.06,.36-.33,.42-.63,.13-.82,.4-.82,1.03,0,.39-.04,.79,0,1.17,.09,.73-.23,1.3-.6,1.87-.12,.19-.21,.16-.32,.02-.06-.07-.15-.14-.17-.22-.24-.81-.54-1.6-.6-2.44-.02-.32,.15-.65,.21-.98,.07-.48,.07-.95-.41-1.26-.14-.09-.12-.23-.12-.36,0-.55,.06-1.11-.02-1.66-.08-.59,.25-1.08,.29-1.63,.01-.17,.2-.08,.31-.08,1.34,0,2.67,0,4,0,0,0,0,.01,0,.02Z"/>
      <path class="cls-1" d="M150.97,14.82c.04,1.35,.05,2.69-.08,4.04-.03,.32,.14,.62,.2,.94,.04,.22,.1,.44,.16,.66,.06,.24,.04,.44-.2,.59-.22,.14-.29,.39-.27,.64,.06,.91,.07,1.83,.22,2.73,.06,.37,0,.75,.02,1.13,0,.17-.13,.23-.23,.3-.29,.22-.38,.48-.28,.85,.16,.58,.08,1.23,.35,1.78,.35,.72,.29,1.45,.21,2.2-.04,.38,.03,.79-.38,1.04-.04,.03-.06,.12-.07,.18-.08,.47,.3,1.27,.7,1.52,.27,.17,.52,.39,.82,.51,.6,.25,.65,.75,.68,1.28,0,.18-.04,.23-.23,.19-.36-.08-.73-.18-1.1,0-.16,.08-.31-.06-.46-.07-.82-.1-1.64,0-2.46,.04-.37,.02-.61,.24-.86,.46-.26,.23-.88,.03-.98-.31-.03-.1,.05-.14,.09-.2,.27-.42,.6-.8,1-1.1,.2-.15,.29-.33,.32-.57,.15-1.07,.15-2.15,.16-3.23,0-.12-.06-.27,.05-.34,.38-.25,.23-.55,.11-.85-.23-.58-.17-1.13,.15-1.66,.1-.15,.07-.31,.07-.47-.03-3.81-.06-7.63-.08-11.44,0-.17-.07-.36,.13-.47,.04-.02,.09-.07,.03-.12-.32-.27-.19-.65-.21-.98-.12-1.69-.21-3.39-.3-5.08-.02-.34-.19-.48-.47-.61-.5-.23-1.03-.41-1.43-.81-.09-.09-.32-.16-.15-.34,.16-.17,.18-.5,.54-.46,1.49,.18,2.99,.14,4.48,.08,.13,0,.27-.02,.4-.02,.2,0,.4-.18,.59,.06,.24,.29,.41,.59,.35,.98-.03,.16-.15,.16-.26,.21-.42,.16-.8,.39-1.07,.76-.22,.3-.26,.6-.02,.93,.21,.28,.17,.73-.09,.96-.18,.16-.22,.33-.22,.56,.01,1.17,0,2.34,0,3.52,.03,0,.07,0,.1,0Z"/>
      <path class="cls-1" d="M204.53,6.64q0-.92,.92-.9c.59,.01,.8,.38,.49,.87-.06,.09-.09,.14,0,.23,.12,.12,.13,.3,.13,.45,0,.11,.18,.3-.11,.33-.23,.02-.27-.09-.27-.28,0-.3-.11-.47-.46-.46-.23,0-.31,.08-.28,.3,.01,.09,0,.19,0,.28,0,.16-.1,.16-.21,.16-.12,0-.21,0-.21-.16,0-.27,0-.54,0-.8Zm.67-.06c.22,0,.45,.03,.46-.24,.01-.3-.23-.27-.43-.28-.18,0-.3,0-.3,.24,0,.24,.08,.32,.27,.27Z"/>
      <path class="cls-1" d="M110.72,32.7c0-1.04,.05-1.08,1.08-.93,.42,.06,.61,.46,.37,.81-.08,.12-.16,.17-.02,.31,.1,.1,.13,.27,.1,.42-.02,.11,.17,.31-.12,.33-.23,.02-.27-.11-.27-.29,.01-.35-.17-.46-.5-.45-.21,0-.25,.08-.23,.26,.01,.09,0,.19,0,.28,.01,.17-.07,.2-.22,.2-.17,0-.2-.08-.2-.22,0-.25,0-.49,0-.73Zm.68-.1c.23,0,.47,.02,.46-.28,0-.27-.24-.23-.42-.25-.19-.02-.32,0-.31,.26,0,.25,.09,.3,.28,.26Z"/>
    </g>
  </g>
</svg>