<?xml version="1.0" encoding="UTF-8"?>
<svg id="Layer_2" data-name="Layer 2" xmlns="http://www.w3.org/2000/svg" viewBox="0 0 326.95 47.33">
  <defs>
    <style>
      .cls-1 {
        fill: #fcfcfc;
      }
    </style>
  </defs>
  <g id="Layer_1-2" data-name="Layer 1">
    <g>
      <path class="cls-1" d="M13.6,3.4C7.6,17.8,0,36.5,0,36.8c0,.2,.7,.4,1.6,.4s2.4-2,3.6-5l2.1-5H26.8l1.7,5c1.2,3.7,2.2,5,3.6,5,1,0,1.9-.1,1.9-.3s-3.3-8.4-7.3-18.3C20.6,3.8,19,.6,17.1,.4c-1.6-.3-2.5,.4-3.5,3Zm4.9,2.5c.5,1,1,2.7,1.2,3.8,.2,1,.7,2.2,1.1,2.5s.9,1.4,1.1,2.5c.1,1.1,.8,2.9,1.4,4,2.7,4.9,2.2,5.3-6.7,5.7-8.3,.3-8.4,.3-7.5-2,.5-1.2,.5-2.2,.1-2.2s-.2-.4,.5-.8c.6-.4,1.3-1.6,1.5-2.7,.1-1.1,.6-2.2,1-2.5,.3-.3,.8-1.4,1-2.5,.1-1.1,.7-2.3,1.1-2.6s.9-1.6,1-2.7c.2-2.6,2.2-2.9,3.2-.5Z"/>
      <path class="cls-1" d="M101,18.6v18.6h6.8c9.4,0,13.4-1.4,17.5-5.9,7.5-8.3,5.6-24-3.5-28.7-2.1-1.1-6.4-1.9-12-2.2l-8.8-.4V18.6Zm20.4-12.4c2.5,2.2,3.7,4.4,4.5,7.8,1.1,5.3-.1,12.6-2.5,15.3-.8,.8-1.1,1.9-.7,2.3,.5,.4,.4,.7-.2,.5-.5-.1-2.3,.3-3.8,.9-1.6,.7-5.5,1.2-8.8,1.2h-5.9V3.2h7c6.3,0,7.2,.3,10.4,3Z"/>
      <path class="cls-1" d="M267,2.2c0,1.1,.7,2,1.5,2s1.5-.9,1.5-2-.7-2-1.5-2-1.5,.9-1.5,2Z"/>
      <path class="cls-1" d="M39,28.4c0,15.2,.2,17.8,1.5,17.8,1.2,0,1.5-1.3,1.5-6.1,0-3.3,.3-5.9,.8-5.7,.4,.2,2.4,1.2,4.5,2.3,3.5,1.8,4.1,1.8,7.9,.5,5.3-1.9,8-6.2,8.1-12.9,.1-9.1-3.9-14.1-11.6-14.1-1.9,0-4.6,.9-6,2-3.1,2.5-3.7,2.5-3.7,.2,0-1-.7-1.9-1.5-1.9-1.3,0-1.5,2.7-1.5,17.9Zm18.5-13.7c1.8,1.7,2.2,3.2,2.2,9.2,.1,4.1-.3,7.3-.9,7.3-.5,0-.7,.4-.4,.9,1,1.5-1.7,2.8-6.4,3-5.8,.3-9-2.7-9.7-9.1-.5-5.3,1.7-12,4.1-12.4,1-.1,2.1-.5,2.4-.9,1.2-1.2,6.6,0,8.7,2Z"/>
      <path class="cls-1" d="M71.8,10.8c-.5,.4-.8,8.5-.8,18.1,0,15.1,.2,17.3,1.6,17.3,1.3,0,1.5-1.1,1.2-6.5-.1-3.6-.2-6.5,0-6.5,.1,0,1.1,.9,2.1,1.9,2.7,2.7,8.3,3.6,11.7,1.9,8.3-4.1,10-19.1,2.7-24.8-3.4-2.7-10.2-2.7-13.6,0-3.2,2.5-3.5,2.5-3.9-.1-.2-1.1-.6-1.7-1-1.3Zm15.2,2.5c0,.5,.4,.8,.9,.6,.5-.1,1,.2,1.1,.8,.1,.5,.7,1.7,1.4,2.5,1.9,2.2,1.4,11-.8,14.6-1.7,2.9-2.3,3.1-7,3.1-7.4-.1-9.1-2.2-9-11.8,.1-7.3,2.9-10.5,9.2-10.6,2.3,0,4.2,.4,4.2,.8Z"/>
      <path class="cls-1" d="M136.7,17.1c1.4,3.6,3.6,9.5,4.9,13.1,1.4,3.5,2.9,6.7,3.4,7,.6,.3,.2,2-.8,4-1.2,2.5-2.3,3.5-3.9,3.4-1.3,0-2.3,.5-2.3,1.3,0,2.4,5.8,1.6,7.6-1.1,1.1-1.8,12.4-31.8,12.4-33.2,0-.1-.6-.4-1.4-.7-1.1-.5-2.4,2.2-5.2,10.6-2,6.2-4,11.6-4.4,12-.7,.8-1.7-1.3-7-16-1.4-3.8-2.9-6.3-4-6.6-1.7-.4-1.6,.1,.7,6.2Z"/>
      <path class="cls-1" d="M169.7,12.2c-3,2.4-3.7,2.5-3.7,.5,0-.8-.4-1.5-1-1.5s-1,5-1,13c0,10.9,.2,13,1.5,13,1.2,0,1.5-1.8,1.5-9.8,0-8.5,.3-10.1,2-12,3.1-3.3,6.7-3.8,9.8-1.5,2.6,1.9,2.7,2.4,3,12.7,.2,8.8,.5,10.6,1.8,10.6,1.4,0,1.5-1.6,1.2-11.6-.3-10.8-.5-11.7-2.7-13.5-3.1-2.5-9.1-2.5-12.4,.1Z"/>
      <path class="cls-1" d="M194.7,13.4c-2.6,2.6-2.9,3.3-1.5,3.6,.9,.2,2.8-.8,4.2-2.2,4.6-4.7,12.6-2.5,12.6,3.5,0,2.2-.5,2.9-2,2.9-4.3,0-12.3,2.3-14.1,4.1-2.4,2.4-2.5,8.1-.1,10.2,2.8,2.6,7.4,3.1,11.5,1.3,2-.8,3.7-2,3.7-2.5,0-.6,.5-1.1,1-1.1,.6,0,1,.9,1,2s.5,2,1,2c.6,0,1-4.5,1-11.4,0-11.2-.1-11.5-2.6-13.5-1.9-1.5-4.1-2.1-7.6-2.1-4.3,0-5.4,.5-8.1,3.2Zm15.3,13.4c0,2-.8,4.6-1.8,5.9-1.5,1.9-2.7,2.2-7.2,2.1l-5.5-.1v-4.5c0-3.1,.4-4.4,1.3-4.3,.6,.2,1.2-.1,1.2-.5s1.7-.9,3.7-1c2.1-.2,3.9-.5,4.2-.7,.2-.3,1.3-.5,2.3-.5,1.4,0,1.8,.8,1.8,3.6Z"/>
      <path class="cls-1" d="M227,12.2c-2.4,2.4-3,2.5-3,.5,0-.8-.4-1.5-1-1.5s-1,5-1,13c0,10.9,.2,13,1.5,13,1.2,0,1.5-1.8,1.5-10,0-9.4,.2-10.3,2.5-12.5,2.7-2.8,6.2-3.2,9.1-1.1,1.6,1.2,1.9,2.9,2.2,12.5,.3,8.7,.7,11.1,1.8,11.1s1.4-2.1,1.4-10c0-9.4,.2-10.3,2.5-12.5,2.7-2.8,6.2-3.2,9.1-1.1,1.6,1.2,1.9,2.9,2.2,12.5,.3,9,.7,11.1,1.9,11.1s1.4-1.8,1.1-11.6c-.3-10.8-.5-11.7-2.7-13.5-3.1-2.5-9.1-2.5-12.4,.1l-2.6,2.1-2.1-2.1c-2.7-2.7-9.3-2.7-12,0Z"/>
      <path class="cls-1" d="M267,23.7c0,11.3,.2,13.5,1.5,13.5s1.5-2.1,1.5-12.9-.3-13-1.5-13.5c-1.3-.5-1.5,1.4-1.5,12.9Z"/>
      <path class="cls-1" d="M282.9,11.7c-5.8,3.1-7.7,14.6-3.5,21,2.3,3.5,8,5.8,12.1,5.1,3.5-.7,8.5-5,8.5-7.2s-2-1.6-4.7,1.6c-6.4,7.7-16.7,.2-14.8-10.8,.7-4.3,2.1-6.4,5.2-8,3.5-1.9,6.3-1.4,9.3,1.8,2.8,3,5,3.9,5,1.9,0-.6-1.3-2.4-2.9-4-2.4-2.3-3.8-2.9-7.3-2.9-2.4,.1-5.5,.7-6.9,1.5Z"/>
      <path class="cls-1" d="M308.5,12.7c-1.4,1.3-2.5,3.3-2.5,4.5,0,2.6,3.2,5.8,6.7,6.6,10,2.2,12.7,4.6,9.8,9-1.2,1.9-2.4,2.4-5.6,2.4-4.7,0-7.9-1.4-7.9-3.5,0-.8-.9-1.5-2-1.5-1.9,0-2,.2-.5,2.9,2.9,5.6,13.2,6.5,18.1,1.6s1.8-10.4-7.5-12.7c-3.3-.9-5.9-2.2-6.8-3.5-1.3-1.9-1.2-2.4,.6-4.2,2.9-2.9,7.6-2.7,10.7,.5,1.4,1.4,3.3,2.4,4.2,2.2,1.4-.3,1.1-1-1.5-3.6-2.7-2.8-3.8-3.2-8.3-3.2-4.1,0-5.6,.5-7.5,2.5Z"/>
    </g>
  </g>
</svg>