<?xml version="1.0" encoding="utf-8"?>
<!-- Generator: Adobe Illustrator 22.0.1, SVG Export Plug-In . SVG Version: 6.00 Build 0)  -->
<svg version="1.1" id="Layer_1" xmlns="http://www.w3.org/2000/svg" xmlns:xlink="http://www.w3.org/1999/xlink" x="0px" y="0px"
	 viewBox="0 0 184.495 50" enable-background="new 0 0 184.495 50" xml:space="preserve">
<g>
	<path fill="#02DDDF" d="M43.333,19.775c-0.008,3.129-0.683,6.122-1.876,9.002c-1.425,3.439-3.445,6.49-6.099,9.104
		c-2.152,2.119-4.592,3.821-7.418,4.933c-4.585,1.804-9.072,1.526-13.458-0.662c-3.719-1.856-6.667-4.598-9.045-7.972
		c-2.049-2.907-3.509-6.086-4.295-9.564c-0.526-2.327-0.706-4.679-0.437-7.052c0.313-2.768,1.179-5.336,2.946-7.535
		c1.785-2.222,4.097-3.581,6.904-4.08c2.777-0.493,5.443-0.029,8.034,0.991c1.058,0.416,2.079,0.914,3.032,1.537
		c0.256,0.168,0.445,0.133,0.691-0.017c1.414-0.856,2.903-1.552,4.492-2.021c2.418-0.714,4.86-0.94,7.337-0.329
		c2.95,0.728,5.229,2.397,6.877,4.936c1.142,1.759,1.786,3.704,2.107,5.766C43.277,17.794,43.344,18.781,43.333,19.775z
		 M33.547,34.178c0.147-0.038,0.195-0.127,0.257-0.198c1.255-1.441,2.338-3.003,3.215-4.7c1.734-3.357,2.703-6.895,2.466-10.706
		c-0.1-1.612-0.453-3.166-1.212-4.603c-1.413-2.675-3.612-4.164-6.661-4.316c-1.825-0.091-3.554,0.332-5.22,1.048
		c-2.915,1.253-5.285,3.213-7.296,5.634c-1.953,2.352-3.394,4.988-4.333,7.899c-0.961,2.977-1.271,5.998-0.609,9.078
		c0.359,1.668,1.033,3.204,2.225,4.45c1.869,1.953,4.18,2.717,6.843,2.318c1.641-0.246,3.067-0.975,4.23-2.181
		c1.2-1.244,1.913-2.746,2.314-4.405c0.39-1.614,0.466-3.25,0.328-4.906c-0.126-1.508-0.457-2.967-0.902-4.406
		c-0.157-0.507-0.161-0.509-0.591-0.24c-1.193,0.746-2.385,1.494-3.577,2.241c-0.501,0.314-0.998,0.636-1.506,0.938
		c-0.424,0.252-0.823,0.198-1.061-0.166c-0.447-0.682-0.877-1.376-1.29-2.078c-0.215-0.365-0.115-0.719,0.222-0.972
		c0.076-0.058,0.16-0.106,0.241-0.157c2.749-1.726,5.498-3.453,8.248-5.176c0.555-0.348,0.96-0.235,1.256,0.339
		c0.631,1.225,1.17,2.489,1.599,3.797c1.04,3.17,1.489,6.408,1.084,9.738C33.747,33.016,33.641,33.581,33.547,34.178z
		 M18.605,11.186c-0.032-0.029-0.06-0.07-0.1-0.09c-2.003-1.01-4.104-1.624-6.369-1.485c-1.466,0.09-2.819,0.545-4.015,1.419
		c-1.503,1.098-2.453,2.585-3.033,4.327c-0.797,2.396-0.843,4.848-0.413,7.302c0.743,4.243,2.595,7.97,5.418,11.217
		c0.096,0.11,0.172,0.258,0.355,0.298c-0.004-0.072,0-0.121-0.011-0.166c-0.644-2.91-0.542-5.818,0.101-8.706
		c1.203-5.397,3.862-9.982,7.83-13.82C18.458,11.397,18.587,11.34,18.605,11.186z"/>
	<path fill="#02DDDF" d="M67.938,29.685c-0.152-0.066-0.312-0.036-0.464-0.037c-0.672-0.004-1.344,0.004-2.015-0.005
		c-0.576-0.008-0.823-0.253-0.829-0.818c-0.008-0.704-0.01-1.408,0-2.111c0.008-0.583,0.225-0.808,0.814-0.833
		c0.495-0.021,0.991-0.017,1.487-0.016c2.095,0.004,4.191,0.005,6.286,0.021c0.677,0.005,0.88,0.223,0.882,0.906
		c0.006,2.735,0.006,5.471,0.003,8.206c-0.001,0.689-0.233,0.908-0.932,0.91c-0.736,0.003-1.472,0.004-2.207,0
		c-0.696-0.004-0.91-0.217-0.92-0.924c-0.008-0.606-0.002-1.212-0.002-1.804c-0.184-0.074-0.234,0.057-0.303,0.131
		c-1.751,1.874-3.96,2.754-6.47,2.969c-1.832,0.157-3.613-0.081-5.304-0.816c-3.335-1.448-5.373-3.995-6.184-7.51
		c-0.58-2.511-0.42-5,0.581-7.388c1.313-3.133,3.621-5.248,6.853-6.261c3.356-1.052,6.672-0.848,9.836,0.746
		c1.987,1,3.384,2.592,4.271,4.63c0.026,0.059,0.052,0.117,0.074,0.177c0.174,0.479,0.101,0.668-0.362,0.872
		c-0.292,0.129-0.593,0.239-0.89,0.357c-0.669,0.265-1.337,0.534-2.008,0.793c-0.658,0.254-0.873,0.178-1.206-0.431
		c-0.891-1.627-2.206-2.72-4.019-3.168c-1.362-0.336-2.73-0.344-4.068,0.112c-1.995,0.679-3.343,2.049-4.025,4.023
		c-0.745,2.158-0.613,4.292,0.478,6.315c0.992,1.838,2.603,2.82,4.639,3.106c1.487,0.209,2.936,0.049,4.291-0.665
		c0.542-0.285,1.036-0.634,1.464-1.072C67.791,29.988,67.93,29.892,67.938,29.685z"/>
	<path fill="#02DDDF" d="M92.925,24.94c0-3.262,0-6.523,0-9.785c0-0.144-0.006-0.288,0.003-0.432
		c0.025-0.396,0.261-0.649,0.655-0.697c0.126-0.015,0.255-0.007,0.383-0.007c2.702-0.001,5.404-0.017,8.106,0.003
		c2.193,0.017,4.282,0.473,6.195,1.599c2.22,1.307,3.719,3.195,4.479,5.65c0.758,2.451,0.758,4.923-0.021,7.365
		c-1.03,3.229-3.196,5.397-6.365,6.57c-1.394,0.516-2.847,0.729-4.327,0.736c-2.702,0.014-5.404,0.005-8.106,0.004
		c-0.143,0-0.29-0.001-0.429-0.029c-0.364-0.074-0.548-0.295-0.573-0.664c-0.006-0.096-0.001-0.192-0.001-0.288
		C92.925,31.623,92.925,28.281,92.925,24.94z M97.623,24.922c-0.001,0-0.002,0-0.003,0c0,0.896,0,1.791,0,2.687
		c0,1.2-0.003,2.399,0.002,3.599c0.001,0.357,0.011,0.37,0.337,0.37c1.551,0.001,3.105,0.05,4.653-0.024
		c1.936-0.092,3.531-0.941,4.587-2.581c1.58-2.454,1.645-5.043,0.294-7.604c-0.908-1.72-2.438-2.697-4.369-2.93
		c-1.733-0.209-3.483-0.058-5.225-0.088c-0.016,0-0.032,0.002-0.048,0.001c-0.162-0.004-0.23,0.081-0.228,0.236
		c0.001,0.112-0.001,0.224-0.001,0.336C97.623,20.923,97.623,22.922,97.623,24.922z"/>
	<path fill="#02DDDF" d="M161.37,34.497c-0.065,0.039-0.114,0.055-0.143,0.088c-1.254,1.402-2.869,1.877-4.677,1.74
		c-3.75-0.283-6.525-3.198-6.975-6.847c-0.204-1.656-0.026-3.253,0.65-4.787c1.286-2.916,4.185-4.683,7.351-4.437
		c1.394,0.109,2.653,0.573,3.612,1.66c0.031,0.035,0.072,0.061,0.111,0.088c0.008,0.006,0.028-0.006,0.095-0.021
		c0-0.138,0-0.291,0-0.445c0-2.159,0.001-4.319,0.001-6.478c0-0.096-0.004-0.192,0.001-0.288c0.025-0.485,0.262-0.733,0.751-0.749
		c0.463-0.015,0.928-0.004,1.392-0.004c0.496,0,0.992-0.003,1.488,0.001c0.667,0.005,0.863,0.198,0.871,0.85
		c0.003,0.256,0.003,0.512,0.003,0.768c0,6.414-0.007,12.829,0.009,19.243c0.002,0.81-0.213,1.041-1.047,1.02
		c-0.863-0.022-1.727,0-2.591-0.006c-0.605-0.004-0.797-0.203-0.812-0.809c-0.004-0.16-0.008-0.319-0.017-0.479
		C161.44,34.579,161.409,34.555,161.37,34.497z M161.507,28.362c0.011-0.503-0.066-0.989-0.227-1.463
		c-0.487-1.431-1.773-2.39-3.247-2.422c-1.596-0.035-2.921,0.841-3.472,2.307c-0.361,0.962-0.387,1.943-0.067,2.916
		c0.844,2.572,3.651,3.041,5.343,1.93C161.008,30.863,161.485,29.723,161.507,28.362z"/>
	<path fill="#02DDDF" d="M143.813,34.508c-0.166-0.033-0.199,0.055-0.249,0.109c-1.27,1.379-2.882,1.847-4.692,1.705
		c-3.724-0.292-6.663-3.293-6.971-7.218c-0.138-1.764,0.134-3.441,0.98-5.01c1.387-2.573,4.242-4.118,7.147-3.833
		c1.34,0.132,2.552,0.584,3.49,1.61c0.041,0.045,0.081,0.101,0.201,0.068c0.074-0.153,0.04-0.344,0.04-0.526
		c0.002-2.079,0.01-4.158-0.004-6.238c-0.005-0.807,0.066-1.209,1.17-1.164c0.814,0.034,1.631,0.003,2.447,0.008
		c0.68,0.003,0.883,0.207,0.883,0.89c0.001,6.717,0.001,13.435,0,20.152c0,0.641-0.182,0.826-0.828,0.83
		c-0.928,0.006-1.855,0.007-2.783,0c-0.613-0.005-0.821-0.224-0.831-0.848C143.811,34.86,143.813,34.675,143.813,34.508z
		 M140.287,24.476c-1.448-0.008-2.684,0.783-3.275,2.102c-0.385,0.86-0.454,1.755-0.278,2.676c0.283,1.483,1.432,2.643,2.861,2.878
		c1.594,0.262,3.029-0.394,3.78-1.76c0.495-0.901,0.614-1.871,0.428-2.882C143.477,25.712,142.049,24.485,140.287,24.476z"/>
	<path fill="#02DDDF" d="M174.968,32.015c0.113-0.124,0.12-0.287,0.16-0.438c0.889-3.32,1.778-6.64,2.666-9.961
		c0.025-0.093,0.053-0.184,0.08-0.276c0.123-0.419,0.403-0.655,0.838-0.659c1.04-0.01,2.08-0.019,3.119,0.006
		c0.575,0.014,0.791,0.351,0.64,0.963c-0.138,0.558-0.314,1.107-0.475,1.66c-1.318,4.528-2.637,9.056-3.957,13.584
		c-0.197,0.675-0.376,1.357-0.669,1.999c-0.928,2.035-2.471,3.267-4.712,3.543c-1.743,0.214-3.414-0.021-4.955-0.92
		c-0.207-0.121-0.412-0.245-0.585-0.417c-0.355-0.352-0.436-0.747-0.17-1.172c0.381-0.609,0.783-1.208,1.209-1.787
		c0.29-0.395,0.674-0.45,1.105-0.219c0.183,0.098,0.355,0.216,0.53,0.328c0.575,0.368,1.206,0.487,1.88,0.439
		c0.775-0.055,1.324-0.435,1.647-1.135c0.202-0.437,0.296-0.912,0.441-1.368c0.071-0.224-0.045-0.28-0.245-0.277
		c-0.432,0.006-0.864,0.002-1.296,0.001c-0.783-0.001-0.96-0.125-1.2-0.89c-0.587-1.877-1.168-3.755-1.751-5.633
		c-0.749-2.412-1.498-4.825-2.245-7.238c-0.071-0.229-0.158-0.454-0.164-0.698c-0.01-0.42,0.19-0.663,0.605-0.723
		c0.126-0.018,0.255-0.017,0.383-0.017c0.992-0.001,1.984-0.003,2.975,0.001c0.679,0.002,0.902,0.169,1.092,0.831
		c0.292,1.014,0.574,2.031,0.863,3.046c0.677,2.384,1.356,4.767,2.034,7.15C174.84,31.841,174.836,31.964,174.968,32.015z"/>
	<path fill="#02DDDF" d="M126.143,34.538c-0.089-0.018-0.12,0.018-0.15,0.055c-1.01,1.226-2.376,1.701-3.897,1.765
		c-3.751,0.158-7.106-2.54-7.74-6.524c-0.335-2.103-0.079-4.126,1.059-5.964c1.272-2.054,3.124-3.243,5.53-3.557
		c1.202-0.157,2.36-0.022,3.464,0.497c0.557,0.262,1.052,0.604,1.449,1.081c0.065,0.078,0.106,0.204,0.299,0.19
		c0-0.215-0.009-0.433,0.002-0.65c0.024-0.475,0.235-0.727,0.705-0.738c1.023-0.023,2.047-0.022,3.071-0.002
		c0.44,0.009,0.628,0.219,0.685,0.654c0.016,0.126,0.012,0.255,0.012,0.383c0.001,4.431,0,8.863,0,13.294
		c0,0.08,0.004,0.16-0.001,0.24c-0.027,0.397-0.23,0.615-0.634,0.64c-0.335,0.021-0.672,0.007-1.008,0.007
		c-0.672,0-1.344,0.006-2.016-0.002c-0.568-0.006-0.779-0.22-0.803-0.78C126.162,34.927,126.195,34.723,126.143,34.538z
		 M126.257,28.279c0.014-0.293-0.016-0.643-0.106-0.985c-0.358-1.358-1.173-2.299-2.551-2.659c-1.39-0.363-2.642-0.066-3.632,1.007
		c-0.885,0.958-1.105,2.126-0.919,3.391c0.336,2.28,2.554,3.648,4.743,2.924C125.312,31.453,126.255,30.069,126.257,28.279z"/>
	<path fill="#02DDDF" d="M91.725,28.347c0.061,3.875-2.852,7.329-6.953,7.924c-2.088,0.303-4.058-0.057-5.827-1.222
		c-2.539-1.672-3.777-4.058-3.669-7.102c0.138-3.866,3.199-7.147,7.039-7.615c2.044-0.249,3.96,0.097,5.69,1.221
		C90.454,23.143,91.676,25.432,91.725,28.347z M87.184,28.354c0.011-2.53-2.166-4.312-4.583-3.75
		c-1.446,0.336-2.545,1.604-2.774,3.203c-0.218,1.524,0.564,3.13,1.898,3.845C84.12,32.934,87.155,31.4,87.184,28.354z"/>
</g>
</svg>
