<?xml version="1.0" encoding="UTF-8"?>
<svg id="Layer_2" data-name="Layer 2" xmlns="http://www.w3.org/2000/svg" viewBox="0 0 179.81 48.25">
  <defs>
    <style>
      .cls-1 {
        fill: #fff;
      }
    </style>
  </defs>
  <g id="Layer_1-2" data-name="Layer 1">
    <g>
      <path class="cls-1" d="M19.6,12.97c4.03-3.7,9.78-3.54,13.42,.27,.48,.5,.64,.14,.92-.11,2.81-2.59,6.16-3.3,9.81-2.56,3.31,.67,5.57,3.33,6.18,6.94,.13,.77,.19,1.54,.19,2.32,0,5.51-.02,11.03,.01,16.54,0,.77-.11,1.08-.99,1.04-1.8-.08-3.61-.07-5.42,0-.82,.03-.95-.25-.95-.99,.03-4.8,.02-9.59,0-14.39,0-.62-.05-1.25-.15-1.86-.34-2.14-1.86-3.42-3.85-3.27-2.21,.16-3.85,1.8-3.86,3.92-.01,5.17-.02,10.34,.01,15.51,0,.82-.15,1.13-1.05,1.09-1.87-.08-3.74-.06-5.6,0-.67,.02-.82-.19-.81-.83,.03-4.83,.01-9.65,.02-14.48,0-.66-.03-1.3-.15-1.95-.4-2.18-1.87-3.42-3.87-3.24-2.23,.2-3.85,1.83-3.85,3.93-.01,5.17-.03,10.34,.02,15.51,0,.86-.22,1.1-1.07,1.07-1.9-.07-3.8-.04-5.7,0-.51,0-.7-.11-.7-.66,.02-8.41,.02-16.82,0-25.23,0-.54,.16-.68,.68-.67,1.93,.03,3.86,.05,5.79,0,.76-.02,1.1,.16,.98,.96-.05,.32,0,.66,0,1.17Z"/>
      <path class="cls-1" d="M62.09,35.33c0,4.08-.03,7.99,.02,11.91,0,.83-.21,1.04-1.02,1.01-1.87-.07-3.74-.04-5.6,0-.57,.01-.73-.14-.73-.72,.02-11.98,.02-23.97,0-35.95,0-.57,.14-.74,.72-.73,1.87,.04,3.74,.06,5.6,0,.8-.03,1.16,.16,1.01,1.01-.05,.3,0,.61,0,.91,.1,0,.18,.04,.21,.01,4.31-4.1,12.34-3.09,16.05,2.52,3.28,4.95,3.3,12.64,.07,17.62-3.47,5.35-11.41,6.91-16.33,2.43Zm11.35-11.23c-.06-1.51-.32-2.97-1.05-4.31-2.07-3.79-7.34-4.21-9.82-.79-.32,.44-.49,.9-.49,1.46,.03,2.46,.02,4.92,0,7.37,0,.49,.13,.9,.4,1.3,2.17,3.2,7.1,3.24,9.44,.06,1.11-1.51,1.46-3.26,1.52-5.09Z"/>
      <path class="cls-1" d="M172.27,22.18c.32-3.23-1.04-4.94-4.18-5.37-2.88-.4-5.56,.17-8.1,1.52-.21,.11-.42,.23-.79,.44v-6.05c0-.35,.27-.46,.52-.58,4.73-2.16,9.58-2.7,14.47-.7,3.87,1.59,5.48,4.84,5.55,8.85,.1,5.48,.02,10.96,.05,16.44,0,.56-.2,.67-.7,.66-1.8-.03-3.61-.03-5.42,0-.87,.02-1.7,.09-1.27-1.32-3.26,1.9-6.59,2.26-10.01,1.27-3.15-.91-5.36-2.9-6.04-6.22-.63-3.07,.15-5.75,2.55-7.84,1.96-1.7,4.33-2.39,6.88-2.51,2.27-.11,4.44,.38,6.49,1.41Zm.07,7.15c0-1.36-.2-1.83-1.23-2.44-2.11-1.25-4.31-1.3-6.5-.24-1.02,.49-1.62,1.35-1.61,2.53,0,1.21,.61,2.09,1.68,2.59,2.14,.99,4.29,.94,6.35-.23,.87-.49,1.55-1.19,1.32-2.21Z"/>
      <path class="cls-1" d="M105.98,29.77c0,1.82-.02,3.59,.01,5.37,.01,.5-.25,.71-.61,.93-1.76,1.08-3.71,1.59-5.74,1.79-2.95,.29-5.86,.14-8.6-1.11-4.47-2.04-6.74-5.67-7.26-10.43-.4-3.6,.11-7.08,2.01-10.26,3.89-6.5,11.58-6.88,16.19-4.46,3.23,1.7,4.78,4.59,5.49,8.04,.35,1.72,.35,3.46,.38,5.21,.01,.77-.18,.99-.96,.98-5.01-.04-10.03-.02-15.04-.02q-1.18,0-.88,1.1c.75,2.76,2.81,4.5,5.73,4.88,3.04,.4,5.88-.15,8.52-1.73,.2-.12,.38-.32,.76-.29Zm-10.06-8.79c1.46,0,2.92,0,4.38,0,.36,0,.65,.03,.63-.52-.06-1.94-1.61-3.83-3.52-4.2-2.92-.58-5.58,1.21-6.31,4.18-.15,.6,.17,.53,.52,.53h4.29Z"/>
      <path class="cls-1" d="M129.32,10.85c2.45,0,4.84,.01,7.23,0,.55,0,.55,.39,.67,.72,1.86,5.34,3.71,10.68,5.57,16.02,.07,.2,.15,.4,.24,.63,.29-.19,.29-.47,.37-.71,1.8-5.29,3.61-10.58,5.39-15.88,.2-.61,.47-.8,1.11-.79,2.15,.05,4.29,.02,6.43,.02,.18,.33-.04,.57-.13,.8-3.16,8.34-6.34,16.66-9.49,25-.2,.54-.45,.76-1.06,.75-1.9-.05-3.8-.03-5.7,0-.46,0-.72-.09-.9-.57-3.19-8.49-6.4-16.97-9.6-25.45-.05-.14-.07-.29-.13-.52Z"/>
      <path class="cls-1" d="M127.85,18.04c-1.25-.52-2.43-.84-3.69-.83-2.94,0-5.18,2-5.08,5.05,.14,4.76,.02,9.52,.06,14.28,0,.71-.2,.88-.89,.87-1.9-.05-3.8-.04-5.69,0-.58,0-.79-.11-.79-.75,.02-8.34,.02-16.68,0-25.02,0-.58,.11-.81,.75-.79,1.93,.05,3.86,.04,5.79,0,.65-.01,.89,.17,.82,.83-.05,.48-.01,.97-.01,1.65,.39-.44,.64-.74,.92-1.02,2.08-2.01,4.56-2.36,7.27-1.77,.3,.07,.56,.18,.56,.61-.02,2.26-.01,4.53-.01,6.91Z"/>
      <path class="cls-1" d="M7.49,24.14c0,4.14-.01,8.29,.02,12.43,0,.64-.14,.85-.81,.84-1.96-.05-3.92-.05-5.89,0C.14,37.42,0,37.21,0,36.57,.02,28.25,.02,19.94,0,11.62c0-.59,.13-.8,.76-.79,1.99,.04,3.99,.04,5.98,0,.63-.01,.76,.2,.76,.79-.02,4.17-.01,8.35-.01,12.52Z"/>
      <path class="cls-1" d="M.02,3.75C.02,2.69,.04,1.63,0,.57,0,.12,.14,0,.58,0,2.7,.02,4.82,.02,6.93,0c.45,0,.57,.13,.57,.58-.02,2.12-.02,4.24,0,6.35,0,.45-.13,.57-.57,.57-2.12-.02-4.24-.02-6.35,0-.45,0-.58-.13-.57-.58,.03-1.06,0-2.12,0-3.18Z"/>
      <path class="cls-1" d="M176.15,40.75c1.03,0,2.06,.02,3.08,0,.45-.01,.58,.12,.57,.57-.02,2.12-.02,4.24,0,6.35,0,.45-.12,.58-.57,.57-2.12-.02-4.24-.02-6.35,0-.45,0-.58-.12-.57-.57,.02-2.12,.02-4.24,0-6.35,0-.45,.12-.59,.57-.57,1.09,.03,2.18,0,3.27,0Z"/>
    </g>
  </g>
</svg>