<?xml version="1.0" encoding="UTF-8"?>
<svg id="Layer_2" data-name="Layer 2" xmlns="http://www.w3.org/2000/svg" viewBox="0 0 572.42 124.43">
  <defs>
    <style>
      .cls-1 {
        fill: #f6b101;
      }

      .cls-2 {
        fill: #fff;
      }

      .cls-3 {
        fill: #fbb300;
      }

      .cls-4 {
        fill: #f5b001;
      }

      .cls-5 {
        fill: #f9f9f9;
      }
    </style>
  </defs>
  <g id="Layer_1-2" data-name="Layer 1">
    <path class="cls-2" d="M121.57,80.27c-9.33,29.2-35.32,46.45-65.66,43.92C27.99,121.85,4.93,99.58,.67,70.84-4.37,36.85,19.6,5.79,54.89,.59c32.05-4.72,63.73,19.4,68.61,52.15,1.37,9.21,.84,18.23-1.93,27.53M44.93,11.97c-1.85,.75-3.78,1.35-5.54,2.27C19.77,24.51,9.11,40.7,9.37,62.88c.26,21.73,10.65,38.1,30.39,47.27,20.07,9.32,39.41,6.64,56.6-7.4,19.22-15.71,24.4-43.33,12.76-65.26C96.86,14.41,71.49,4.11,44.93,11.97Z"/>
    <path class="cls-2" d="M206.38,62.99c.92-1.35,1.79-2.99,2.77-3.07,4.13-.3,8.3-.13,12.41-.13,1.36,6.67-2.95,13.76-9.54,15.95-7.93,2.63-16.94-.9-20.54-8.05-3.88-7.69-1.48-16.89,5.63-21.59,6.91-4.56,16.79-3.07,22.88,3.82-1.32,1.15-2.67,2.32-3.99,3.46-8.22-5.21-14.68-4.87-18.53,.87-3.11,4.64-1.7,11.28,3.09,14.52,4.84,3.27,10.28,2.32,14.51-3.33-2.48,0-4.36,.22-6.14-.09-.93-.16-1.71-1.26-2.55-2.36Z"/>
    <path class="cls-2" d="M270.52,60.6c-.45,8.95-4.89,14.48-12.1,15.62-8.56,1.35-16.15-2.69-19.05-10.15-2.95-7.58-.28-15.66,6.62-20.04,6.89-4.37,15.89-3.08,22.48,3.46-1.17,1.26-2.35,2.54-3.49,3.77-10.34-5.02-16.11-4.42-19.5,1.92-2.66,4.98-.65,11.18,4.58,14.08,5.03,2.79,10.11,1.51,13.26-3.57-1.44-.09-2.72-.21-4.01-.25-1.15-.04-2.3,0-3.82,0v-5.19c5,0,9.93,0,15.02,.35Z"/>
    <path class="cls-2" d="M321.03,74.61c-2.43,.38-4.48,.97-7.34,1.8V43.68c1.91-.11,3.63-.2,5.9-.33v10.22c8.85-2.59,13.21-1.62,16.32,3.36,2.76,4.42,2.29,11.64-1.01,15.48-3.52,4.1-7.82,4.87-13.86,2.2m4.73-17.23c-5.15,1.27-7.37,4.48-6.08,8.82,1.05,3.53,4.53,5.46,7.78,4.31,3.47-1.22,5.51-5.51,3.72-9.06-.85-1.69-3.07-2.68-5.42-4.08Z"/>
    <path class="cls-2" d="M360.9,52.3c1.57-.03,2.72-.03,4.41-.03v22.72c-4.68,.46-9.01,1.21-13.34,1.24-4.84,.02-8.12-2.88-9.74-7.27-1.86-5.03-1.29-9.91,2.54-13.92,3.36-3.51,7.42-3.94,11.94-2.25,1.05,.39,2.51-.27,4.19-.48m-9.39,5.44c-4.32,1.96-5.16,5.39-3.49,9.4,1.29,3.08,3.92,4.56,7.27,3.37,4-1.41,4.95-4.71,4.06-8.44-.85-3.58-3.51-4.97-7.84-4.33Z"/>
    <path class="cls-2" d="M406.44,58.98c3.83,3.23,6.09,6.81,4.42,11.59-1.35,3.86-4.43,5.64-8.47,5.85-5.1,.28-8.51-2.06-10.69-6.86,1.61-.98,3.12-1.9,4.7-2.86,.83,.91,1.4,2.09,2.16,2.23,2,.38,4.09,.31,6.14,.41-.52-1.69-.61-3.74-1.65-5-1.78-2.15-4.26-3.7-6.27-5.69-4.33-4.27-4.88-8.76-1.69-12.3,3.41-3.78,8.94-3.8,13.41-.01,.75,.63,1.35,1.43,2.16,2.29-1.31,1.24-2.51,2.36-3.62,3.41-.49,0-.83,.07-1.13-.01-2.13-.56-4.26-1.16-6.38-1.74,1.08,1.83,2.03,3.75,3.29,5.44,.88,1.17,2.2,2.02,3.61,3.24Z"/>
    <path class="cls-2" d="M180.54,58.89c4.13,3.3,6.63,7.35,4.26,11.92-1.29,2.49-4.72,4.7-7.58,5.37-5.04,1.18-8.93-1.4-11.33-6.51,1.56-1.02,3.03-1.98,4.68-3.05,.9,.99,1.53,2.33,2.41,2.53,1.85,.42,3.84,.23,5.78,.29-.46-1.71-.49-3.76-1.49-5.04-1.62-2.05-3.96-3.53-5.89-5.36-4.84-4.61-5.48-9.35-1.85-12.99,3.65-3.66,9.34-3.33,13.86,.83,.48,.44,.85,1,1.5,1.78-1.35,1.26-2.63,2.47-4.02,3.76-.71-.53-1.17-1.12-1.74-1.25-1.73-.4-3.5-.62-5.25-.91,.62,1.48,.97,3.18,1.94,4.39,1.22,1.54,2.94,2.68,4.72,4.23Z"/>
    <path class="cls-2" d="M552.3,67.03v8.54h-5.95c0-4.3,.06-8.55-.02-12.8-.05-2.59-.56-5.71-3.79-5.13-1.79,.32-4.16,2.96-4.46,4.84-.67,4.18-.21,8.54-.21,13.07h-6.07v-23.17c1.82,.12,3.66,.24,5.5,.37,.94,.07,1.98,.47,2.79,.19,7.82-2.77,12.16,.26,12.22,8.62,.01,1.66,0,3.32,0,5.46Z"/>
    <path class="cls-2" d="M516.9,52c6.89,2.28,10.05,6.01,10.26,11.65,.19,5.15-2.83,9.8-7.62,11.74-4.8,1.94-10.14,.75-13.66-3.06-3.23-3.48-4.18-9.08-2-13.47,2.56-5.15,6.82-7.49,13.01-6.87m-8.07,10.95c.37,5.77,3.2,9.1,7.12,7.47,2.23-.93,4.68-3.99,4.88-6.29,.18-1.97-2.25-5.2-4.31-6.13-3.51-1.58-6.36,.37-7.69,4.95Z"/>
    <path class="cls-2" d="M144.26,45.42c3.39-.65,6.67-1.19,9.9-.97,5.66,.38,8.63,3.7,8.63,8.95,0,5.13-3.14,8.34-8.74,8.9-1.13,.11-2.26,.16-3.82,.27v12.97c-1.93,.09-3.66,.17-6.1,.28,0-10.18,0-20.07,.13-30.41m11.89,6c-1.78-.53-3.57-1.05-5.73-1.69v6.54c5.79,.29,5.97,.17,5.73-4.85Z"/>
    <path class="cls-2" d="M285.09,61.8c2.36-7.68,7.96-11.22,14.73-9.65,6.15,1.43,10.37,7.82,9.26,13.98-1.2,6.6-7.1,10.88-13.84,10.06-6.69-.82-10.56-6.14-10.14-14.39m9.61-3.85c-1.08,.98-3.06,1.94-3.07,2.93-.03,2.77-.1,6.31,1.48,8.07,1.22,1.35,5.92,1.54,7.28,.29,1.7-1.57,2.42-5.26,2.03-7.8-.52-3.4-3.64-4.37-7.71-3.5Z"/>
    <path class="cls-2" d="M434.86,73.64c-7.06,4.03-12.99,3.25-17.21-1.98-3.45-4.28-3.42-10.92,.06-15.2,4.53-5.56,12.38-6.21,17.67-1.46,5.52,4.95,5.42,12.22-.52,18.65m-10.83-15.32c-.87,.99-2.51,2.02-2.46,2.96,.13,2.65,.24,5.85,1.75,7.68,1.08,1.31,5.18,1.83,6.54,.82,1.87-1.39,3.29-4.54,3.33-6.96,.07-4.05-3.3-5.65-9.15-4.51Z"/>
    <path class="cls-2" d="M474.85,54.64c-.1,4.42-.06,8.42-.34,12.38-.42,5.92-3.83,9.11-9.58,9.28-5.94,.17-9.92-3.05-10.37-9.04-.36-4.76-.07-9.58-.07-14.68h5.94c0,4.4-.42,8.74,.19,12.94,.28,1.89,2.36,4.6,4.05,4.97,3.05,.66,4.08-2.16,4.13-4.88,.09-4.29,.02-8.58,.02-14.43,2.63,1.32,4.33,2.18,6.03,3.47Z"/>
    <path class="cls-2" d="M566.11,61.28c3.76,1.87,7.17,4.07,6.12,8.35-.58,2.34-2.77,5.12-4.94,6.03-4.06,1.71-8.12,.55-11.3-3.3,1.16-1.31,2.23-2.52,2.86-3.23,2.84,.61,5.15,1.11,7.47,1.6,.22-.61,.43-1.22,.65-1.83-1.25-.92-2.4-2.02-3.76-2.73-3.34-1.77-6.93-3.72-6.2-8.01,.37-2.17,2.53-4.88,4.56-5.74,3.74-1.6,7.5-.47,10.32,3.22-.97,1.08-1.94,2.15-2.83,3.14-2.17-.46-4.16-.89-6.15-1.31-.18,.46-.36,.93-.55,1.39,1.14,.75,2.28,1.5,3.76,2.41Z"/>
    <path class="cls-2" d="M479.07,57.49c-1.02-2.43-1.58-4.19,1.34-5.89,1.24-.72,.69-4.53,.99-7.24h5.48c.09,1.17-.11,2.56,.33,3.71,.95,2.49,2.88,4.77,3.18,7.28,.31,2.63-4.33,3.31-3.43,7.31,.88,3.95,.19,8.24,.19,12.9-1.95,.1-3.68,.18-6.06,.3,0-4.92,.12-9.52-.07-14.1-.06-1.38-.99-2.72-1.95-4.27Z"/>
    <path class="cls-2" d="M274.79,58.06c0-4.97,0-9.45,0-14.41,2-.11,3.72-.21,5.85-.32v32.22h-5.85c0-5.74,0-11.37,0-17.49Z"/>
    <path class="cls-2" d="M370.39,61.05v-17.26h5.71v31.73h-5.71v-14.46Z"/>
    <path class="cls-2" d="M443.35,62.05v-18.26h5.63v31.72h-5.63v-13.46Z"/>
    <path class="cls-2" d="M499.04,66.98v8.6h-6.01v-23.02h6.01c0,4.74,0,9.34,0,14.42Z"/>
    <path class="cls-2" d="M499,48.89c-2.09,.37-4.1,.89-5.78,.34-.64-.21-1.13-3.19-.54-4.26,.59-1.06,3.66-2.06,3.88-1.77,1.18,1.57,1.82,3.56,2.44,5.69Z"/>
    <path class="cls-3" d="M45.31,11.86c26.18-7.75,51.55,2.55,63.81,25.63,11.65,21.93,6.47,49.55-12.76,65.26-17.19,14.05-36.54,16.73-56.6,7.4-19.73-9.17-30.13-25.54-30.39-47.27-.26-22.18,10.4-38.37,30.02-48.63,1.76-.92,3.69-1.52,5.92-2.39m58.19,63.59c.56-1.72,1.68-3.47,1.59-5.15-.46-9.26-1.22-18.5-1.8-26.72-4.77-.29-8.75-.61-12.73-.73-1.46-.04-3.01,.19-4.4,.65-7.96,2.64-11.51,12.46-7.77,21.28,3.45,8.13,9.92,10.1,18.94,5.59,.41,4.37-2.08,6.27-5.75,6.63-3.65,.36-3.93,2.03-2.92,4.81,6.47,.35,9.58-.92,14.84-6.36m-64.43,1.52c1.33-.67,2.77-1.17,3.97-2.02,5.29-3.75,6.94-10.52,4.51-18.02-1.96-6.06-6.13-9.52-12.11-9.07-5.37,.4-10.69,1.61-16.53,2.55,1.14,12.54,2.26,24.84,3.4,37.44,2.85-.39,5.08-.69,7.57-1.02-.12-1.83-.26-3.28-.31-4.74-.05-1.44-.01-2.89-.01-4.49,3.09-.17,5.88-.32,9.51-.62m12.73-24.66c-.6,8.16,1.48,10.45,9.68,10.66,.67,.02,1.44-.19,1.98,.08,1.49,.75,2.88,1.69,4.31,2.55-1.39,1.18-2.7,3.23-4.19,3.37-3.68,.34-7.43-.19-11.16-.38-1.13,4.87,.9,7.23,5.8,7.13,2.98-.07,6.01-.03,8.9-.63,5.45-1.12,7.97-5.17,7.42-11.2-.43-4.73-3.21-6.9-9.07-7.11-1.33-.05-2.73,.09-3.95-.3-1.13-.37-2.06-1.34-3.08-2.05,1-.92,1.92-2.51,3.02-2.64,3.05-.37,6.18-.13,9.77-.13-.21-2.16-.41-4.21-.66-6.7-7.13,.4-14.62-1.8-18.76,7.35Z"/>
    <path class="cls-5" d="M103.28,75.76c-5.04,5.13-8.15,6.4-14.62,6.05-1.01-2.78-.74-4.45,2.92-4.81,3.67-.36,6.17-2.26,5.75-6.63-9.02,4.5-15.49,2.54-18.94-5.59-3.74-8.82-.2-18.64,7.77-21.28,1.39-.46,2.94-.69,4.4-.65,3.98,.12,7.96,.44,12.73,.73,.58,8.22,1.34,17.46,1.8,26.72,.08,1.69-1.03,3.43-1.81,5.46m-11.5-9.93c4.1-.59,5.67-2.85,4.76-6.94-.32-1.44,.15-3.13-.4-4.42-.81-1.87-2.08-4.75-3.43-4.91-2.01-.24-4.93,.95-6.26,2.54-3.67,4.37-1.25,10.89,5.33,13.73Z"/>
    <path class="cls-5" d="M38.65,77.04c-3.21,.23-6.01,.38-9.09,.54,0,1.6-.04,3.04,.01,4.49,.05,1.46,.19,2.92,.31,4.74-2.48,.34-4.71,.64-7.57,1.02-1.14-12.59-2.26-24.9-3.4-37.44,5.84-.93,11.15-2.15,16.53-2.55,5.98-.45,10.15,3.01,12.11,9.07,2.43,7.5,.78,14.27-4.51,18.02-1.2,.85-2.64,1.36-4.39,2.1m1.49-10.17c-.54-3.2-.25-6.95-1.9-9.4-1.22-1.82-5.01-2.77-7.57-2.62-3.45,.21-3.43,3.33-2.95,6.19,.32,1.96,.63,3.99,.48,5.96-.36,4.69,2.7,5.54,5.97,4.78,2.11-.49,3.81-2.7,5.98-4.9Z"/>
    <path class="cls-5" d="M51.93,51.94c4.02-8.78,11.5-6.58,18.64-6.98,.24,2.49,.45,4.55,.66,6.7-3.6,0-6.72-.24-9.77,.13-1.1,.13-2.02,1.72-3.02,2.64,1.02,.71,1.95,1.68,3.08,2.05,1.22,.4,2.63,.26,3.95,.3,5.85,.21,8.63,2.38,9.07,7.11,.55,6.02-1.96,10.08-7.42,11.2-2.89,.59-5.93,.56-8.9,.63-4.9,.11-6.93-2.26-5.8-7.12,3.72,.19,7.48,.72,11.16,.38,1.49-.14,2.8-2.19,4.19-3.37-1.43-.86-2.82-1.81-4.31-2.55-.54-.27-1.31-.06-1.98-.08-8.19-.21-10.28-2.51-9.55-11.03Z"/>
    <path class="cls-4" d="M91.42,65.8c-6.22-2.81-8.63-9.32-4.97-13.7,1.33-1.59,4.26-2.77,6.26-2.54,1.34,.16,2.61,3.03,3.43,4.91,.56,1.29,.09,2.98,.4,4.42,.9,4.09-.66,6.35-5.13,6.91Z"/>
    <path class="cls-1" d="M40,67.26c-2.03,1.82-3.73,4.03-5.84,4.52-3.27,.76-6.33-.09-5.97-4.78,.15-1.96-.15-3.99-.48-5.96-.47-2.86-.49-5.98,2.95-6.19,2.56-.15,6.35,.8,7.57,2.62,1.65,2.45,1.36,6.21,1.76,9.78Z"/>
  </g>
</svg>