<?xml version="1.0" encoding="UTF-8"?>
<svg id="Layer_2" data-name="Layer 2" xmlns="http://www.w3.org/2000/svg" viewBox="0 0 283.03 29.52">
  <defs>
    <style>
      .cls-1 {
        fill: #fff;
      }
    </style>
  </defs>
  <g id="Layer_1-2" data-name="Layer 1">
    <g>
      <path class="cls-1" d="M0,21.33c.31-.04,.45,.23,.63,.39,2.16,2.01,4.71,3.23,7.62,3.66,1.71,.25,3.38,.1,4.93-.76,.94-.53,1.73-1.2,1.96-2.33,.28-1.34-.28-2.39-1.24-3.26-1.17-1.06-2.61-1.67-4.02-2.32-1.82-.84-3.68-1.6-5.34-2.76-1.61-1.12-2.86-2.51-3.3-4.49C.45,5.9,1.98,2.87,5.34,1.33,7.77,.22,10.34-.06,12.97,.04c1.7,.06,3.36,.37,5.01,.81,.44,.12,.61,.3,.6,.78-.03,1.75-.01,3.5-.02,5.25,0,.1-.01,.2-.02,.36-.42-.19-.63-.54-.92-.8-1.9-1.79-4.18-2.54-6.76-2.37-.89,.06-1.76,.24-2.55,.71-1.89,1.13-2.07,3.26-.41,4.72,1.32,1.17,2.91,1.85,4.47,2.58,1.99,.93,4.01,1.81,5.78,3.14,3.48,2.62,3.47,6.63,1.32,9.64-1.35,1.88-3.19,3.08-5.36,3.82h0c-.14,.05-.27,.1-.41,.15-.16-.02-.29,.03-.42,.11-.14,.03-.27,.07-.41,.1-.08-.05-.14-.01-.19,.05-.25,.05-.49,.11-.74,.16-.05-.04-.1-.05-.13,.02-.21,.03-.41,.05-.62,.08-.35-.05-.7-.1-1.01,.15h-3.15c0-.15-.12-.16-.22-.15-.7,.06-1.35-.16-2.02-.3-.95-.2-1.89-.47-2.82-.77-.3-.1-.44-.25-.51-.52-.28-1.22-.54-2.45-.84-3.67-.2-.82-.32-1.67-.63-2.46,0-.11,0-.21,0-.32Z"/>
      <path class="cls-1" d="M119.23,29.51c-.06-.23-.25-.14-.39-.16-1.64-.19-3.23-.55-4.79-1.1-.19-.07-.33-.14-.39-.37-.49-2.13-.98-4.25-1.47-6.38-.01-.05,.01-.1,.03-.17,.39,.14,.63,.45,.91,.7,2.07,1.81,4.46,2.91,7.17,3.33,1.96,.3,3.84,.1,5.53-1.04,1.88-1.28,2.08-3.4,.5-5.03-.97-1-2.19-1.61-3.42-2.19-1.83-.86-3.72-1.6-5.46-2.66-1.56-.96-2.94-2.1-3.66-3.84-1.32-3.16-.56-7.06,3.27-9.04C119.59,.25,122.32-.06,125.13,.05c1.7,.07,3.37,.36,5,.82,.4,.11,.59,.27,.58,.74-.03,1.75,0,3.5,0,5.25,0,.12-.02,.24-.04,.4-.28-.12-.43-.34-.59-.52-2.09-2.38-6.17-3.38-9.09-2.22-1.61,.64-2.43,2.15-1.91,3.58,.35,.97,1.09,1.6,1.92,2.15,1.64,1.08,3.47,1.79,5.23,2.63,1.67,.8,3.31,1.65,4.71,2.9,2.52,2.24,2.7,5.42,1.34,8.02-1.49,2.85-4.01,4.38-7.02,5.22-.6,.17-1.22,.31-1.85,.36-.08,0-.18,.02-.19,.14-1.33,0-2.66,0-3.99,0Z"/>
      <path class="cls-1" d="M10.18,29.51c.31-.25,.66-.2,1.01-.15,0,.06-.04,.12,.04,.15h-1.05Z"/>
      <path class="cls-1" d="M34.8,18.7c-2.33,0-4.65,.01-6.98,0-.44,0-.56,.1-.49,.56,.59,3.85,3.32,6.24,7.26,6.34,2.43,.06,4.67-.49,6.64-1.97,.38-.29,.8-.18,1.21-.18,.24,0,.14,.19,.08,.31-.76,1.44-1.52,2.87-2.29,4.3-.1,.18-.27,.27-.46,.34-2.49,.95-5.06,1.16-7.68,.87-2.24-.25-4.33-.97-6.15-2.31-3.18-2.35-4.53-5.55-4.17-9.45,.22-2.43,1.16-4.57,2.94-6.27,2.01-1.92,4.47-2.78,7.22-2.9,2.68-.12,5.14,.52,7.2,2.3,2.32,1.99,3.24,4.6,3.2,7.6,0,.4-.15,.49-.52,.49-2.34-.02-4.69,0-7.03,0Zm-2.59-3.45h0c1.34,0,2.69-.01,4.03,0,.4,0,.54-.06,.37-.5-.63-1.62-1.86-2.39-3.52-2.64-2.34-.35-4.38,.67-5.28,2.67-.18,.41-.07,.47,.32,.47,1.36-.01,2.72,0,4.08,0Z"/>
      <path class="cls-1" d="M145.01,29.38c-4.24-.15-7.71-1.74-9.74-5.61-2.74-5.24-.75-12.64,6.24-14.85,3.01-.95,6.05-.96,8.94,.43,3.2,1.53,5.1,4.14,5.71,7.6,1.05,5.86-3.11,11.37-9.22,12.27-.64,.09-1.28,.14-1.94,.16Zm-5.72-11.26c.06,1.99,.49,3.7,1.59,5.19,1.31,1.76,3.06,2.55,5.25,2.24,2.16-.31,3.73-1.48,4.51-3.52,.99-2.6,.57-5.1-.88-7.41-1.52-2.44-4.55-3.26-7.13-2.01-2.36,1.15-3.23,3.2-3.34,5.51Z"/>
      <path class="cls-1" d="M220.2,29.37c-3.54-.05-6.57-1.24-8.82-4.06-1.81-2.28-2.44-4.92-2.03-7.78,.65-4.52,3.28-7.39,7.58-8.69,3-.91,6.05-.88,8.87,.62,3.81,2.03,5.74,5.3,5.61,9.62-.14,4.72-3.31,8.54-7.9,9.82-1.08,.3-2.18,.47-3.31,.47Zm6.06-9.94c-.05-1.76-.41-3.31-1.29-4.7-1.25-1.97-3.07-2.88-5.38-2.62-2.35,.26-3.97,1.56-4.74,3.79-.88,2.55-.44,4.99,1.02,7.2,1.78,2.7,5.13,3.33,7.81,1.53,1.88-1.26,2.58-3.13,2.58-5.2Z"/>
      <path class="cls-1" d="M77.19,25.85c-.82,1.04-1.59,1.98-2.32,2.95-.21,.28-.45,.38-.79,.4-1.25,.1-2.5,.26-3.76,0-2.62-.52-4.96-2.15-5.56-4.97-.61-2.88,.26-5.46,3.68-6.71,1.45-.53,2.96-.8,4.46-1.09,.94-.18,1.89-.35,2.77-.74,.68-.3,1.25-.73,1.23-1.53-.02-.87-.61-1.38-1.36-1.69-1.65-.68-3.29-.45-4.91,.11-1.19,.41-2.31,.98-3.45,1.51-.2,.09-.4,.18-.66,.19,.33-.5,.65-1.01,.99-1.51,.86-1.28,1.72-2.55,2.57-3.83,.18-.28,.39-.38,.72-.41,1.58-.16,3.16-.34,4.75-.12,2.03,.29,3.89,.87,5.11,2.68,.77,1.14,1.04,2.43,1.05,3.78,.02,2.41,0,4.83,0,7.24,0,.58,.05,1.15,.16,1.72,.17,.92,.8,1.4,1.67,1.58,.53,.11,1.07,.17,1.61,.23,.32,.04,.45,.11,.22,.44-.68,.99-1.34,2-2.01,3-.1,.15-.18,.29-.4,.28-1.47-.06-2.88-.31-4.14-1.14-.83-.55-1.29-1.35-1.63-2.37Zm-.25-3.9c0-.86-.03-1.71,.01-2.57,.02-.52-.17-.52-.56-.36-.42,.17-.86,.3-1.29,.43-1.15,.35-2.35,.53-3.48,.94-.79,.28-1.45,.73-1.71,1.57-.43,1.43,.27,2.77,1.67,3.29,1.76,.65,3.47,.32,5.17-.26,.25-.08,.18-.25,.18-.42,0-.88,0-1.75,0-2.62Z"/>
      <path class="cls-1" d="M238.83,10.63c.7-.66,1.31-1.18,2.02-1.55,2.1-1.08,4.25-.95,6.41-.24,1.65,.54,3.01,1.46,3.84,3.04,.55,1.04,.76,2.18,.77,3.34,.03,3.32,.03,6.65,.04,9.97,0,.24,.03,.49,.06,.73,.09,.79,.5,1.36,1.16,1.77,.3,.18,.46,.74,.33,1.04-.08,.17-.22,.14-.36,.14-2.4,0-4.79,0-7.19,0-.14,0-.34,.02-.32-.17,.02-.31-.2-.7,.17-.91,1.16-.64,1.41-1.69,1.4-2.89-.02-2.52-.01-5.04-.04-7.55,0-.82-.12-1.64-.35-2.43-.64-2.23-2.16-2.92-4.35-2.85-1.26,.04-2.39,.38-3.06,1.58-.4,.72-.53,1.52-.53,2.33-.01,3.17,0,6.33,0,9.5,0,.94,.35,1.72,1.2,2.18,.45,.25,.38,.61,.37,.98-.01,.31-.26,.22-.43,.22-2.33,0-4.65,0-6.98,0-.18,0-.45,.09-.47-.18-.02-.29-.2-.69,.14-.87,1.29-.69,1.42-1.87,1.42-3.14-.01-3.97-.01-7.94,0-11.91,0-1.18-.22-2.22-1.38-2.84-.36-.19-.21-.57-.18-.86,.03-.31,.33-.19,.51-.19,.86-.01,1.71,0,2.57,0,.79,0,1.56-.1,2.29-.45,.72-.34,.95-.18,.95,.58,0,.5,0,1,0,1.65Z"/>
      <path class="cls-1" d="M179.44,27.1c-.69,.69-1.32,1.23-2.08,1.6-1.65,.78-3.38,.79-5.13,.53-1.61-.24-3.01-.88-4.06-2.17-.9-1.12-1.35-2.43-1.6-3.83-.24-1.38-.25-2.78-.25-4.18,0-2.1,.03-4.19,.04-6.29,0-.54-.04-1.08-.23-1.6-.19-.52-.54-.91-1.02-1.15-.48-.25-.33-.65-.29-1,.02-.22,.29-.14,.45-.14,1,0,1.99,.01,2.99,0,.68-.01,1.35-.06,1.95-.47,.53-.35,.91-.09,.91,.54,0,3.76,0,7.52,0,11.28,0,.95,.14,1.88,.48,2.77,.46,1.21,1.33,1.93,2.62,2.14,3.11,.53,5.07-1.52,5.18-4.37,.12-2.81,.04-5.63,.03-8.44,0-1.01-.39-1.84-1.3-2.35-.42-.24-.26-.62-.23-.94,.03-.28,.35-.16,.53-.16,1.14-.01,2.27,0,3.41,0,.5,0,.98-.08,1.38-.41,.26-.22,.57-.21,.85-.12,.27,.09,.14,.4,.14,.6,0,4.88,0,9.76,0,14.64,0,.8-.08,1.6,.04,2.41,.11,.77,.47,1.37,1.16,1.7,.51,.24,.36,.64,.32,.98-.04,.41-.42,.2-.64,.21-1.66,.02-3.32,.01-4.98,.01q-.69,0-.69-.72c0-.31,0-.61,0-1.04Z"/>
      <path class="cls-1" d="M93.18,22.65c.54,.2,.9,.5,1.29,.75,2.51,1.58,5.23,2.38,8.21,2.17,.81-.06,1.59-.25,2.3-.65,1.14-.65,1.28-1.86,.29-2.73-.89-.78-2-1.11-3.09-1.48-1.17-.41-2.36-.77-3.49-1.29-1.3-.59-2.53-1.3-3.29-2.57-1.21-2.03-.96-5.67,2.22-7.31,1.96-1.01,4.08-1.28,6.25-1.23,1.4,.03,2.79,.17,4.15,.54,.31,.08,.42,.21,.42,.53-.01,1.29-.01,2.59,0,3.88,0,.43-.14,.43-.46,.25-1.51-.87-3.12-1.38-4.87-1.44-.93-.03-1.86,.06-2.72,.45-1.06,.47-1.15,1.36-.22,2.06,.99,.74,2.17,1.02,3.31,1.4,1.64,.55,3.27,1.08,4.76,2.01,3.26,2.05,2.97,6.21,.96,8.39-1.53,1.65-3.47,2.44-5.61,2.79-2.7,.44-5.36,.27-7.94-.71-.32-.12-.51-.29-.62-.63-.59-1.7-1.21-3.38-1.85-5.18Z"/>
      <path class="cls-1" d="M253.59,22.69c.7,.42,1.38,.87,2.1,1.26,2.3,1.26,4.75,1.82,7.37,1.61,.67-.05,1.31-.21,1.92-.49,1.5-.7,1.64-2.16,.29-3.12-.6-.43-1.29-.7-1.97-.95-1.44-.53-2.92-.95-4.33-1.58-1.21-.54-2.34-1.2-3.12-2.31-1.59-2.29-.85-5.72,1.53-7.25,1.03-.66,2.17-1.05,3.36-1.26,2.55-.47,5.08-.35,7.59,.27,.33,.08,.42,.22,.41,.53-.01,1.28-.02,2.55,0,3.83,0,.46-.11,.49-.49,.27-1.49-.86-3.1-1.37-4.83-1.42-.93-.03-1.85,.05-2.72,.43-1.08,.47-1.19,1.38-.24,2.09,.84,.63,1.84,.9,2.82,1.23,1.54,.52,3.08,1,4.54,1.74,4.22,2.13,3.97,7.14,.8,9.62-1.4,1.1-3.01,1.7-4.74,1.98-2.72,.44-5.4,.26-7.99-.72-.2-.08-.41-.13-.49-.36-.63-1.77-1.27-3.54-1.9-5.31,.03-.03,.06-.05,.09-.08Z"/>
      <path class="cls-1" d="M200.1,24.77c-1.04,1.4-2.08,2.8-3.13,4.19-.06,.08-.16,.15-.25,.17-2.09,.5-4.69,.22-6.3-1.79-1.15-1.45-1.49-3.18-1.5-4.97-.03-3.08-.02-6.15,0-9.23,0-.44-.12-.57-.55-.55-.61,.04-1.22,0-1.84,.01-.31,0-.45-.08-.44-.42,.02-.56,.02-1.12,0-1.68,0-.26,.09-.37,.35-.41,.55-.09,1.09-.23,1.6-.47,1.67-.77,2.41-2.19,2.75-3.9,.17-.85,.22-1.7,.18-2.56-.02-.38,.13-.48,.48-.47,.59,.02,1.19,.02,1.78,0,.34-.01,.44,.1,.43,.45-.02,1.71,0,3.43-.02,5.14,0,.45,.15,.57,.57,.56,1.01-.02,2.03-.03,3.04,0,.54,.02,1.01-.25,1.54-.26,.37-.01,.48,.11,.47,.48-.02,1.24,0,2.48-.01,3.72,0,.19,.12,.48-.15,.55-.27,.06-.64,.16-.85-.09-.45-.56-1.06-.63-1.7-.65-.82-.02-1.64,.01-2.46-.01-.35,0-.45,.12-.45,.45,0,2.95,0,5.91,.01,8.86,0,.47,.06,.94,.19,1.4,.57,1.92,2.34,2.79,4.26,2.08,.63-.23,1.26-.49,1.89-.73,.03,.03,.05,.07,.08,.1Z"/>
      <path class="cls-1" d="M91.88,12.93c0,3.43,0,6.85,0,10.28,0,.92-.11,1.85,.03,2.77,.11,.75,.46,1.3,1.1,1.68,.32,.19,.49,.76,.34,1.07-.07,.15-.19,.14-.31,.14-2.38,0-4.75,0-7.13,0-.16,0-.35,0-.35-.21,0-.3-.17-.68,.17-.87,1.18-.67,1.36-1.75,1.35-2.96-.02-6.38-.02-12.76-.03-19.14,0-.56,0-1.12,0-1.68,0-.94-.36-1.72-1.2-2.18-.48-.27-.31-.65-.3-1,0-.19,.26-.12,.4-.13,1.21-.03,2.41,.05,3.62-.05,.46-.04,.89-.12,1.24-.47,.25-.25,.61-.19,.9-.11,.3,.07,.16,.39,.16,.59,0,4.09,0,8.18,0,12.27t0,0Z"/>
      <path class="cls-1" d="M162.95,13.09v10.81c0,.56-.01,1.12,0,1.68,.02,.92,.38,1.68,1.21,2.12,.49,.26,.3,.65,.31,1,0,.19-.19,.17-.33,.17-2.4,0-4.79,0-7.19,0-.15,0-.32-.01-.3-.2,.03-.29-.18-.68,.16-.87,1.21-.67,1.38-1.78,1.38-3.01-.01-6.73,0-13.47,0-20.2,0-1.17-.21-2.23-1.36-2.86-.35-.19-.19-.58-.17-.86,.02-.27,.31-.16,.48-.16,1.15-.02,2.31-.01,3.46-.04,.48-.01,.93-.11,1.3-.47,.26-.26,.61-.2,.9-.13,.3,.08,.16,.42,.16,.65,0,4.13,0,8.25,0,12.38Z"/>
      <path class="cls-1" d="M48.81,10.36c.92-.9,1.85-1.55,2.99-1.88,1.05-.31,2.08-.08,3.12-.04,.14,0,.23,.09,.23,.24,0,1.74,0,3.48,0,5.29-.39-.25-.58-.56-.83-.81-.24-.25-.51-.43-.85-.47-2.7-.34-4.15,.68-4.51,3.31-.22,1.65-.12,3.32-.14,4.97-.01,1.4,0,2.8,0,4.19,0,1.1,.31,2.03,1.35,2.59,.43,.23,.21,.63,.2,.94,0,.33-.33,.17-.51,.17-2.29,.01-4.58,0-6.87,0-.19,0-.49,.11-.5-.21,0-.29-.2-.68,.15-.86,1.23-.65,1.41-1.74,1.41-2.98-.02-4.06-.02-8.11,0-12.17,0-1.15-.24-2.14-1.34-2.75-.39-.21-.19-.61-.16-.91,.02-.27,.31-.14,.48-.14,1.27-.05,2.55,.07,3.82-.08,.35-.04,.69-.12,.97-.34,.26-.21,.58-.2,.85-.11,.27,.09,.12,.4,.13,.61,.02,.43,0,.87,0,1.44Z"/>
      <path class="cls-1" d="M207.37,16.97c0,2.66,0,5.31,0,7.97,0,1.18,.23,2.22,1.38,2.84,.38,.2,.2,.61,.17,.91-.03,.3-.34,.17-.52,.17-2.29,0-4.58,0-6.87,0-.17,0-.46,.11-.48-.17-.02-.3-.2-.69,.18-.9,1.11-.61,1.39-1.59,1.38-2.78-.02-4.19-.02-8.39,0-12.58,0-1.1-.34-1.99-1.36-2.52-.39-.2-.21-.55-.21-.84,0-.33,.3-.21,.49-.21,1.22-.04,2.45,.08,3.66-.08,.43-.06,.82-.17,1.16-.44,.14-.11,.3-.16,.48-.17,.38-.02,.55,.08,.54,.52-.02,2.76-.01,5.52-.01,8.28t0,0Z"/>
      <path class="cls-1" d="M62.66,17.12c0,2.76,0,5.53,0,8.29,0,1,.37,1.81,1.27,2.3,.44,.24,.29,.64,.26,.97-.03,.33-.37,.18-.57,.18-2.27,0-4.55,0-6.82,0-.17,0-.44,.11-.47-.18-.03-.3-.19-.72,.12-.88,1.4-.73,1.49-2.02,1.43-3.34-.08-1.68-.05-3.36-.04-5.03,0-2.03-.07-4.06,.05-6.08,.03-.47-.04-.94-.06-1.41-.03-.86-.45-1.52-1.17-1.93-.47-.26-.34-.65-.33-1,0-.23,.26-.16,.43-.17,1.24-.04,2.48,.08,3.72-.08,.41-.05,.78-.17,1.11-.42,.15-.11,.29-.17,.48-.18,.43-.04,.61,.05,.61,.55-.03,2.8-.01,5.6-.01,8.4Z"/>
      <path class="cls-1" d="M277.01,13.02c-3.25-.02-5.82-2.68-5.8-5.98,.02-3.22,2.72-5.88,5.96-5.85,3.23,.03,5.9,2.78,5.86,6.03-.04,3.21-2.75,5.82-6.02,5.8Zm.05-1.58c2.36,.03,4.35-1.9,4.38-4.23,.03-2.4-1.91-4.4-4.31-4.42-2.39-.02-4.33,1.87-4.35,4.24-.02,2.49,1.82,4.38,4.27,4.41Z"/>
      <path class="cls-1" d="M63.11,4.35c-.02,1.67-1.4,3.09-3.02,3.06-1.72-.03-3.15-1.21-3.19-3.25-.04-1.61,1.48-2.98,3.19-2.96,1.71,.02,3.04,1.41,3.02,3.15Z"/>
      <path class="cls-1" d="M207.84,4.3c-.02,1.75-1.36,3.11-3.02,3.1-1.79-.02-3.18-1.44-3.16-3.22,.02-1.68,1.46-3.01,3.21-2.98,1.65,.03,2.99,1.43,2.97,3.1Z"/>
      <path class="cls-1" d="M13.29,28.95c.13-.08,.27-.13,.42-.11-.13,.07-.27,.14-.42,.11Z"/>
      <path class="cls-1" d="M12.68,29.1c.05-.06,.11-.1,.19-.05-.05,.06-.11,.1-.19,.05Z"/>
      <path class="cls-1" d="M11.81,29.29c.03-.07,.08-.07,.13-.02-.03,.06-.07,.09-.13,.02Z"/>
      <polygon class="cls-1" points="14.12 28.69 14.12 28.69 14.12 28.71 14.12 28.69"/>
      <path class="cls-1" d="M274.58,6.96c0-.94,0-1.89,0-2.83,0-.23,.01-.42,.32-.41,1.24,.03,2.48-.08,3.72,.07,1.04,.12,1.51,.68,1.59,1.81,.07,1.01-.36,1.62-1.35,1.88-.33,.08-.35,.19-.19,.45,.38,.62,.74,1.27,1.13,1.89,.19,.3,.09,.3-.2,.35-.93,.16-1.51-.17-1.83-1.06-.15-.42-.46-.78-.63-1.2-.19-.47-.57-.34-.89-.32-.39,.03-.21,.38-.22,.59-.02,.54-.02,1.08,0,1.62,0,.27-.08,.35-.36,.36-1.08,.03-1.08,.04-1.08-1.05,0-.72,0-1.43,0-2.15Zm2.57-.58h0c.28-.01,.56,0,.84-.02,.43-.02,.66-.24,.69-.69,.03-.47-.23-.68-.64-.72-.4-.04-.8-.02-1.2-.02-.96,0-.76-.08-.83,.8-.04,.56,.17,.71,.68,.65,.15-.02,.31,0,.47,0Z"/>
    </g>
  </g>
</svg>