<?xml version="1.0" encoding="UTF-8"?>
<svg id="Layer_2" data-name="Layer 2" xmlns="http://www.w3.org/2000/svg" viewBox="0 0 286 39.75">
  <defs>
    <style>
      .cls-1 {
        fill: #fff;
      }
    </style>
  </defs>
  <g id="Layer_1-2" data-name="Layer 1">
    <g>
      <path class="cls-1" d="M286,28.7c-1.74,0-3.48,0-5.22,0-2.95,0-5.9,0-8.86,0-.31,0-.39-.08-.39-.39,.01-6.37,.01-12.74,0-19.1,0-.32,.09-.39,.4-.39,4.52,.01,9.03,.01,13.55,0,.31,0,.37,.1,.36,.38-.02,.44-.02,.89,0,1.34,.01,.27-.06,.36-.35,.36-3.15-.01-6.31,0-9.46,0-.65,0-1.31,.01-1.96,0-.21,0-.29,.02-.29,.27,.01,2.06,.01,4.11,0,6.16,0,.3,.09,.34,.36,.34,3.35,0,6.69,0,10.04-.01,.3,0,.42,.05,.4,.38-.03,.42-.03,.85,0,1.27,.02,.32-.07,.42-.4,.42-2.87-.02-5.74-.01-8.61-.02-.52,0-1.03,0-1.55,0-.17,0-.23,.06-.23,.23,0,2.16,0,4.33,0,6.49,0,.24,.12,.24,.3,.24,3.05,0,6.1,0,9.14,0,.92,0,1.85,0,2.77,0,0,.68,0,1.35,0,2.03Z"/>
      <path class="cls-1" d="M0,19.24s.05,0,.07,0v1.28s-.05,0-.07,0v-1.28Z"/>
      <path class="cls-1" d="M.07,20.52v-1.28c.08-1.88,.75-3.54,1.88-5.03,.73-.96,1.64-1.75,2.48-2.6C8.06,7.95,11.69,4.3,15.32,.65c.74-.74,1.62-.85,2.35-.31,.77,.57,.93,1.67,.34,2.42-.08,.11-.17,.21-.27,.31-3.18,3.2-6.37,6.4-9.55,9.6-1.08,1.08-2.15,2.16-3.22,3.25-1.83,1.86-2.06,5.05-.52,7.28,1.64,2.38,4.8,3.17,7.37,1.86,.61-.31,1.13-.73,1.61-1.21,1.78-1.78,3.56-3.58,5.34-5.36,3.45-3.47,6.89-6.94,10.34-10.41,.75-.75,1.82-.73,2.52,.03,.57,.63,.6,1.64,0,2.25-1.52,1.57-3.07,3.12-4.61,4.67-2.35,2.37-4.72,4.73-7.07,7.1-1.59,1.6-3.11,3.26-4.78,4.76-1.71,1.54-3.77,2.27-6.07,2.21-3.96-.1-7.07-2.32-8.51-6.06-.31-.8-.51-1.64-.51-2.52Z"/>
      <path class="cls-1" d="M41.28,10.64c3.02,.17,5.53,1.5,7.29,4.13,2.44,3.65,1.94,8.52-1.15,11.62-2.21,2.23-4.42,4.45-6.63,6.68-2,2.01-3.99,4.03-6,6.05-.69,.69-1.56,.82-2.27,.36-.93-.61-1.04-1.88-.22-2.69,1.55-1.57,3.11-3.14,4.67-4.71,2.67-2.69,5.35-5.37,8.02-8.06,2.78-2.79,2.08-7.43-1.39-9.3-2.18-1.17-4.95-.75-6.76,1.06-2.58,2.57-5.14,5.16-7.7,7.74-1.79,1.8-3.57,3.6-5.36,5.41-.92,.92-1.82,1.86-2.75,2.77-.94,.94-2.41,.62-2.85-.62-.22-.62-.1-1.22,.35-1.7,.52-.56,1.07-1.09,1.6-1.63,2.66-2.67,5.33-5.35,7.99-8.02,2.16-2.17,4.3-4.37,6.48-6.52,1.8-1.77,4.02-2.57,6.67-2.56Z"/>
      <path class="cls-1" d="M101.95,18.95c-.05,2.24-.73,4.34-2.14,6.18-.2,.26-.11,.38,.09,.54,.7,.58,1.39,1.18,2.09,1.76,.16,.14,.22,.22,.04,.4-.4,.41-.79,.83-1.16,1.27-.15,.18-.24,.17-.4,.02-.7-.64-1.41-1.26-2.1-1.92-.22-.21-.37-.21-.62-.03-2.68,1.88-5.64,2.37-8.76,1.46-3.99-1.16-6.28-3.95-7.01-7.98-.58-3.23,.17-6.19,2.3-8.71,2-2.36,4.61-3.46,7.69-3.44,3.07,.02,5.64,1.15,7.61,3.52,1.65,1.98,2.37,4.3,2.36,6.93Zm-17.84-.38c.03,1.32,.22,2.47,.67,3.57,2.03,4.96,7.72,6.02,11.38,3.59,.3-.2,.26-.28,.03-.47-1.07-.91-2.13-1.84-3.21-2.75-.18-.15-.17-.23-.03-.38,.4-.43,.8-.86,1.18-1.31,.14-.17,.21-.13,.34,0,1.07,.99,2.16,1.97,3.22,2.97,.24,.23,.35,.21,.51-.07,1.87-3.11,1.98-6.28,.18-9.43-2.22-3.89-7.64-4.91-11.15-2.16-2.14,1.68-3.04,3.94-3.11,6.45Z"/>
      <path class="cls-1" d="M161.49,20.61c2.01,2.69,4,5.36,6.04,8.09-.92,0-1.77,0-2.61,0-.18,0-.23-.13-.31-.23-1.76-2.37-3.52-4.74-5.27-7.12-.19-.26-.38-.38-.72-.37-1.61,.02-3.22,.01-4.83,0-.32,0-.37,.09-.37,.39,.01,2.33,0,4.65,.01,6.98,0,.29-.07,.38-.37,.37-.51-.03-1.03-.03-1.54,0-.29,.01-.35-.08-.35-.35,0-3.95,0-7.9,0-11.86,0-2.43,0-4.85,0-7.28,0-.3,.05-.4,.38-.4,2.79,.02,5.58-.02,8.37,.02,1.85,.02,3.59,.44,5.04,1.68,1.4,1.2,1.92,2.77,1.85,4.57-.05,1.39-.51,2.61-1.49,3.61-.9,.92-2.01,1.45-3.24,1.75-.18,.04-.36,.09-.59,.15Zm-8.06-5.69c0,1.24,0,2.48,0,3.71,0,.24,.03,.35,.31,.34,1.98-.01,3.95,.01,5.93-.01,1.23-.02,2.4-.28,3.41-1.04,2.11-1.56,1.98-4.95-.26-6.26-.96-.57-2.03-.74-3.12-.76-1.97-.02-3.95,0-5.92-.01-.28,0-.36,.05-.35,.34,.02,1.22,0,2.45,0,3.68Z"/>
      <path class="cls-1" d="M18.82,39.74c-1.52-.02-3.65-.88-5.43-2.59-.75-.72-.8-1.81-.12-2.51,.69-.71,1.74-.69,2.5,.06,2.28,2.21,5.85,2.17,8.14-.12,2.65-2.65,5.29-5.31,7.93-7.97,2.59-2.61,5.17-5.22,7.76-7.82,.67-.67,1.46-.81,2.16-.39,.7,.41,1.01,1.18,.8,1.95-.1,.35-.3,.62-.55,.88-2.9,2.92-5.8,5.83-8.7,8.75-2.35,2.37-4.71,4.73-7.07,7.1-1.75,1.75-3.99,2.67-7.42,2.67Z"/>
      <path class="cls-1" d="M35.61,5.62c-.49,.02-.9-.22-1.24-.56-2.23-2.19-5.91-2.18-8.19,.16-3.31,3.38-6.66,6.71-10,10.06-1.87,1.88-3.75,3.75-5.59,5.66-1.09,1.14-2.71,.67-3.03-.66-.15-.65,.04-1.2,.51-1.67,2.71-2.73,5.43-5.46,8.14-8.19,2.58-2.6,5.15-5.2,7.74-7.79,3.53-3.53,9.41-3.49,12.9,.07,.51,.52,.64,1.15,.39,1.83-.26,.68-.89,1.09-1.62,1.09Z"/>
      <path class="cls-1" d="M172.72,18.76c0-3.18,0-6.35,0-9.53,0-.35,.1-.4,.42-.4,4.49,.01,8.98,.01,13.47,0,.34,0,.42,.1,.4,.42-.03,.44-.02,.88,0,1.31,.01,.25-.05,.34-.32,.34-2.78-.01-5.56,0-8.34,0-1.03,0-2.07,.03-3.1,0-.29,0-.3,.09-.3,.31,0,2.05,0,4.1,0,6.15,0,.27,.09,.32,.34,.32,3.35,0,6.71,0,10.06-.01,.34,0,.42,.09,.4,.41-.03,.44-.03,.88,0,1.31,.02,.3-.1,.35-.35,.35-2.56,0-5.12,0-7.68,0-.8,0-1.6,.02-2.4-.01-.3-.01-.35,.06-.35,.34,0,2.09,.01,4.18,0,6.27,0,.31,.1,.36,.38,.36,3.77,0,7.53,0,11.3,0,.11,0,.23,0,.34,0,.14,0,.19,.05,.19,.19,0,.55,0,1.1,0,1.65,0,.14-.04,.21-.19,.2-.09,0-.18,0-.26,0-4.52,0-9.03,0-13.55,0-.33,0-.44-.06-.43-.42,.02-3.18,.01-6.35,.01-9.53Z"/>
      <path class="cls-1" d="M246.76,28.71c-.76,0-1.48,0-2.19,0-.19,0-.25-.08-.32-.24-.68-1.57-1.39-3.14-2.07-4.72-.1-.23-.22-.31-.47-.31-3.35,0-6.7,.01-10.06,0-.27,0-.39,.09-.49,.33-.67,1.53-1.35,3.05-2.02,4.58-.11,.25-.24,.38-.55,.37-.62-.03-1.25,0-1.92,0,.35-.78,.68-1.53,1.01-2.27,1.42-3.15,2.84-6.31,4.26-9.46,1.06-2.36,2.12-4.72,3.18-7.08,.13-.3,.29-.58,.4-.89,.09-.25,.23-.33,.49-.32,.5,.02,1.01,.01,1.51,0,.18,0,.27,.06,.34,.22,1.66,3.7,3.32,7.4,4.99,11.1,1.25,2.79,2.51,5.58,3.76,8.38,.04,.09,.08,.18,.14,.33Zm-14.56-7.32h8.97c-1.49-3.36-2.96-6.68-4.47-10.07-1.52,3.41-3.01,6.73-4.5,10.07Z"/>
      <path class="cls-1" d="M147.02,28.71c-.77,0-1.48,0-2.19,0-.22,0-.27-.13-.34-.28-.69-1.57-1.4-3.14-2.08-4.72-.09-.22-.2-.27-.41-.27-3.38,0-6.76,0-10.13,0-.23,0-.35,.06-.45,.28-.69,1.58-1.4,3.16-2.11,4.74-.06,.14-.12,.25-.32,.24-.68-.01-1.35,0-2.08,0,.27-.61,.53-1.2,.79-1.78,1.51-3.36,3.03-6.72,4.54-10.08,1.17-2.6,2.34-5.2,3.49-7.8,.12-.26,.25-.38,.55-.36,.48,.02,.96,0,1.44,0,.18,0,.3,.04,.39,.24,1.07,2.4,2.15,4.79,3.22,7.19,.86,1.91,1.72,3.81,2.58,5.72,1.02,2.27,2.04,4.54,3.08,6.88Zm-10.07-17.39c-1.51,3.39-3,6.73-4.5,10.07h8.96c-1.49-3.35-2.96-6.67-4.47-10.07Z"/>
      <path class="cls-1" d="M211.64,18.78c0-3.19,0-6.38,0-9.57,0-.27,.03-.38,.35-.38,2.52,.02,5.05,0,7.57,.03,1.76,.03,3.4,.49,4.79,1.62,1.2,.98,1.84,2.27,2.02,3.79,.17,1.41-.01,2.76-.71,4.02-.76,1.37-1.96,2.24-3.4,2.79-1.21,.47-2.48,.62-3.78,.63-1.43,0-2.85,0-4.28,0-.28,0-.35,.07-.35,.35,.01,2.09,0,4.18,.02,6.26,0,.35-.1,.41-.41,.4-.49-.03-.98-.03-1.46,0-.3,.02-.37-.08-.37-.37,.01-3.09,0-6.18,0-9.27,0-.1,0-.2,0-.3Zm2.23-3.5c0,1.34,.01,2.68,0,4.01,0,.31,.09,.36,.38,.36,1.5-.01,3,0,4.5,0,.78,0,1.54-.11,2.29-.33,1.93-.58,3.08-2.06,3.13-4.03,.04-1.93-.98-3.38-2.81-4-.78-.26-1.58-.37-2.39-.37-1.54-.01-3.07,0-4.61,0-.48,0-.48,0-.48,.5,0,1.29,0,2.58,0,3.86Z"/>
      <path class="cls-1" d="M107.48,15.24c0-2.01,0-4.03,0-6.04,0-.29,.07-.39,.37-.37,.51,.02,1.03,.02,1.54,0,.26-.01,.34,.07,.34,.34-.01,1.29,0,2.58,0,3.87,0,2.51-.02,5.03,0,7.54,.02,1.48,.33,2.89,1.21,4.13,1.05,1.48,2.54,2.1,4.29,2.22,1.1,.07,2.19-.04,3.21-.49,1.71-.75,2.62-2.12,3.03-3.88,.19-.81,.23-1.63,.23-2.45,0-3.63,0-7.25,0-10.88,0-.31,.07-.41,.39-.39,.5,.03,1,.03,1.5,0,.3-.02,.37,.09,.36,.37-.01,3.75,0,7.51-.01,11.26,0,1.32-.2,2.61-.69,3.84-1.02,2.58-2.93,4.06-5.62,4.55-1.72,.31-3.43,.25-5.09-.33-2.54-.88-4.05-2.72-4.71-5.28-.23-.87-.32-1.76-.32-2.67,0-1.77,0-3.55,0-5.33Z"/>
      <path class="cls-1" d="M199.04,8.56c1.37-.01,2.98,.33,4.48,1.1,.62,.32,1.2,.71,1.76,1.13,.2,.15,.24,.24,.07,.45-.33,.4-.64,.83-.94,1.26-.14,.2-.23,.2-.43,.05-1.64-1.31-3.51-2.03-5.63-1.97-1.25,.03-2.4,.35-3.28,1.3-1.09,1.16-1.2,3.62,.96,4.66,1.11,.53,2.29,.85,3.48,1.12,1.29,.29,2.57,.63,3.76,1.23,1.79,.91,2.85,2.3,2.86,4.37,0,2.15-.93,3.76-2.8,4.81-1.57,.88-3.29,1.03-5.05,.89-2.58-.21-4.8-1.24-6.74-2.93-.18-.16-.22-.25-.05-.44,.33-.37,.65-.76,.95-1.15,.19-.24,.31-.23,.54-.03,1.03,.92,2.16,1.69,3.49,2.1,1.7,.53,3.42,.72,5.14,.08,2.09-.78,2.67-2.72,1.97-4.38-.32-.75-.97-1.15-1.67-1.47-1.11-.52-2.31-.77-3.5-1.05-1.4-.33-2.77-.71-4.02-1.46-1.91-1.14-2.55-2.93-2.23-5.02,.35-2.32,1.9-3.62,4.02-4.32,.82-.27,1.68-.36,2.86-.33Z"/>
      <path class="cls-1" d="M70.77,29.01c-2.97,0-5.55-1.04-7.78-2.99-.19-.17-.18-.26-.02-.44,.36-.4,.69-.82,1.03-1.24,.12-.16,.2-.15,.35-.02,.8,.7,1.64,1.34,2.61,1.79,1.82,.84,3.72,1.12,5.68,.62,1.15-.29,2.1-.93,2.5-2.1,.5-1.49,.13-2.95-1.47-3.75-1.09-.55-2.26-.83-3.44-1.1-1.4-.32-2.77-.71-4.07-1.36-3.44-1.72-3.22-6.32-.83-8.27,1.43-1.16,3.07-1.61,4.87-1.59,1.36,0,2.68,.21,3.95,.72,.96,.39,1.85,.92,2.67,1.56,.14,.11,.17,.19,.05,.35-.33,.41-.64,.83-.94,1.26-.16,.24-.28,.26-.51,.08-1.11-.9-2.36-1.53-3.77-1.79-1.44-.27-2.85-.26-4.19,.44-1.75,.92-2.02,2.94-1.24,4.23,.45,.75,1.2,1.11,1.96,1.43,1.35,.56,2.81,.77,4.21,1.17,1.32,.37,2.59,.84,3.65,1.73,1.22,1.02,1.64,2.38,1.57,3.91-.08,1.68-.81,3.05-2.17,4.04-1.12,.81-2.41,1.18-3.78,1.29-.29,.02-.58,.03-.86,.04Z"/>
      <path class="cls-1" d="M248.59,18.79c.06-3.16,1.15-5.87,3.57-7.96,1.88-1.63,4.11-2.33,6.58-2.33,2.85,0,5.28,1,7.34,2.95,.19,.18,.16,.27,0,.43-.38,.39-.77,.79-1.12,1.21-.17,.2-.24,.19-.42,.02-1.2-1.13-2.56-1.96-4.18-2.35-3.55-.84-7.23,.96-8.66,4.31-1.24,2.91-1.11,5.79,.61,8.47,1.61,2.51,4.01,3.61,6.99,3.4,2.15-.15,3.88-1.17,5.39-2.62,.19-.18,.28-.2,.46,0,.33,.36,.68,.7,1.04,1.03,.15,.15,.2,.23,.02,.41-1.9,1.93-4.15,3.14-6.89,3.28-4.01,.19-7.17-1.31-9.29-4.78-1.02-1.66-1.45-3.51-1.44-5.46Z"/>
    </g>
  </g>
</svg>