<?xml version="1.0" encoding="UTF-8"?>
<svg id="Layer_2" data-name="Layer 2" xmlns="http://www.w3.org/2000/svg" viewBox="0 0 183.33 46.11">
  <defs>
    <style>
      .cls-1 {
        fill: #fff;
      }
    </style>
  </defs>
  <g id="Layer_1-2" data-name="Layer 1">
    <g>
      <path class="cls-1" d="M39.48,0c1.2,.36,2.42,.68,3.45,1.47,2.02,1.54,3.16,3.56,3.17,6.09,.03,10.34,.03,20.68,0,31.02-.01,3.55-2.48,6.49-6.04,7.37-.15,.04-.35-.06-.43,.17H6.34c-.06-.22-.27-.17-.41-.21-2.99-.82-4.9-2.72-5.72-5.72-.04-.14,0-.35-.21-.42V6.34c.25-.11,.2-.37,.25-.55C.99,3.14,2.66,1.36,5.24,.41c.41-.15,.88-.14,1.25-.41H39.48ZM8.38,22.98c0,3.99,0,7.97,0,11.95,0,1.83,.97,2.8,2.8,2.8,7.92,0,15.84,0,23.76,0,1.83,0,2.8-.96,2.8-2.79,0-7.92,0-15.84,0-23.76,0-1.83-.97-2.8-2.79-2.8-7.92,0-15.84,0-23.76,0-1.83,0-2.8,.97-2.8,2.79,0,3.94,0,7.87,0,11.81Z"/>
      <path class="cls-1" d="M99.57,46.11c.13-.35,.06-.71,.06-1.07,0-3.12,0-6.24,0-9.36v-.76c-.25-.06-.3,.11-.38,.21-4.43,4.9-12.24,3.88-15-2.12-2.15-4.67-1.98-9.4,1.31-13.57,3.39-4.29,9.97-4.3,13.61-.21,.11,.12,.22,.24,.47,.51,0-.95,.02-1.72,0-2.49-.01-.39,.08-.56,.51-.54,.67,.03,1.34,.03,2.02,0,.35-.01,.48,.11,.44,.45-.02,.17,0,.34,0,.5,0,9.48,0,18.96,0,28.45-1.01,0-2.02,0-3.03,0Zm.05-19.23c0-1.32-.25-2.89-1.04-4.34-1.37-2.49-3.54-3.54-6.32-3.41-2.66,.12-4.47,1.5-5.43,3.92-1.09,2.76-1.1,5.59,0,8.35,.92,2.32,2.7,3.65,5.18,3.88,2.63,.24,4.81-.64,6.29-2.94,1.01-1.57,1.33-3.32,1.33-5.45Z"/>
      <path class="cls-1" d="M68.8,38.22c-3.61-.09-7.12-1.51-9.7-4.9-.35-.45-.31-.69,.17-.99,.59-.37,1.15-.79,1.69-1.22,.29-.23,.44-.21,.66,.1,2.66,3.59,6.29,4.51,10.47,3.63,2.75-.58,4.3-2.59,4.29-5.19-.01-1.9-1.04-3.07-2.66-3.83-1.61-.75-3.35-1.15-5.06-1.61-1.83-.49-3.65-1-5.32-1.93-2.42-1.35-3.74-3.35-3.71-6.19,.03-2.85,1.31-4.97,3.74-6.38,4.86-2.82,11.71-1.56,15.32,2.77,.3,.36,.33,.54-.08,.83-.65,.45-1.2,1.25-1.89,1.38-.75,.14-1.08-.94-1.69-1.39-2.88-2.11-5.99-2.58-9.31-1.31-1.47,.56-2.49,1.63-2.75,3.25-.3,1.92,.39,3.27,2.15,4.22,1.77,.95,3.74,1.32,5.64,1.88,1.75,.51,3.46,1.09,5.08,1.97,5.47,2.97,4.49,10.01,.74,12.77-2.16,1.59-4.61,2.15-7.79,2.16Z"/>
      <path class="cls-1" d="M175.19,27.72c-2.47,0-4.94,.01-7.41-.01-.51,0-.65,.13-.62,.64,.2,3.17,1.91,5.64,4.56,6.55,3.01,1.04,6.25,.21,8.32-2.15,.27-.3,.42-.36,.72-.06,.42,.42,.87,.83,1.34,1.2,.34,.27,.36,.44,.06,.79-1.97,2.22-4.46,3.38-7.4,3.49-6.06,.24-10.27-3.64-10.67-9.72-.21-3.19,.35-6.17,2.37-8.74,2.4-3.06,6.59-4.24,10.54-3.01,3.6,1.13,6.05,4.35,6.3,8.28,.04,.72,0,1.44,0,2.16,0,.49-.19,.59-.63,.59-2.5-.02-4.99,0-7.49,0Zm-1.42-2.6c1.97,0,3.93,0,5.9,0,.25,0,.61,.13,.53-.4-.24-1.5-.73-2.9-1.87-3.95-2.04-1.9-4.47-2.11-6.98-1.26-2.41,.82-3.59,2.74-4.04,5.17-.09,.46,.18,.45,.49,.44,1.99,0,3.98,0,5.97,0Z"/>
      <path class="cls-1" d="M143.16,35.47c-2.9,2.84-7.03,3.55-10.38,1.9-2.38-1.17-3.36-3.19-3.34-5.74,.02-2.51,1.26-4.25,3.55-5.27,1.8-.8,3.76-.93,5.66-1.28,.97-.17,1.94-.36,2.84-.77,1.01-.46,1.7-1.18,1.67-2.37-.03-1.2-.68-2-1.78-2.37-3.18-1.05-6.15-.47-8.88,1.38-.49,.33-.68,.3-.94-.17-.22-.4-.46-.79-.75-1.14-.38-.45-.33-.72,.17-1.05,3.23-2.13,6.73-2.87,10.49-2,2.96,.68,4.62,2.83,4.63,5.86,.02,4.9,0,9.79,.01,14.69,0,.47-.12,.63-.6,.6-.62-.04-1.25-.03-1.87,0-.38,.02-.51-.11-.5-.49,.02-.54,0-1.08,0-1.79Zm.02-7.01c0-.55,0-1.1,0-1.65,0-.32,0-.53-.42-.31-1.06,.58-2.23,.84-3.41,1.08-1.55,.32-3.13,.47-4.63,1-1.5,.52-2.16,1.4-2.2,2.85-.04,1.7,.63,2.84,2.05,3.45,1.04,.45,2.14,.5,3.25,.42,2.51-.2,4.43-1.69,5.06-3.91,.27-.95,.28-1.94,.28-2.92Z"/>
      <path class="cls-1" d="M122.06,34.81c-1.36,1.66-2.91,2.74-4.86,3.13-2.97,.59-5.71,.25-7.78-2.26-1.17-1.43-1.61-3.16-1.62-4.97-.04-4.49-.01-8.98-.03-13.47,0-.46,.14-.57,.57-.55,.76,.04,1.77-.26,2.23,.12,.48,.4,.14,1.44,.15,2.2,.06,3.94-.12,7.87,.09,11.81,.13,2.43,1.33,3.92,3.36,4.35,3.59,.77,7.04-1.58,7.73-5.25,.12-.66,.16-1.33,.15-2.01,0-3.53,0-7.06-.01-10.59,0-.49,.1-.68,.62-.65,.64,.05,1.3,.02,1.94,0,.31,0,.45,.1,.42,.41-.01,.09,0,.19,0,.29,0,6.53,0,13.06,.01,19.59,0,.61-.18,.79-.76,.74-.57-.05-1.15-.03-1.73,0-.38,.02-.51-.1-.5-.49,.02-.76,0-1.51,0-2.43Z"/>
      <path class="cls-1" d="M154.27,19.34c1.28-1.53,2.7-2.46,4.44-2.84,1.35-.3,2.66-.24,3.95,.31,.49,.21,.77,.47,.45,1.01-.05,.08-.07,.18-.1,.27-.2,.54-.25,1.25-.63,1.57-.38,.31-.98-.22-1.51-.32-2.33-.42-4.54,.69-5.68,2.88-.74,1.42-.92,2.96-.92,4.53,0,3.41-.01,6.82,.01,10.23,0,.6-.16,.8-.76,.75-.6-.05-1.2-.02-1.8,0-.3,0-.45-.09-.42-.41,.01-.12,0-.24,0-.36,0-6.5,0-13.01-.01-19.51,0-.6,.14-.8,.74-.74,.55,.06,1.11,.05,1.65,0,.51-.05,.61,.17,.59,.62-.03,.6,0,1.2,0,2.03Z"/>
      <path class="cls-1" d="M23.04,29.3c-1.51,0-3.02,0-4.53,0-1.23,0-1.73-.48-1.73-1.68-.01-3.07-.01-6.14,0-9.21,0-1.16,.53-1.67,1.68-1.67,3.07,0,6.14,0,9.21,0,1.15,0,1.69,.53,1.7,1.66,.01,3.09,.01,6.19,0,9.29,0,1.11-.52,1.61-1.65,1.62-1.56,.01-3.12,0-4.68,0Z"/>
    </g>
  </g>
</svg>