<?xml version="1.0" encoding="utf-8"?>
<!-- Generator: Adobe Illustrator 22.0.1, SVG Export Plug-In . SVG Version: 6.00 Build 0)  -->
<svg version="1.1" id="Layer_1" xmlns="http://www.w3.org/2000/svg" xmlns:xlink="http://www.w3.org/1999/xlink" x="0px" y="0px"
	 viewBox="0 0 262.089 50" enable-background="new 0 0 262.089 50" xml:space="preserve">
<g>
	<path fill="#0187D1" d="M1,14.257c0.188-0.572,0.264-1.171,0.46-1.743c1.177-3.436,4.473-5.805,8.108-5.807
		c4.348-0.002,8.695,0.004,13.043-0.009c0.419-0.001,0.466,0.097,0.331,0.476c-2.839,7.917-5.668,15.838-8.498,23.758
		c-0.069,0.194-0.143,0.386-0.234,0.632c-0.935-0.845-1.71-1.77-2.337-2.807c-2.492-4.13-2.922-8.459-1.188-12.977
		c0.14-0.365,0.018-0.379-0.286-0.379C7.266,15.409,4.133,15.407,1,15.408C1,15.024,1,14.64,1,14.257z"/>
	<path fill="#0287D1" d="M259.488,9.653c-0.246,0.521-0.406,1.08-0.841,1.507c-0.939,0.922-2.419,1.126-3.534,0.455
		c-1.177-0.708-1.692-2.088-1.274-3.408c0.392-1.236,1.63-2.042,2.97-1.933c1.255,0.102,2.182,0.846,2.56,2.042
		c0.03,0.095-0.032,0.237,0.119,0.282C259.488,8.949,259.488,9.301,259.488,9.653z M256.574,11.465
		c1.301,0.005,2.334-1.034,2.329-2.344c-0.004-1.277-1.047-2.328-2.308-2.328c-1.292,0.001-2.297,1.006-2.305,2.305
		C254.284,10.444,255.263,11.46,256.574,11.465z"/>
	<path fill="#0187D1" d="M148.247,33.097c-2.685-0.062-5.364-0.473-7.885-1.641c-1.035-0.48-1.028-0.485-0.644-1.546
		c0.412-1.138,0.843-2.271,1.211-3.424c0.148-0.463,0.32-0.444,0.698-0.273c2.091,0.943,4.288,1.43,6.584,1.425
		c0.895-0.002,1.783-0.095,2.601-0.52c0.74-0.384,1.19-0.973,1.211-1.813c0.019-0.801-0.434-1.341-1.107-1.717
		c-0.981-0.549-2.052-0.861-3.121-1.173c-1.365-0.399-2.703-0.859-3.963-1.529c-2.352-1.252-3.786-3.14-4.016-5.836
		c-0.213-2.493,0.349-4.728,2.309-6.452c1.167-1.027,2.533-1.67,4.045-1.967c3.798-0.747,7.459-0.34,10.96,1.363
		c0.381,0.186,0.46,0.364,0.306,0.768c-0.505,1.323-0.974,2.66-1.44,3.997c-0.107,0.307-0.214,0.375-0.534,0.232
		c-1.888-0.845-3.864-1.3-5.943-1.255c-0.74,0.016-1.472,0.095-2.139,0.447c-1.362,0.718-1.424,2.452-0.118,3.263
		c0.683,0.424,1.444,0.676,2.208,0.901c1.899,0.56,3.775,1.168,5.506,2.16c2.049,1.173,3.407,2.846,3.688,5.23
		c0.498,4.215-1.288,7.346-5.626,8.741C151.506,32.971,149.914,33.09,148.247,33.097z"/>
	<path fill="#0187D1" d="M111.674,16.436c0.099-0.158,0.049-0.336,0.049-0.502c0.004-2.909,0.01-5.818-0.006-8.727
		c-0.002-0.4,0.07-0.553,0.517-0.545c1.726,0.029,3.452,0.02,5.178,0.004c0.331-0.003,0.429,0.08,0.428,0.421
		c-0.01,8.343-0.01,16.686,0.001,25.029c0,0.363-0.095,0.452-0.452,0.447c-1.63-0.02-3.261-0.017-4.891-0.002
		c-0.312,0.003-0.431-0.078-0.417-0.398c0.02-0.471,0.005-0.944,0.005-1.556c-0.42,0.461-0.697,0.847-1.076,1.133
		c-2.122,1.607-4.457,1.702-6.857,0.851c-2.285-0.811-3.751-2.522-4.535-4.76c-1.113-3.174-0.964-6.311,0.679-9.294
		c1.703-3.09,5.265-4.665,8.493-3.804c0.957,0.255,1.8,0.724,2.51,1.421c0.091,0.09,0.183,0.178,0.279,0.262
		C111.599,16.434,111.635,16.429,111.674,16.436z M112.047,23.799c0-0.16,0.009-0.32-0.001-0.478
		c-0.161-2.408-2.424-3.941-4.668-3.165c-1.575,0.545-2.463,2.133-2.322,4.084c0.15,2.071,1.846,3.712,4.126,3.353
		C110.86,27.33,112.064,25.786,112.047,23.799z"/>
	<path fill="#0287D1" d="M62.493,22.466c0,3.196-0.006,6.392,0.008,9.587c0.002,0.387-0.087,0.516-0.496,0.512
		c-1.965-0.022-3.931-0.024-5.896,0.001c-0.432,0.006-0.526-0.118-0.526-0.534c0.014-6.36,0.004-12.719,0.021-19.079
		c0.001-0.469-0.123-0.578-0.58-0.573c-2.253,0.025-4.506,0.012-6.759,0.011c-0.598,0-0.595,0-0.535-0.611
		c0.242-2.454,2.314-4.992,5.718-4.986c5.689,0.01,11.377,0.005,17.066-0.004c0.342-0.001,0.426,0.103,0.416,0.437
		c-0.072,2.515-2.398,4.945-4.918,5.126c-0.99,0.071-1.98,0.043-2.97,0.028c-0.425-0.006-0.566,0.089-0.563,0.546
		C62.503,16.106,62.493,19.286,62.493,22.466z"/>
	<path fill="#0187D1" d="M225.314,33.102c-4.255,0.006-7.842-2.387-9.111-6.181c-1.848-5.526,1.354-11.443,7.545-12.291
		c3.073-0.421,5.889,0.225,8.244,2.334c1.852,1.658,2.752,3.787,2.905,6.26c0.329,5.323-3.676,9.711-9.01,9.848
		C225.696,33.078,225.505,33.092,225.314,33.102z M228.811,23.7c-0.005-0.113-0.009-0.32-0.025-0.527
		c-0.206-2.644-3.246-4.126-5.415-2.624c-1.234,0.854-1.624,2.113-1.57,3.551c0.093,2.476,2.299,4.097,4.605,3.384
		C227.878,27.03,228.814,25.593,228.811,23.7z"/>
	<path fill="#0187D1" d="M242.713,17.019c0.895-1.453,2.23-2.231,3.876-2.426c2.15-0.255,4.156,0.048,5.647,1.844
		c0.888,1.071,1.24,2.357,1.413,3.706c0.098,0.762,0.106,1.528,0.105,2.295c-0.004,3.196-0.009,6.391,0.007,9.586
		c0.002,0.403-0.072,0.55-0.516,0.542c-1.725-0.028-3.451-0.022-5.176-0.003c-0.368,0.004-0.453-0.113-0.452-0.464
		c0.013-2.972,0.009-5.944,0.006-8.915c-0.001-0.541-0.024-1.081-0.182-1.608c-0.25-0.829-0.729-1.426-1.623-1.557
		c-1.011-0.149-1.913,0.048-2.522,0.969c-0.45,0.679-0.566,1.449-0.569,2.238c-0.008,2.94-0.013,5.88,0.008,8.82
		c0.003,0.437-0.127,0.525-0.537,0.519c-1.693-0.023-3.387-0.021-5.081-0.001c-0.38,0.004-0.519-0.069-0.518-0.487
		c0.014-5.528,0.012-11.056,0.004-16.585c0-0.33,0.052-0.47,0.438-0.464c1.693,0.025,3.387,0.024,5.081,0.001
		c0.411-0.006,0.52,0.128,0.496,0.513c-0.03,0.474-0.007,0.951-0.007,1.427C242.643,16.985,242.678,17.002,242.713,17.019z"/>
	<path fill="#0187D1" d="M125.898,25.382c0.562,1.693,1.774,2.493,3.376,2.759c2.432,0.405,4.8,0.098,7.085-0.809
		c0.384-0.153,0.485-0.118,0.483,0.301c-0.006,1.357,0.008,2.715,0.026,4.072c0.004,0.281-0.177,0.327-0.377,0.402
		c-1.631,0.609-3.326,0.875-5.055,0.958c-1.91,0.092-3.789-0.052-5.618-0.677c-3.699-1.265-5.951-4.395-5.975-8.3
		c-0.012-1.887,0.319-3.683,1.294-5.319c1.568-2.628,3.946-3.962,6.947-4.216c1.654-0.14,3.292,0.004,4.826,0.706
		c2.776,1.27,4.186,3.519,4.576,6.482c0.134,1.019,0.119,2.036,0.001,3.056c-0.048,0.413-0.152,0.607-0.658,0.602
		c-3.451-0.032-6.902-0.017-10.353-0.017C126.302,25.382,126.127,25.382,125.898,25.382z M128.828,21.69
		c0.895,0,1.789-0.002,2.684,0.002c0.195,0.001,0.356-0.004,0.304-0.276c-0.154-0.807-0.454-1.533-1.139-2.04
		c-1.804-1.335-4.224-0.351-4.808,1.942c-0.074,0.289-0.059,0.388,0.275,0.38C127.038,21.676,127.933,21.69,128.828,21.69z"/>
	<path fill="#0287D1" d="M176.133,20.902c0-1.651,0.003-3.212-0.003-4.772c-0.001-0.231,0.155-0.284,0.316-0.358
		c2.397-1.088,4.909-1.437,7.516-1.171c1.547,0.158,3.005,0.589,4.269,1.524c1.758,1.3,2.547,3.133,2.773,5.248
		c0.058,0.538,0.071,1.084,0.072,1.626c0.007,3.036-0.003,6.072,0.011,9.108c0.002,0.353-0.083,0.463-0.45,0.458
		c-1.566-0.021-3.132-0.015-4.698-0.004c-0.291,0.002-0.433-0.045-0.419-0.385c0.016-0.379-0.04-0.761-0.165-1.225
		c-0.146,0.178-0.275,0.373-0.44,0.531c-1.319,1.27-2.956,1.634-4.715,1.61c-1.299-0.017-2.539-0.276-3.613-1.063
		c-1.797-1.316-2.273-3.169-2.035-5.26c0.279-2.444,2.202-4.333,4.827-4.841c1.864-0.361,3.681-0.169,5.468,0.431
		c0.149,0.05,0.297,0.103,0.45,0.156c0.123-1.272-0.753-2.566-2.044-2.96c-1.549-0.472-3.09-0.297-4.616,0.151
		C177.768,19.962,176.968,20.377,176.133,20.902z M182.823,25.385c-0.255,0-0.513-0.021-0.766,0.004
		c-0.948,0.092-1.715,0.663-1.885,1.383c-0.279,1.187,0.554,2.176,1.895,2.248c1.628,0.087,2.869-0.978,3.195-2.685
		c0.079-0.415-0.035-0.565-0.413-0.663C184.183,25.498,183.517,25.349,182.823,25.385z"/>
	<path fill="#0187D1" d="M91.353,30.897c-1.817,2.064-4.05,2.443-6.472,2.078c-2.948-0.444-4.659-2.703-4.513-5.687
		c0.161-3.292,2.771-5.103,5.448-5.456c1.729-0.228,3.405,0,5.037,0.581c0.285,0.101,0.348,0.082,0.319-0.242
		c-0.141-1.574-1.257-2.639-2.944-2.822c-2.072-0.225-3.987,0.228-5.774,1.275c-0.096,0.056-0.193,0.112-0.292,0.163
		c-0.026,0.013-0.061,0.009-0.095,0.014c-0.116-0.139-0.065-0.306-0.066-0.459c-0.004-1.343,0.002-2.685-0.005-4.028
		c-0.001-0.24,0.021-0.422,0.284-0.533c3.439-1.449,6.942-1.838,10.467-0.411c2.475,1.002,3.672,3.04,4.074,5.609
		c0.137,0.875,0.104,1.753,0.105,2.631c0.004,2.813-0.005,5.627,0.01,8.44c0.002,0.379-0.067,0.525-0.488,0.517
		c-1.534-0.027-3.069-0.025-4.603-0.001c-0.39,0.006-0.509-0.129-0.495-0.487C91.364,31.732,91.353,31.383,91.353,30.897z
		 M88.683,25.365c-0.562-0.017-1.113,0.022-1.631,0.272c-0.772,0.371-1.126,0.953-1.053,1.751c0.068,0.746,0.596,1.336,1.37,1.533
		c1.888,0.48,3.702-0.876,3.788-2.82c0.01-0.228-0.084-0.304-0.273-0.367C90.169,25.497,89.44,25.351,88.683,25.365z"/>
	<path fill="#0187D1" d="M205.125,26.991c0.16,1.317,0.312,2.567,0.463,3.817c0.021,0.174,0.04,0.349,0.062,0.523
		c0.098,0.785,0.103,0.8-0.627,1.055c-2.076,0.726-4.216,0.91-6.373,0.54c-2.621-0.449-4.168-2.117-4.584-4.773
		c-0.097-0.617-0.143-1.236-0.142-1.86c0.002-1.997-0.007-3.995,0.009-5.992c0.003-0.321-0.095-0.428-0.396-0.384
		c-0.047,0.007-0.096,0.001-0.144,0.001c-1.224-0.002-1.224-0.002-1.224-1.204c0-1.071,0.019-2.142-0.01-3.212
		c-0.011-0.395,0.123-0.504,0.49-0.47c0.301,0.028,0.608-0.014,0.91,0.011c0.306,0.026,0.374-0.099,0.371-0.383
		c-0.013-1.214,0.011-2.429-0.015-3.643c-0.008-0.394,0.125-0.478,0.491-0.474c1.726,0.017,3.452,0.019,5.177-0.001
		c0.37-0.004,0.452,0.109,0.446,0.46c-0.021,1.214,0.002,2.429-0.015,3.643c-0.004,0.312,0.083,0.403,0.398,0.4
		c1.598-0.015,3.196,0.004,4.794-0.016c0.364-0.005,0.466,0.089,0.434,0.455c-0.219,2.494-2.303,4.421-4.816,4.433
		c-0.802,0.004-0.802,0.004-0.803,0.784c0,1.422,0.002,2.844-0.001,4.267c-0.001,0.466,0.065,0.922,0.189,1.37
		c0.205,0.746,0.702,1.152,1.46,1.249C202.855,27.738,203.985,27.539,205.125,26.991z"/>
	<path fill="#0287D1" d="M172.501,26.986c0.131,1.061,0.257,2.071,0.381,3.081c0.064,0.522,0.116,1.047,0.194,1.567
		c0.051,0.334-0.052,0.516-0.38,0.648c-1.322,0.532-2.7,0.735-4.111,0.793c-1.318,0.054-2.62-0.016-3.859-0.515
		c-1.994-0.803-2.933-2.394-3.264-4.43c-0.24-1.475-0.137-2.963-0.153-4.445c-0.012-1.15-0.018-2.301,0.009-3.451
		c0.007-0.3-0.092-0.332-0.337-0.32c-0.367,0.017-0.735-0.008-1.102,0.008c-0.255,0.011-0.329-0.09-0.327-0.336
		c0.009-1.406,0.009-2.812,0-4.218c-0.001-0.248,0.077-0.345,0.33-0.333c0.351,0.016,0.704-0.015,1.054,0.009
		c0.298,0.02,0.381-0.086,0.377-0.378c-0.014-1.214,0.009-2.429-0.015-3.642c-0.008-0.383,0.108-0.485,0.485-0.481
		c1.725,0.019,3.451,0.02,5.176-0.001c0.374-0.004,0.451,0.118,0.445,0.465c-0.02,1.214,0.003,2.429-0.015,3.642
		c-0.005,0.321,0.098,0.398,0.404,0.395c1.598-0.014,3.195,0.005,4.793-0.015c0.356-0.004,0.46,0.073,0.43,0.444
		c-0.197,2.489-2.28,4.433-4.791,4.444c-0.83,0.004-0.832,0.004-0.829,0.857c0.006,1.454,0.015,2.907,0.023,4.361
		c0,0.064,0,0.128,0.003,0.192c0.08,1.761,0.893,2.451,2.657,2.301C170.911,27.557,171.71,27.398,172.501,26.986z"/>
	<path fill="#0187D1" d="M27.022,29.613c-0.026,7.082-5.22,13.151-12.174,14.2c-0.616,0.093-1.233,0.158-1.856,0.186
		c-0.386,0.017-0.409-0.098-0.292-0.424c1.332-3.703,2.654-7.41,3.978-11.117c1.614-4.518,3.231-9.034,4.833-13.555
		c0.136-0.384,0.235-0.431,0.545-0.152c2.835,2.558,4.506,5.705,4.857,9.527C26.953,28.722,26.986,29.168,27.022,29.613z"/>
	<path fill="#0287D1" d="M79.747,20.854c-0.873-0.286-1.708-0.468-2.583-0.385c-1.476,0.14-2.44,0.927-2.858,2.356
		c-0.203,0.695-0.278,1.409-0.278,2.131c-0.001,2.381-0.007,4.762,0.007,7.144c0.002,0.344-0.07,0.469-0.446,0.465
		c-1.758-0.021-3.516-0.017-5.274-0.002c-0.334,0.003-0.432-0.091-0.432-0.429c0.01-5.562,0.01-11.123,0-16.685
		c-0.001-0.35,0.121-0.42,0.442-0.418c1.71,0.014,3.42,0.017,5.13-0.002c0.35-0.004,0.434,0.106,0.422,0.433
		c-0.023,0.632-0.007,1.266-0.007,1.946c0.237-0.08,0.249-0.243,0.316-0.352c1.241-2.018,3.101-2.622,5.26-2.225
		c0.17,0.031,0.303,0.073,0.303,0.289C79.746,17.018,79.747,18.916,79.747,20.854z"/>
	<path fill="#0287D1" d="M32.175,6.707c1.933,0,3.865,0.008,5.798-0.007c0.35-0.003,0.464,0.076,0.453,0.451
		c-0.107,3.931-3.347,7.551-7.233,8.077c-0.541,0.073-1.079,0.102-1.622,0.103c-2.108,0.003-4.217-0.006-6.325,0.008
		c-0.362,0.002-0.431-0.073-0.303-0.426c0.947-2.62,1.881-5.245,2.802-7.875c0.103-0.295,0.27-0.335,0.535-0.334
		C28.246,6.71,30.211,6.707,32.175,6.707z"/>
	<path fill="#0187D1" d="M213.855,23.826c0,2.733-0.008,5.466,0.008,8.198c0.002,0.397-0.062,0.552-0.513,0.543
		c-1.709-0.031-3.42-0.02-5.13-0.006c-0.332,0.003-0.472-0.046-0.472-0.433c0.013-5.562,0.012-11.123,0.001-16.685
		c-0.001-0.348,0.113-0.416,0.434-0.414c1.742,0.015,3.484,0.018,5.226-0.001c0.361-0.004,0.455,0.095,0.453,0.454
		C213.849,18.264,213.855,21.045,213.855,23.826z"/>
	<path fill="#0187D1" d="M210.818,5.816c1.966,0,3.42,1.402,3.412,3.29c-0.009,1.875-1.448,3.247-3.405,3.247
		c-2.006-0.001-3.447-1.35-3.462-3.242C207.348,7.21,208.81,5.816,210.818,5.816z"/>
	<path fill="#0287D1" d="M257.794,10.386c-0.43,0.156-0.661,0.006-0.816-0.334c-0.065-0.144-0.176-0.266-0.247-0.408
		c-0.104-0.206-0.285-0.19-0.455-0.162c-0.216,0.035-0.118,0.225-0.134,0.351c-0.014,0.11-0.012,0.224-0.002,0.335
		c0.018,0.208-0.07,0.281-0.276,0.278c-0.192-0.002-0.245-0.087-0.244-0.261c0.004-0.75,0.002-1.501,0-2.251
		c0-0.16,0.025-0.282,0.232-0.273c0.382,0.016,0.768-0.041,1.143,0.069c0.606,0.177,0.902,0.93,0.465,1.359
		c-0.327,0.321-0.162,0.492,0.001,0.74C257.572,9.998,257.67,10.177,257.794,10.386z M256.147,8.549
		c-0.03,0.232-0.058,0.471,0.327,0.437c0.282-0.025,0.584-0.027,0.602-0.387c0.02-0.388-0.295-0.425-0.592-0.462
		C256.16,8.096,256.1,8.265,256.147,8.549z"/>
</g>
</svg>
